\relax 
\providecommand \oddpage@label [2]{}
\@writefile{lot}{\contentsline {table}{\numberline {1}{\ignorespaces Patient 1 (11712)\relax }}{2}}
\providecommand*\caption@xref[2]{\@setref\relax\@undefined{#1}}
\newlabel{p1}{{1}{2}}
\@writefile{lot}{\contentsline {table}{\numberline {2}{\ignorespaces Patient 2 (11714)\relax }}{3}}
\newlabel{p1}{{2}{3}}
\@writefile{lot}{\contentsline {table}{\numberline {3}{\ignorespaces Patient 3 (11803)\relax }}{4}}
\newlabel{p1}{{3}{4}}
\@writefile{lot}{\contentsline {table}{\numberline {4}{\ignorespaces Patient 4 (11813)\relax }}{5}}
\newlabel{p1}{{4}{5}}
\@writefile{lot}{\contentsline {table}{\numberline {5}{\ignorespaces Patient 5 (11829)\relax }}{6}}
\newlabel{p1}{{5}{6}}
\@writefile{lot}{\contentsline {table}{\numberline {6}{\ignorespaces Patient 6 (11873)\relax }}{7}}
\newlabel{p1}{{6}{7}}
\@writefile{lot}{\contentsline {table}{\numberline {7}{\ignorespaces Patient 7 (11883)\relax }}{8}}
\newlabel{p1}{{7}{8}}
\@writefile{lot}{\contentsline {table}{\numberline {8}{\ignorespaces Patient 8 (11997)\relax }}{9}}
\newlabel{p1}{{8}{9}}
\@writefile{lot}{\contentsline {table}{\numberline {9}{\ignorespaces Patient 9 (12069)\relax }}{10}}
\newlabel{p1}{{9}{10}}
\@writefile{lot}{\contentsline {table}{\numberline {10}{\ignorespaces Patient 10 (12171)\relax }}{11}}
\newlabel{p1}{{10}{11}}
\@writefile{lot}{\contentsline {table}{\numberline {11}{\ignorespaces Patient 11 (12263)\relax }}{12}}
\newlabel{p1}{{11}{12}}
\@writefile{lot}{\contentsline {table}{\numberline {12}{\ignorespaces Results\relax }}{13}}
\newlabel{p1}{{12}{13}}
