\relax 
\@writefile{toc}{\contentsline {section}{\numberline {1}Introduction}{3}}
\@writefile{toc}{\contentsline {section}{\numberline {2}Algorithm}{3}}
\@writefile{toc}{\contentsline {section}{\numberline {3}Results}{4}}
\@writefile{lof}{\contentsline {figure}{\numberline {1}{\ignorespaces texture 1(reference texture to compare with)\relax }}{4}}
\providecommand*\caption@xref[2]{\@setref\relax\@undefined{#1}}
\newlabel{fig1}{{1}{4}}
\@writefile{lof}{\contentsline {figure}{\numberline {2}{\ignorespaces texture 2\relax }}{5}}
\newlabel{fig2}{{2}{5}}
\@writefile{lof}{\contentsline {figure}{\numberline {3}{\ignorespaces texture 3\relax }}{5}}
\newlabel{fig3}{{3}{5}}
\newlabel{sub1}{{4a}{6}}
\newlabel{sub@sub1}{{a}{6}}
\newlabel{sub2}{{4b}{6}}
\newlabel{sub@sub2}{{b}{6}}
\@writefile{lof}{\contentsline {figure}{\numberline {4}{\ignorespaces Similarity comparison for texture 1 and texture 2. Error Value:$196.193558$\relax }}{6}}
\newlabel{fig4}{{4}{6}}
\newlabel{sub3}{{5a}{7}}
\newlabel{sub@sub3}{{a}{7}}
\newlabel{sub4}{{5b}{7}}
\newlabel{sub@sub4}{{b}{7}}
\@writefile{lof}{\contentsline {figure}{\numberline {5}{\ignorespaces Similarity comparison for texture 1 and texture 3.Error Value:$469.731232$\relax }}{7}}
\newlabel{fig5}{{5}{7}}
\@writefile{lof}{\contentsline {figure}{\numberline {6}{\ignorespaces checkertype1\relax }}{8}}
\newlabel{fig6}{{6}{8}}
\@writefile{lof}{\contentsline {figure}{\numberline {7}{\ignorespaces checkertype2\relax }}{8}}
\newlabel{fig7}{{7}{8}}
\@writefile{lof}{\contentsline {figure}{\numberline {8}{\ignorespaces Both self similarity of Figure 6 and similarity output of Figure 7 with regards to Figure 6 are the same. Error Value:0.0000\relax }}{9}}
\newlabel{fig8}{{8}{9}}
\@writefile{lof}{\contentsline {figure}{\numberline {9}{\ignorespaces SSIM for Figure 6 and Figure 7\relax }}{9}}
\newlabel{fig9}{{9}{9}}
\@writefile{toc}{\contentsline {section}{\numberline {4}Summary}{10}}
