\contentsline {section}{\numberline {1}Introduction}{3}
\contentsline {section}{\numberline {2}Algorithm}{3}
\contentsline {section}{\numberline {3}Results}{4}
\contentsline {section}{\numberline {4}Summary}{10}
