\relax 
\providecommand\hyper@newdestlabel[2]{}
\providecommand\HyperFirstAtBeginDocument{\AtBeginDocument}
\HyperFirstAtBeginDocument{\ifx\hyper@anchor\@undefined
\global\let\oldcontentsline\contentsline
\gdef\contentsline#1#2#3#4{\oldcontentsline{#1}{#2}{#3}}
\global\let\oldnewlabel\newlabel
\gdef\newlabel#1#2{\newlabelxx{#1}#2}
\gdef\newlabelxx#1#2#3#4#5#6{\oldnewlabel{#1}{{#2}{#3}}}
\AtEndDocument{\ifx\hyper@anchor\@undefined
\let\contentsline\oldcontentsline
\let\newlabel\oldnewlabel
\fi}
\fi}
\global\let\hyper@last\relax 
\gdef\HyperFirstAtBeginDocument#1{#1}
\providecommand\HyField@AuxAddToFields[1]{}
\providecommand\HyField@AuxAddToCoFields[2]{}
\providecommand \oddpage@label [2]{}
\@writefile{toc}{\beamer@endinputifotherversion {3.36pt}}
\@writefile{nav}{\beamer@endinputifotherversion {3.36pt}}
\@writefile{nav}{\headcommand {\slideentry {0}{0}{1}{1/1}{}{0}}}
\@writefile{nav}{\headcommand {\beamer@framepages {1}{1}}}
\@writefile{nav}{\headcommand {\slideentry {0}{0}{2}{2/2}{}{0}}}
\@writefile{nav}{\headcommand {\beamer@framepages {2}{2}}}
\@writefile{toc}{\beamer@sectionintoc {1}{Problem}{3}{0}{1}}
\@writefile{nav}{\headcommand {\sectionentry {1}{Problem}{3}{Problem}{0}}}
\@writefile{nav}{\headcommand {\beamer@sectionpages {1}{2}}}
\@writefile{nav}{\headcommand {\beamer@subsectionpages {1}{2}}}
\@writefile{toc}{\beamer@subsectionintoc {1}{1}{Motivation}{3}{0}{1}}
\@writefile{nav}{\headcommand {\beamer@subsectionentry {0}{1}{1}{3}{Motivation}}\headcommand {\beamer@subsectionpages {3}{2}}}
\@writefile{nav}{\headcommand {\slideentry {1}{1}{1}{3/3}{Motivation}{0}}}
\@writefile{nav}{\headcommand {\beamer@framepages {3}{3}}}
\@writefile{toc}{\beamer@subsectionintoc {1}{2}{Introduction}{4}{0}{1}}
\@writefile{nav}{\headcommand {\beamer@subsectionentry {0}{1}{2}{4}{Introduction}}\headcommand {\beamer@subsectionpages {3}{3}}}
\@writefile{nav}{\headcommand {\slideentry {1}{2}{1}{4/4}{Introduction}{0}}}
\@writefile{nav}{\headcommand {\beamer@framepages {4}{4}}}
\@writefile{toc}{\beamer@sectionintoc {2}{Background Work}{5}{0}{2}}
\@writefile{nav}{\headcommand {\sectionentry {2}{Background Work}{5}{Background Work}{0}}}
\@writefile{nav}{\headcommand {\beamer@sectionpages {3}{4}}}
\@writefile{nav}{\headcommand {\beamer@subsectionpages {4}{4}}}
\@writefile{toc}{\beamer@subsectionintoc {2}{1}{Error Measures}{5}{0}{2}}
\@writefile{nav}{\headcommand {\beamer@subsectionentry {0}{2}{1}{5}{Error Measures}}\headcommand {\beamer@subsectionpages {5}{4}}}
\@writefile{snm}{\beamer@slide {MSEeq}{5}}
\newlabel{MSEeq}{{1}{5}{Error Measures}{Doc-Start}{}}
\@writefile{nav}{\headcommand {\slideentry {2}{1}{1}{5/5}{Error Measures}{0}}}
\@writefile{nav}{\headcommand {\beamer@framepages {5}{5}}}
\citation{ssim}
\@writefile{snm}{\beamer@slide {SSIMeq}{6}}
\newlabel{SSIMeq}{{2}{6}{Error Measures}{Doc-Start}{}}
\@writefile{nav}{\headcommand {\slideentry {2}{1}{2}{6/6}{Error Measures}{0}}}
\@writefile{nav}{\headcommand {\beamer@framepages {6}{6}}}
\citation{msssim}
\@writefile{nav}{\headcommand {\slideentry {2}{1}{3}{7/7}{Error Measures}{0}}}
\@writefile{nav}{\headcommand {\beamer@framepages {7}{7}}}
\@writefile{nav}{\headcommand {\slideentry {2}{1}{4}{8/8}{Error Measures}{0}}}
\@writefile{nav}{\headcommand {\beamer@framepages {8}{8}}}
\@writefile{toc}{\beamer@subsectionintoc {2}{2}{Texture Classification}{9}{0}{2}}
\@writefile{nav}{\headcommand {\beamer@subsectionentry {0}{2}{2}{9}{Texture Classification}}\headcommand {\beamer@subsectionpages {5}{8}}}
\@writefile{nav}{\headcommand {\slideentry {2}{2}{1}{9/9}{Texture Classification}{0}}}
\@writefile{nav}{\headcommand {\beamer@framepages {9}{9}}}
\citation{lbpcode}
\providecommand*\caption@xref[2]{\@setref\relax\@undefined{#1}}
\newlabel{lbpt1}{{1a}{10}{Intensity values\relax }{Doc-Start}{}}
\@writefile{snm}{\beamer@slide {lbpt1}{10}}
\newlabel{sub@lbpt1}{{a}{10}{Intensity values\relax }{Doc-Start}{}}
\@writefile{snm}{\beamer@slide {sub@lbpt1}{10}}
\newlabel{lbpt2}{{1b}{10}{Thresholds\relax }{Doc-Start}{}}
\@writefile{snm}{\beamer@slide {lbpt2}{10}}
\newlabel{sub@lbpt2}{{b}{10}{Thresholds\relax }{Doc-Start}{}}
\@writefile{snm}{\beamer@slide {sub@lbpt2}{10}}
\newlabel{lbpt3}{{1c}{10}{Weights\relax }{Doc-Start}{}}
\@writefile{snm}{\beamer@slide {lbpt3}{10}}
\newlabel{sub@lbpt3}{{c}{10}{Weights\relax }{Doc-Start}{}}
\@writefile{snm}{\beamer@slide {sub@lbpt3}{10}}
\newlabel{lbpt}{{\caption@xref {lbpt}{ on input line 403}}{10}{Texture Classification}{Doc-Start}{}}
\@writefile{snm}{\beamer@slide {lbpt}{10}}
\@writefile{nav}{\headcommand {\slideentry {2}{2}{2}{10/10}{Texture Classification}{0}}}
\@writefile{nav}{\headcommand {\beamer@framepages {10}{10}}}
\@writefile{nav}{\headcommand {\slideentry {2}{2}{3}{11/11}{Texture Classification}{0}}}
\@writefile{nav}{\headcommand {\beamer@framepages {11}{11}}}
\@writefile{nav}{\headcommand {\slideentry {2}{2}{4}{12/12}{Texture Classification}{0}}}
\@writefile{nav}{\headcommand {\beamer@framepages {12}{12}}}
\@writefile{nav}{\headcommand {\slideentry {2}{2}{5}{13/13}{Texture Classification}{0}}}
\@writefile{nav}{\headcommand {\beamer@framepages {13}{13}}}
\@writefile{toc}{\beamer@subsectionintoc {2}{3}{Non-Local Means}{14}{0}{2}}
\@writefile{nav}{\headcommand {\beamer@subsectionentry {0}{2}{3}{14}{Non-Local Means}}\headcommand {\beamer@subsectionpages {9}{13}}}
\@writefile{snm}{\beamer@slide {nlpixeleq}{14}}
\newlabel{nlpixeleq}{{3}{14}{Non-Local Means}{Doc-Start}{}}
\@writefile{snm}{\beamer@slide {weightnleq}{14}}
\newlabel{weightnleq}{{4}{14}{Non-Local Means}{Doc-Start}{}}
\@writefile{nav}{\headcommand {\slideentry {2}{3}{1}{14/14}{Non-Local Means}{0}}}
\@writefile{nav}{\headcommand {\beamer@framepages {14}{14}}}
\@writefile{nav}{\headcommand {\slideentry {2}{3}{2}{15/15}{Non-Local Means}{0}}}
\@writefile{nav}{\headcommand {\beamer@framepages {15}{15}}}
\@writefile{toc}{\beamer@sectionintoc {3}{Contribution}{16}{0}{3}}
\@writefile{nav}{\headcommand {\sectionentry {3}{Contribution}{16}{Contribution}{0}}}
\@writefile{nav}{\headcommand {\beamer@sectionpages {5}{15}}}
\@writefile{nav}{\headcommand {\beamer@subsectionpages {14}{15}}}
\@writefile{toc}{\beamer@subsectionintoc {3}{1}{Base Idea}{16}{0}{3}}
\@writefile{nav}{\headcommand {\beamer@subsectionentry {0}{3}{1}{16}{Base Idea}}\headcommand {\beamer@subsectionpages {16}{15}}}
\@writefile{nav}{\headcommand {\slideentry {3}{1}{1}{16/16}{Base Idea}{0}}}
\@writefile{nav}{\headcommand {\beamer@framepages {16}{16}}}
\@writefile{toc}{\beamer@subsectionintoc {3}{2}{Similarity Structures}{17}{0}{3}}
\@writefile{nav}{\headcommand {\beamer@subsectionentry {0}{3}{2}{17}{Similarity Structures}}\headcommand {\beamer@subsectionpages {16}{16}}}
\@writefile{snm}{\beamer@slide {nlmeans1}{17}}
\newlabel{nlmeans1}{{5}{17}{Similarity Structures}{Doc-Start}{}}
\@writefile{nav}{\headcommand {\slideentry {3}{2}{1}{17/17}{Similarity Structures}{0}}}
\@writefile{nav}{\headcommand {\beamer@framepages {17}{17}}}
\@writefile{snm}{\beamer@slide {nlmeans2}{18}}
\newlabel{nlmeans2}{{7}{18}{Similarity Structures}{Doc-Start}{}}
\@writefile{snm}{\beamer@slide {erroreq1}{18}}
\newlabel{erroreq1}{{9}{18}{Similarity Structures}{Doc-Start}{}}
\@writefile{nav}{\headcommand {\slideentry {3}{2}{2}{18/18}{Similarity Structures}{0}}}
\@writefile{nav}{\headcommand {\beamer@framepages {18}{18}}}
\@writefile{snm}{\beamer@slide {nlmeans3}{19}}
\newlabel{nlmeans3}{{10}{19}{Similarity Structures}{Doc-Start}{}}
\@writefile{nav}{\headcommand {\slideentry {3}{2}{3}{19/19}{Similarity Structures}{0}}}
\@writefile{nav}{\headcommand {\beamer@framepages {19}{19}}}
\@writefile{snm}{\beamer@slide {nlmeans4}{20}}
\newlabel{nlmeans4}{{12}{20}{Similarity Structures}{Doc-Start}{}}
\@writefile{snm}{\beamer@slide {erroreq2}{20}}
\newlabel{erroreq2}{{14}{20}{Similarity Structures}{Doc-Start}{}}
\@writefile{nav}{\headcommand {\slideentry {3}{2}{4}{20/20}{Similarity Structures}{0}}}
\@writefile{nav}{\headcommand {\beamer@framepages {20}{20}}}
\@writefile{nav}{\headcommand {\slideentry {3}{2}{5}{21/21}{Similarity Structures}{0}}}
\@writefile{nav}{\headcommand {\beamer@framepages {21}{21}}}
\@writefile{nav}{\headcommand {\slideentry {3}{2}{6}{22/22}{Similarity Structures}{0}}}
\@writefile{nav}{\headcommand {\beamer@framepages {22}{22}}}
\@writefile{nav}{\headcommand {\slideentry {3}{2}{7}{23/23}{Similarity Structures}{0}}}
\@writefile{nav}{\headcommand {\beamer@framepages {23}{23}}}
\@writefile{toc}{\beamer@subsectionintoc {3}{3}{Handling Invariances}{24}{0}{3}}
\@writefile{nav}{\headcommand {\beamer@subsectionentry {0}{3}{3}{24}{Handling Invariances}}\headcommand {\beamer@subsectionpages {17}{23}}}
\@writefile{nav}{\headcommand {\slideentry {3}{3}{1}{24/24}{Handling Invariances}{0}}}
\@writefile{nav}{\headcommand {\beamer@framepages {24}{24}}}
\citation{brodatz}
\@writefile{nav}{\headcommand {\slideentry {3}{3}{2}{25/25}{Handling Invariances}{0}}}
\@writefile{nav}{\headcommand {\beamer@framepages {25}{25}}}
\citation{brodatz}
\@writefile{nav}{\headcommand {\slideentry {3}{3}{3}{26/26}{Handling Invariances}{0}}}
\@writefile{nav}{\headcommand {\beamer@framepages {26}{26}}}
\newlabel{ranktable1}{{2a}{27}{Intensity values\relax }{Doc-Start}{}}
\@writefile{snm}{\beamer@slide {ranktable1}{27}}
\newlabel{sub@ranktable1}{{a}{27}{Intensity values\relax }{Doc-Start}{}}
\@writefile{snm}{\beamer@slide {sub@ranktable1}{27}}
\newlabel{ranktable2}{{2b}{27}{Rank\relax }{Doc-Start}{}}
\@writefile{snm}{\beamer@slide {ranktable2}{27}}
\newlabel{sub@ranktable2}{{b}{27}{Rank\relax }{Doc-Start}{}}
\@writefile{snm}{\beamer@slide {sub@ranktable2}{27}}
\newlabel{censustable2}{{2c}{27}{Census\relax }{Doc-Start}{}}
\@writefile{snm}{\beamer@slide {censustable2}{27}}
\newlabel{sub@censustable2}{{c}{27}{Census\relax }{Doc-Start}{}}
\@writefile{snm}{\beamer@slide {sub@censustable2}{27}}
\newlabel{completeranktable2}{{2d}{27}{Complete Rank\relax }{Doc-Start}{}}
\@writefile{snm}{\beamer@slide {completeranktable2}{27}}
\newlabel{sub@completeranktable2}{{d}{27}{Complete Rank\relax }{Doc-Start}{}}
\@writefile{snm}{\beamer@slide {sub@completeranktable2}{27}}
\@writefile{nav}{\headcommand {\slideentry {3}{3}{4}{27/27}{Handling Invariances}{0}}}
\@writefile{nav}{\headcommand {\beamer@framepages {27}{27}}}
\@writefile{nav}{\headcommand {\slideentry {3}{3}{5}{28/28}{Handling Invariances}{0}}}
\@writefile{nav}{\headcommand {\beamer@framepages {28}{28}}}
\citation{brodatz}
\@writefile{toc}{\beamer@sectionintoc {4}{Results}{29}{0}{4}}
\@writefile{nav}{\headcommand {\sectionentry {4}{Results}{29}{Results}{0}}}
\@writefile{nav}{\headcommand {\beamer@sectionpages {16}{28}}}
\@writefile{nav}{\headcommand {\beamer@subsectionpages {24}{28}}}
\newlabel{es-1}{{3a}{29}{Rough Wall texture 1 \relax }{Doc-Start}{}}
\@writefile{snm}{\beamer@slide {es-1}{29}}
\newlabel{sub@es-1}{{a}{29}{Rough Wall texture 1 \relax }{Doc-Start}{}}
\@writefile{snm}{\beamer@slide {sub@es-1}{29}}
\newlabel{es-2}{{3b}{29}{Rough Wall texture 2\relax }{Doc-Start}{}}
\@writefile{snm}{\beamer@slide {es-2}{29}}
\newlabel{sub@es-2}{{b}{29}{Rough Wall texture 2\relax }{Doc-Start}{}}
\@writefile{snm}{\beamer@slide {sub@es-2}{29}}
\newlabel{es:1}{{\caption@xref {es:1}{ on input line 791}}{29}{Results}{Doc-Start}{}}
\@writefile{snm}{\beamer@slide {es:1}{29}}
\@writefile{nav}{\headcommand {\slideentry {4}{0}{1}{29/29}{}{0}}}
\@writefile{nav}{\headcommand {\beamer@framepages {29}{29}}}
\citation{brodatz}
\@writefile{nav}{\headcommand {\slideentry {4}{0}{2}{30/30}{}{0}}}
\@writefile{nav}{\headcommand {\beamer@framepages {30}{30}}}
\citation{brodatz}
\@writefile{nav}{\headcommand {\slideentry {4}{0}{3}{31/31}{}{0}}}
\@writefile{nav}{\headcommand {\beamer@framepages {31}{31}}}
\citation{brodatz}
\@writefile{nav}{\headcommand {\slideentry {4}{0}{4}{32/32}{}{0}}}
\@writefile{nav}{\headcommand {\beamer@framepages {32}{32}}}
\citation{brodatz}
\@writefile{nav}{\headcommand {\slideentry {4}{0}{5}{33/33}{}{0}}}
\@writefile{nav}{\headcommand {\beamer@framepages {33}{33}}}
\citation{live}
\@writefile{nav}{\headcommand {\slideentry {4}{0}{6}{34/34}{}{0}}}
\@writefile{nav}{\headcommand {\beamer@framepages {34}{34}}}
\newlabel{check5:1}{{4a}{35}{Checkerboard image\relax }{Doc-Start}{}}
\@writefile{snm}{\beamer@slide {check5:1}{35}}
\newlabel{sub@check5:1}{{a}{35}{Checkerboard image\relax }{Doc-Start}{}}
\@writefile{snm}{\beamer@slide {sub@check5:1}{35}}
\newlabel{check5:2}{{4b}{35}{Shifted checkerboard\relax }{Doc-Start}{}}
\@writefile{snm}{\beamer@slide {check5:2}{35}}
\newlabel{sub@check5:2}{{b}{35}{Shifted checkerboard\relax }{Doc-Start}{}}
\@writefile{snm}{\beamer@slide {sub@check5:2}{35}}
\newlabel{check5}{{\caption@xref {check5}{ on input line 944}}{35}{Results}{Doc-Start}{}}
\@writefile{snm}{\beamer@slide {check5}{35}}
\@writefile{nav}{\headcommand {\slideentry {4}{0}{7}{35/35}{}{0}}}
\@writefile{nav}{\headcommand {\beamer@framepages {35}{35}}}
\citation{curet}
\@writefile{nav}{\headcommand {\slideentry {4}{0}{8}{36/36}{}{0}}}
\@writefile{nav}{\headcommand {\beamer@framepages {36}{36}}}
\citation{curet}
\@writefile{nav}{\headcommand {\slideentry {4}{0}{9}{37/37}{}{0}}}
\@writefile{nav}{\headcommand {\beamer@framepages {37}{37}}}
\newlabel{my-label}{{\caption@xref {my-label}{ on input line 1016}}{38}{Results}{Doc-Start}{}}
\@writefile{snm}{\beamer@slide {my-label}{38}}
\@writefile{nav}{\headcommand {\slideentry {4}{0}{10}{38/38}{}{0}}}
\@writefile{nav}{\headcommand {\beamer@framepages {38}{38}}}
\@writefile{nav}{\headcommand {\slideentry {4}{0}{11}{39/39}{}{0}}}
\@writefile{nav}{\headcommand {\beamer@framepages {39}{39}}}
\bibcite{nlmeans}{\hyperlink {beamerbibnlmeans}{1}}
\bibcite{mse}{\hyperlink {beamerbibmse}{2}}
\bibcite{ssim}{\hyperlink {beamerbibssim}{3}}
\bibcite{msssim}{\hyperlink {beamerbibmsssim}{4}}
\bibcite{ssimcode}{\hyperlink {beamerbibssimcode}{5}}
\bibcite{msssimcode}{\hyperlink {beamerbibmsssimcode}{6}}
\bibcite{lbp}{\hyperlink {beamerbiblbp}{7}}
\bibcite{lbpcode}{\hyperlink {beamerbiblbpcode}{8}}
\bibcite{lbpprocedure}{\hyperlink {beamerbiblbpprocedure}{9}}
\bibcite{lbpdis}{\hyperlink {beamerbiblbpdis}{10}}
\bibcite{illuminationinvariance}{\hyperlink {beamerbibilluminationinvariance}{11}}
\bibcite{rotationinvariance}{\hyperlink {beamerbibrotationinvariance}{12}}
\bibcite{rank}{\hyperlink {beamerbibrank}{13}}
\bibcite{rankproof}{\hyperlink {beamerbibrankproof}{14}}
\bibcite{census}{\hyperlink {beamerbibcensus}{15}}
\bibcite{census1}{\hyperlink {beamerbibcensus1}{16}}
\bibcite{census2}{\hyperlink {beamerbibcensus2}{17}}
\bibcite{completerank}{\hyperlink {beamerbibcompleterank}{18}}
\bibcite{lossy}{\hyperlink {beamerbiblossy}{19}}
\bibcite{statistics1}{\hyperlink {beamerbibstatistics1}{20}}
\bibcite{statistics2}{\hyperlink {beamerbibstatistics2}{21}}
\bibcite{curet}{\hyperlink {beamerbibcuret}{22}}
\bibcite{brodatz}{\hyperlink {beamerbibbrodatz}{23}}
\bibcite{live}{\hyperlink {beamerbiblive}{24}}
\bibcite{hyphersphere}{\hyperlink {beamerbibhyphersphere}{25}}
\@writefile{nav}{\headcommand {\slideentry {4}{0}{12}{40/40}{}{0}}}
\@writefile{nav}{\headcommand {\beamer@framepages {40}{40}}}
\@writefile{nav}{\headcommand {\slideentry {4}{0}{12}{40/41}{}{0}}}
\@writefile{nav}{\headcommand {\beamer@framepages {40}{41}}}
\@writefile{nav}{\headcommand {\slideentry {4}{0}{12}{40/42}{}{0}}}
\@writefile{nav}{\headcommand {\beamer@framepages {40}{42}}}
\@writefile{nav}{\headcommand {\slideentry {4}{0}{12}{40/43}{}{0}}}
\@writefile{nav}{\headcommand {\beamer@framepages {40}{43}}}
\@writefile{nav}{\headcommand {\slideentry {4}{0}{12}{40/44}{}{0}}}
\@writefile{nav}{\headcommand {\beamer@framepages {40}{44}}}
\@writefile{nav}{\headcommand {\slideentry {4}{0}{12}{40/45}{}{0}}}
\@writefile{nav}{\headcommand {\beamer@framepages {40}{45}}}
\@writefile{nav}{\headcommand {\slideentry {4}{0}{13}{46/46}{}{0}}}
\@writefile{nav}{\headcommand {\beamer@framepages {46}{46}}}
\@writefile{nav}{\headcommand {\slideentry {4}{0}{14}{47/47}{}{0}}}
\@writefile{nav}{\headcommand {\beamer@framepages {47}{47}}}
\citation{nlmeans}
\@writefile{nav}{\headcommand {\slideentry {4}{0}{15}{48/48}{}{0}}}
\@writefile{nav}{\headcommand {\beamer@framepages {48}{48}}}
\citation{brodatz}
\@writefile{nav}{\headcommand {\slideentry {4}{0}{16}{49/49}{}{0}}}
\@writefile{nav}{\headcommand {\beamer@framepages {49}{49}}}
\citation{brodatz}
\@writefile{nav}{\headcommand {\slideentry {4}{0}{17}{50/50}{}{0}}}
\@writefile{nav}{\headcommand {\beamer@framepages {50}{50}}}
\citation{brodatz}
\@writefile{nav}{\headcommand {\slideentry {4}{0}{18}{51/51}{}{0}}}
\@writefile{nav}{\headcommand {\beamer@framepages {51}{51}}}
\@writefile{snm}{\beamer@slide {errorillumeq}{52}}
\newlabel{errorillumeq}{{20}{52}{Results}{Doc-Start}{}}
\@writefile{nav}{\headcommand {\slideentry {4}{0}{19}{52/52}{}{0}}}
\@writefile{nav}{\headcommand {\beamer@framepages {52}{52}}}
\@writefile{nav}{\headcommand {\slideentry {4}{0}{20}{53/53}{}{0}}}
\@writefile{nav}{\headcommand {\beamer@framepages {53}{53}}}
\@writefile{snm}{\beamer@slide {errorrotateeq}{54}}
\newlabel{errorrotateeq}{{25}{54}{Results}{Doc-Start}{}}
\@writefile{nav}{\headcommand {\slideentry {4}{0}{21}{54/54}{}{0}}}
\@writefile{nav}{\headcommand {\beamer@framepages {54}{54}}}
\citation{brodatz}
\newlabel{es-1}{{5a}{55}{Raffia texture 1 \relax }{Doc-Start}{}}
\@writefile{snm}{\beamer@slide {es-1}{55}}
\newlabel{sub@es-1}{{a}{55}{Raffia texture 1 \relax }{Doc-Start}{}}
\@writefile{snm}{\beamer@slide {sub@es-1}{55}}
\newlabel{es-2}{{5b}{55}{Raffia texture 2\relax }{Doc-Start}{}}
\@writefile{snm}{\beamer@slide {es-2}{55}}
\newlabel{sub@es-2}{{b}{55}{Raffia texture 2\relax }{Doc-Start}{}}
\@writefile{snm}{\beamer@slide {sub@es-2}{55}}
\newlabel{es:1}{{\caption@xref {es:1}{ on input line 1327}}{55}{Results}{Doc-Start}{}}
\@writefile{snm}{\beamer@slide {es:1}{55}}
\@writefile{nav}{\headcommand {\slideentry {4}{0}{22}{55/55}{}{0}}}
\@writefile{nav}{\headcommand {\beamer@framepages {55}{55}}}
\citation{brodatz}
\@writefile{nav}{\headcommand {\slideentry {4}{0}{23}{56/56}{}{0}}}
\@writefile{nav}{\headcommand {\beamer@framepages {56}{56}}}
\citation{brodatz}
\@writefile{nav}{\headcommand {\slideentry {4}{0}{24}{57/57}{}{0}}}
\@writefile{nav}{\headcommand {\beamer@framepages {57}{57}}}
\citation{brodatz}
\@writefile{nav}{\headcommand {\slideentry {4}{0}{25}{58/58}{}{0}}}
\@writefile{nav}{\headcommand {\beamer@framepages {58}{58}}}
\citation{brodatz}
\@writefile{nav}{\headcommand {\slideentry {4}{0}{26}{59/59}{}{0}}}
\@writefile{nav}{\headcommand {\beamer@framepages {59}{59}}}
\citation{brodatz}
\newlabel{es-1}{{6a}{60}{Plastic bubble texture 1 \relax }{Doc-Start}{}}
\@writefile{snm}{\beamer@slide {es-1}{60}}
\newlabel{sub@es-1}{{a}{60}{Plastic bubble texture 1 \relax }{Doc-Start}{}}
\@writefile{snm}{\beamer@slide {sub@es-1}{60}}
\newlabel{es-2}{{6b}{60}{Plastic bubble texture 2\relax }{Doc-Start}{}}
\@writefile{snm}{\beamer@slide {es-2}{60}}
\newlabel{sub@es-2}{{b}{60}{Plastic bubble texture 2\relax }{Doc-Start}{}}
\@writefile{snm}{\beamer@slide {sub@es-2}{60}}
\newlabel{es:1}{{\caption@xref {es:1}{ on input line 1460}}{60}{Results}{Doc-Start}{}}
\@writefile{snm}{\beamer@slide {es:1}{60}}
\@writefile{nav}{\headcommand {\slideentry {4}{0}{27}{60/60}{}{0}}}
\@writefile{nav}{\headcommand {\beamer@framepages {60}{60}}}
\citation{brodatz}
\@writefile{nav}{\headcommand {\slideentry {4}{0}{28}{61/61}{}{0}}}
\@writefile{nav}{\headcommand {\beamer@framepages {61}{61}}}
\citation{brodatz}
\@writefile{nav}{\headcommand {\slideentry {4}{0}{29}{62/62}{}{0}}}
\@writefile{nav}{\headcommand {\beamer@framepages {62}{62}}}
\citation{brodatz}
\@writefile{nav}{\headcommand {\slideentry {4}{0}{30}{63/63}{}{0}}}
\@writefile{nav}{\headcommand {\beamer@framepages {63}{63}}}
\citation{brodatz}
\@writefile{nav}{\headcommand {\slideentry {4}{0}{31}{64/64}{}{0}}}
\@writefile{nav}{\headcommand {\beamer@framepages {64}{64}}}
\citation{live}
\@writefile{nav}{\headcommand {\slideentry {4}{0}{32}{65/65}{}{0}}}
\@writefile{nav}{\headcommand {\beamer@framepages {65}{65}}}
\citation{live}
\@writefile{nav}{\headcommand {\slideentry {4}{0}{33}{66/66}{}{0}}}
\@writefile{nav}{\headcommand {\beamer@framepages {66}{66}}}
\citation{brodatz}
\@writefile{nav}{\headcommand {\slideentry {4}{0}{34}{67/67}{}{0}}}
\@writefile{nav}{\headcommand {\beamer@framepages {67}{67}}}
\citation{brodatz}
\@writefile{nav}{\headcommand {\slideentry {4}{0}{35}{68/68}{}{0}}}
\@writefile{nav}{\headcommand {\beamer@framepages {68}{68}}}
\newlabel{userstudy}{{1}{69}{Similarity of texture 2 and texture 3 with regards to texture 1 based on human perception\relax }{Doc-Start}{}}
\@writefile{snm}{\beamer@slide {userstudy}{69}}
\@writefile{nav}{\headcommand {\slideentry {4}{0}{36}{69/69}{}{0}}}
\@writefile{nav}{\headcommand {\beamer@framepages {69}{69}}}
\citation{brodatz}
\@writefile{nav}{\headcommand {\slideentry {4}{0}{37}{70/70}{}{0}}}
\@writefile{nav}{\headcommand {\beamer@framepages {70}{70}}}
\citation{brodatz}
\@writefile{nav}{\headcommand {\slideentry {4}{0}{38}{71/71}{}{0}}}
\@writefile{nav}{\headcommand {\beamer@framepages {71}{71}}}
\citation{brodatz}
\citation{brodatz}
\newlabel{referencetex}{{7}{72}{Reference texture for comparison\\ \textbf {Image source:} Brodatz textures \cite {brodatz}\relax }{Doc-Start}{}}
\@writefile{snm}{\beamer@slide {referencetex}{72}}
\@writefile{nav}{\headcommand {\slideentry {4}{0}{39}{72/72}{}{0}}}
\@writefile{nav}{\headcommand {\beamer@framepages {72}{72}}}
\citation{brodatz}
\@writefile{nav}{\headcommand {\slideentry {4}{0}{40}{73/73}{}{0}}}
\@writefile{nav}{\headcommand {\beamer@framepages {73}{73}}}
\@writefile{nav}{\headcommand {\slideentry {4}{0}{41}{74/74}{}{0}}}
\@writefile{nav}{\headcommand {\beamer@framepages {74}{74}}}
\@writefile{nav}{\headcommand {\slideentry {4}{0}{42}{75/75}{}{0}}}
\@writefile{nav}{\headcommand {\beamer@framepages {75}{75}}}
\@writefile{nav}{\headcommand {\slideentry {4}{0}{43}{76/76}{}{0}}}
\@writefile{nav}{\headcommand {\beamer@framepages {76}{76}}}
\@writefile{nav}{\headcommand {\slideentry {4}{0}{44}{77/77}{}{0}}}
\@writefile{nav}{\headcommand {\beamer@framepages {77}{77}}}
\@writefile{nav}{\headcommand {\slideentry {4}{0}{45}{78/78}{}{0}}}
\@writefile{nav}{\headcommand {\beamer@framepages {78}{78}}}
\@writefile{nav}{\headcommand {\slideentry {4}{0}{46}{79/79}{}{0}}}
\@writefile{nav}{\headcommand {\beamer@framepages {79}{79}}}
\@writefile{nav}{\headcommand {\beamer@partpages {1}{79}}}
\@writefile{nav}{\headcommand {\beamer@subsectionpages {29}{79}}}
\@writefile{nav}{\headcommand {\beamer@sectionpages {29}{79}}}
\@writefile{nav}{\headcommand {\beamer@documentpages {79}}}
\@writefile{nav}{\headcommand {\def \inserttotalframenumber {46}}}
