\relax 
\providecommand\hyper@newdestlabel[2]{}
\providecommand\HyperFirstAtBeginDocument{\AtBeginDocument}
\HyperFirstAtBeginDocument{\ifx\hyper@anchor\@undefined
\global\let\oldcontentsline\contentsline
\gdef\contentsline#1#2#3#4{\oldcontentsline{#1}{#2}{#3}}
\global\let\oldnewlabel\newlabel
\gdef\newlabel#1#2{\newlabelxx{#1}#2}
\gdef\newlabelxx#1#2#3#4#5#6{\oldnewlabel{#1}{{#2}{#3}}}
\AtEndDocument{\ifx\hyper@anchor\@undefined
\let\contentsline\oldcontentsline
\let\newlabel\oldnewlabel
\fi}
\fi}
\global\let\hyper@last\relax 
\gdef\HyperFirstAtBeginDocument#1{#1}
\providecommand\HyField@AuxAddToFields[1]{}
\providecommand\HyField@AuxAddToCoFields[2]{}
\providecommand \oddpage@label [2]{}
\citation{eed}
\citation{ced}
\citation{nlmeans}
\citation{PMI}
\citation{photometric1}
\citation{gkinvariant}
\citation{colorsubspace}
\citation{osmosis}
\citation{rudra}
\citation{binglong}
\citation{ccd}
\citation{rudra}
\citation{colorsubspace}
\citation{osmosis}
\citation{osmosis}
\@writefile{toc}{\contentsline {section}{\numberline {1}Introduction}{1}{section.1}}
\newlabel{intro}{{1}{1}{Introduction}{section.1}{}}
\@writefile{toc}{\contentsline {section}{\numberline {2}Osmosis}{1}{section.2}}
\newlabel{osmosiseq}{{2}{1}{Osmosis}{equation.2.2}{}}
\@writefile{lof}{\contentsline {figure}{\numberline {1}{\ignorespaces Convergence of osmosis to a specified image. \textbf  {From left to right: (a)} Original image, 512x512 pixels. Each channel has the same mean value as the mandrill test image. \textbf  {(b)} Osmosis result at evolution time t = 50. \textbf  {(c)} t = 1000. \textbf  {(d)} t = 250000 gives a steady state that is identical to the mandrill image.  \textbf  {Author:} J. Weickert, Linear Osmosis Models for Visual Computing\relax }}{2}{figure.caption.4}}
\providecommand*\caption@xref[2]{\@setref\relax\@undefined{#1}}
\newlabel{osmosisres}{{1}{2}{Convergence of osmosis to a specified image. \textbf {From left to right: (a)} Original image, 512x512 pixels. Each channel has the same mean value as the mandrill test image. \textbf {(b)} Osmosis result at evolution time t = 50. \textbf {(c)} t = 1000. \textbf {(d)} t = 250000 gives a steady state that is identical to the mandrill image. \\\textbf {Author:} J. Weickert, Linear Osmosis Models for Visual Computing\relax }{figure.caption.4}{}}
\@writefile{lof}{\contentsline {figure}{\numberline {2}{\ignorespaces . Shadow removal by osmosis. \textbf  {(a) Top left:} Original image (400x299 pixels). (\textbf  {b) Top right:} User-selected shadow boundaries. In these boundaries all drift vectors are set to zero (homogeneous diffusion). In the other areas, the canonical drift vectors are used. \textbf  {(c) Bottom left:} Osmosis reconstruction with (a) as initialisation. \textbf  {(d) Bottom right:} Multiplicative rescaling of (c) such that the colours in the non-shadow regions approximate the ones in (a).  \textbf  {Author:} J. Weickert, Linear Osmosis Models for Visual Computing\relax }}{2}{figure.caption.5}}
\newlabel{shadow}{{2}{2}{. Shadow removal by osmosis. \textbf {(a) Top left:} Original image (400x299 pixels). (\textbf {b) Top right:} User-selected shadow boundaries. In these boundaries all drift vectors are set to zero (homogeneous diffusion). In the other areas, the canonical drift vectors are used. \textbf {(c) Bottom left:} Osmosis reconstruction with (a) as initialisation. \textbf {(d) Bottom right:} Multiplicative rescaling of (c) such that the colours in the non-shadow regions approximate the ones in (a). \\\textbf {Author:} J. Weickert, Linear Osmosis Models for Visual Computing\relax }{figure.caption.5}{}}
\citation{gkinvariant}
\citation{gkinvariant}
\citation{gkinvariant}
\citation{gkinvariant}
\@writefile{toc}{\contentsline {section}{\numberline {3}Separating Material from Shape and Illumination}{3}{section.3}}
\@writefile{lof}{\contentsline {figure}{\numberline {3}{\ignorespaces G-invariant images from image-pairs  \textbf  {Author:} Narasimhan. S et al. "A class of photometric invariants"\relax }}{4}{figure.caption.6}}
\newlabel{ginvres}{{3}{4}{G-invariant images from image-pairs \\\textbf {Author:} Narasimhan. S et al. "A class of photometric invariants"\relax }{figure.caption.6}{}}
\@writefile{lof}{\contentsline {figure}{\numberline {4}{\ignorespaces Corresponding histogram of the above image-pairs  \textbf  {Author:} Narasimhan. S et al. "A class of photometric invariants"\relax }}{4}{figure.caption.7}}
\newlabel{ginvhist}{{4}{4}{Corresponding histogram of the above image-pairs \\\textbf {Author:} Narasimhan. S et al. "A class of photometric invariants"\relax }{figure.caption.7}{}}
\@writefile{lof}{\contentsline {figure}{\numberline {5}{\ignorespaces Separating material from Geometry using G-invariant in the presence of strong specularities. [(a), (b), (d)] Scene 3: A green plastic pear is imaged under different lighting conditions. No- tice the strong changes in positions of specularities on the doll. [(c), (e)] G-invariant images, each computed (eq. 13) using a different pair of input images. Notice the flat or constant appearance of the invariant images without any specularities. [(f)] K-invariant com- puted using eq. 14 from the 3 images in (a), (b), and (d). Notice the positions of specularities seen in the K-invariant image.  \textbf  {Author:} Narasimhan. S et al. "A class of photometric invariants"\relax }}{5}{figure.caption.8}}
\newlabel{ginvhist}{{5}{5}{Separating material from Geometry using G-invariant in the presence of strong specularities. [(a), (b), (d)] Scene 3: A green plastic pear is imaged under different lighting conditions. No- tice the strong changes in positions of specularities on the doll. [(c), (e)] G-invariant images, each computed (eq. 13) using a different pair of input images. Notice the flat or constant appearance of the invariant images without any specularities. [(f)] K-invariant com- puted using eq. 14 from the 3 images in (a), (b), and (d). Notice the positions of specularities seen in the K-invariant image. \\\textbf {Author:} Narasimhan. S et al. "A class of photometric invariants"\relax }{figure.caption.8}{}}
\@writefile{toc}{\contentsline {section}{\numberline {4}Color subspace as photometric invariants}{6}{section.4}}
\@writefile{lof}{\contentsline {figure}{\numberline {6}{\ignorespaces \textbf  {Left Image:} Original Image  \textbf  {Right Image:} Diffuse only image obtained from U and V channel \textbf  {Author:} Mallick S.P. et al. "Beyond Lambert: Reconstructing Specular Surfaces Using Color"\relax }}{6}{figure.caption.9}}
\newlabel{suvres}{{6}{6}{\textbf {Left Image:} Original Image \\\textbf {Right Image:} Diffuse only image obtained from U and V channel\\\textbf {Author:} Mallick S.P. et al. "Beyond Lambert: Reconstructing Specular Surfaces Using Color"\relax }{figure.caption.9}{}}
\@writefile{toc}{\contentsline {section}{\numberline {5}Systems Engineering Papers}{7}{section.5}}
\@writefile{toc}{\contentsline {subsection}{\numberline {5.1}Model-based skeleton design}{7}{subsection.5.1}}
\@writefile{lof}{\contentsline {figure}{\numberline {7}{\ignorespaces Pipeline for detection and localization  \textbf  {Author:} Rudra Hota et al. "Model Based Skeleton Design via Systems Engineering for Vision"\relax }}{8}{figure.caption.10}}
\newlabel{pipeline1}{{7}{8}{Pipeline for detection and localization \\\textbf {Author:} Rudra Hota et al. "Model Based Skeleton Design via Systems Engineering for Vision"\relax }{figure.caption.10}{}}
\@writefile{lof}{\contentsline {figure}{\numberline {8}{\ignorespaces Row 1- Camouflage data with varied contrast,   Row 2- Output from proposed pipeline at different stages  \textbf  {Author:} Rudra Hota et al. "Model Based Skeleton Design via Systems Engineering for Vision"\relax }}{8}{figure.caption.11}}
\newlabel{pipeline2}{{8}{8}{Row 1- Camouflage data with varied contrast, \\ Row 2- Output from proposed pipeline at different stages \\\textbf {Author:} Rudra Hota et al. "Model Based Skeleton Design via Systems Engineering for Vision"\relax }{figure.caption.11}{}}
\citation{ccd}
\citation{binglong}
\citation{simonprince}
\citation{PMI}
\@writefile{toc}{\contentsline {subsection}{\numberline {5.2}Other Related Work}{9}{subsection.5.2}}
\@writefile{toc}{\contentsline {section}{\numberline {6}Summary}{9}{section.6}}
\bibcite{PMI}{1}
\bibcite{nlmeans}{2}
\bibcite{eed}{3}
\bibcite{ced}{4}
\bibcite{ramesh}{5}
\bibcite{photometric1}{6}
\bibcite{colorsubspace}{7}
\bibcite{gkinvariant}{8}
\bibcite{binglong}{9}
\bibcite{rudra}{10}
\bibcite{ccd}{11}
\bibcite{osmosis}{12}
\@writefile{toc}{\contentsline {section}{References}{10}{section*.12}}
\bibcite{simonprince}{13}
