\relax 
\providecommand\hyper@newdestlabel[2]{}
\providecommand\HyperFirstAtBeginDocument{\AtBeginDocument}
\HyperFirstAtBeginDocument{\ifx\hyper@anchor\@undefined
\global\let\oldcontentsline\contentsline
\gdef\contentsline#1#2#3#4{\oldcontentsline{#1}{#2}{#3}}
\global\let\oldnewlabel\newlabel
\gdef\newlabel#1#2{\newlabelxx{#1}#2}
\gdef\newlabelxx#1#2#3#4#5#6{\oldnewlabel{#1}{{#2}{#3}}}
\AtEndDocument{\ifx\hyper@anchor\@undefined
\let\contentsline\oldcontentsline
\let\newlabel\oldnewlabel
\fi}
\fi}
\global\let\hyper@last\relax 
\gdef\HyperFirstAtBeginDocument#1{#1}
\providecommand\HyField@AuxAddToFields[1]{}
\providecommand\HyField@AuxAddToCoFields[2]{}
\providecommand \oddpage@label [2]{}
\citation{eed}
\citation{nlmeans}
\citation{PMI}
\citation{forest}
\citation{PMI}
\citation{PMI}
\citation{nlmeans}
\citation{eed}
\citation{forest}
\citation{PMI}
\citation{forest}
\@writefile{toc}{\contentsline {section}{\numberline {1}Introduction}{1}{section.1}}
\newlabel{intro}{{1}{1}{Introduction}{section.1}{}}
\@writefile{toc}{\contentsline {section}{\numberline {2}Edge-Enhancing diffusion}{2}{section.2}}
\@writefile{lof}{\contentsline {figure}{\numberline {1}{\ignorespaces Restoration properties of diffusion filters. \textbf  {Top left:} Test image, $\ohm  $ = $(0, 128)^2$ . \textbf  {Top right:} Linear diffusion, t = 80. \textbf  {Bottom left:} Nonlinear isotropic diffusion, $\lambda $ = 3.5, $\sigma $ = 3, t = 80. \textbf  {Bottom right:} Nonlinear anisotropic diffusion, $\lambda $ = 3.5, $\sigma $ = 3, t = 80. For better visibility, the results have been rescaled to [0, 255].  \textbf  {Author:} J. Weickert, Saarland University, DIC lecture 2016.\relax }}{2}{figure.caption.4}}
\citation{ced}
\@writefile{lof}{\contentsline {figure}{\numberline {2}{\ignorespaces Preprocessing of a fabric image. (a) \textbf  {Left:} Fabric, $\ohm  $ = $(0, 257)^2$ . (b) \textbf  {Right:} Anisotropic diffusion, $\lambda $ = 4, $\sigma $ = 2, t = 240.   \textbf  {Author:} J. Weickert, Anistropic Diffusion\relax }}{3}{figure.caption.5}}
\providecommand*\caption@xref[2]{\@setref\relax\@undefined{#1}}
\newlabel{eeddefect}{{2}{3}{Preprocessing of a fabric image. (a) \textbf {Left:} Fabric, $\ohm $ = $(0, 257)^2$ . (b) \textbf {Right:} Anisotropic diffusion, $\lambda $ = 4, $\sigma $ = 2, t = 240. \\ \textbf {Author:} J. Weickert, Anistropic Diffusion\relax }{figure.caption.5}{}}
\@writefile{toc}{\contentsline {section}{\numberline {3}Coherence Enhancing Diffusion}{4}{section.3}}
\@writefile{lof}{\contentsline {figure}{\numberline {3}{\ignorespaces EED is not good for closing interrupted lines in flow-like structures. \textbf  {Left:} Original fingerprint, $\ohm  = (0, 256)^2$ . \textbf  {Right:} Edge-enhancing anisotropic diffusion, $\lambda $ = 4, $\sigma $ = 1, t = 20. \textbf  {Author:} J. Weickert, Anistropic Diffusion\relax }}{4}{figure.caption.6}}
\newlabel{eedissue}{{3}{4}{EED is not good for closing interrupted lines in flow-like structures. \textbf {Left:} Original fingerprint, $\ohm = (0, 256)^2$ . \textbf {Right:} Edge-enhancing anisotropic diffusion, $\lambda $ = 4, $\sigma $ = 1, t = 20. \textbf {Author:} J. Weickert, Anistropic Diffusion\relax }{figure.caption.6}{}}
\@writefile{lof}{\contentsline {figure}{\numberline {4}{\ignorespaces Fingerprint enhancement. \textbf  {Left:} Original fingerprint image, $\ohm  $= $(0, 256)^2$ . \textbf  {Right:} Filtered with coherence-enhancing anisotropic diffusion, $\sigma $ = 0.5, $\rho $ = 4, t = 20. \textbf  {Author:} J. Weickert, Anistropic Diffusion\relax }}{5}{figure.caption.7}}
\newlabel{cedresult}{{4}{5}{Fingerprint enhancement. \textbf {Left:} Original fingerprint image, $\ohm $= $(0, 256)^2$ . \textbf {Right:} Filtered with coherence-enhancing anisotropic diffusion, $\sigma $ = 0.5, $\rho $ = 4, t = 20. \textbf {Author:} J. Weickert, Anistropic Diffusion\relax }{figure.caption.7}{}}
\citation{sreenivas}
\citation{brodatz}
\citation{brodatz}
\@writefile{toc}{\contentsline {section}{\numberline {4}Non-Local means}{6}{section.4}}
\newlabel{nl1:1}{{5a}{6}{Carpet texture\relax }{figure.caption.8}{}}
\newlabel{sub@nl1:1}{{a}{6}{Carpet texture\relax }{figure.caption.8}{}}
\newlabel{nl1:2}{{5b}{6}{Self-similarity image of the carpet structure\relax }{figure.caption.8}{}}
\newlabel{sub@nl1:2}{{b}{6}{Self-similarity image of the carpet structure\relax }{figure.caption.8}{}}
\newlabel{nl1:3}{{5c}{6}{Checkerboard structure\relax }{figure.caption.8}{}}
\newlabel{sub@nl1:3}{{c}{6}{Checkerboard structure\relax }{figure.caption.8}{}}
\newlabel{nl1:4}{{5d}{6}{Self-similarity of checkerboard\relax }{figure.caption.8}{}}
\newlabel{sub@nl1:4}{{d}{6}{Self-similarity of checkerboard\relax }{figure.caption.8}{}}
\@writefile{lof}{\contentsline {figure}{\numberline {5}{\ignorespaces Self-similarity structures comparison. \textbf  {Carpet Image source:} Brodatz textures \cite  {brodatz}\relax }}{6}{figure.caption.8}}
\newlabel{nl1}{{5}{6}{Self-similarity structures comparison.\\\textbf {Carpet Image source:} Brodatz textures \cite {brodatz}\relax }{figure.caption.8}{}}
\citation{nlmeans}
\citation{sreenivas}
\citation{martin}
\citation{nlfast}
\newlabel{errorsample1}{{6a}{7}{Input image\relax }{figure.caption.9}{}}
\newlabel{sub@errorsample1}{{a}{7}{Input image\relax }{figure.caption.9}{}}
\newlabel{errorsample2}{{6b}{7}{Thresholded output after NL-means\relax }{figure.caption.9}{}}
\newlabel{sub@errorsample2}{{b}{7}{Thresholded output after NL-means\relax }{figure.caption.9}{}}
\@writefile{lof}{\contentsline {figure}{\numberline {6}{\ignorespaces Edge Detection using NL-means\relax }}{7}{figure.caption.9}}
\newlabel{nlresult}{{6}{7}{Edge Detection using NL-means\relax }{figure.caption.9}{}}
\citation{crisp}
\@writefile{toc}{\contentsline {section}{\numberline {5}Crisp Boundaries}{8}{section.5}}
\@writefile{lof}{\contentsline {figure}{\numberline {7}{\ignorespaces The algorithm works by reasoning about the pointwise mutual information (PMI) between neighboring image features. \textbf  {Middle column:} Joint distribution of the luminance values of pairs of nearby pixels. \textbf  {Right column:} PMI between the luminance values of neighboring pixels in this zebra image. \textbf  {Author:} Phillip Isola et al. \relax }}{8}{figure.caption.10}}
\newlabel{crispexp}{{7}{8}{The algorithm works by reasoning about the pointwise mutual information (PMI) between neighboring image features. \textbf {Middle column:} Joint distribution of the luminance values of pairs of nearby pixels. \textbf {Right column:} PMI between the luminance values of neighboring pixels in this zebra image. \textbf {Author:} Phillip Isola et al. \relax }{figure.caption.10}{}}
\citation{martin}
\newlabel{errorsample1}{{8a}{9}{Input image\relax }{figure.caption.11}{}}
\newlabel{sub@errorsample1}{{a}{9}{Input image\relax }{figure.caption.11}{}}
\newlabel{errorsample2}{{8b}{9}{Crisp boundary detection\relax }{figure.caption.11}{}}
\newlabel{sub@errorsample2}{{b}{9}{Crisp boundary detection\relax }{figure.caption.11}{}}
\@writefile{lof}{\contentsline {figure}{\numberline {8}{\ignorespaces Edge Detection using crisp boundaries with PMI\relax }}{9}{figure.caption.11}}
\newlabel{nlresult}{{8}{9}{Edge Detection using crisp boundaries with PMI\relax }{figure.caption.11}{}}
\newlabel{comp}{{9a}{9}{Input image\relax }{figure.caption.12}{}}
\newlabel{sub@comp}{{a}{9}{Input image\relax }{figure.caption.12}{}}
\newlabel{comp1}{{9b}{9}{EED\relax }{figure.caption.12}{}}
\newlabel{sub@comp1}{{b}{9}{EED\relax }{figure.caption.12}{}}
\newlabel{comp2}{{9c}{9}{Crisp boundary detection\relax }{figure.caption.12}{}}
\newlabel{sub@comp2}{{c}{9}{Crisp boundary detection\relax }{figure.caption.12}{}}
\@writefile{lof}{\contentsline {figure}{\numberline {9}{\ignorespaces Edge Detection on a homogeneous wall\relax }}{9}{figure.caption.12}}
\newlabel{compresult}{{9}{9}{Edge Detection on a homogeneous wall\relax }{figure.caption.12}{}}
\citation{forest}
\citation{ramesh}
\citation{greiff}
\citation{Gao}
\citation{videolectures}
\citation{mallat}
\@writefile{toc}{\contentsline {section}{\numberline {6}Structured Random Forests for Edge Detection}{10}{section.6}}
\newlabel{for1}{{10a}{10}{Input image\relax }{figure.caption.13}{}}
\newlabel{sub@for1}{{a}{10}{Input image\relax }{figure.caption.13}{}}
\newlabel{for2}{{10b}{10}{Edge detection using structured random forests\relax }{figure.caption.13}{}}
\newlabel{sub@for2}{{b}{10}{Edge detection using structured random forests\relax }{figure.caption.13}{}}
\@writefile{lof}{\contentsline {figure}{\numberline {10}{\ignorespaces Edge Detection using structured learning on random decision forests\relax }}{10}{figure.caption.13}}
\newlabel{forres}{{10}{10}{Edge Detection using structured learning on random decision forests\relax }{figure.caption.13}{}}
\@writefile{toc}{\contentsline {section}{\numberline {7}Other Work: Brief report}{10}{section.7}}
\citation{greiff}
\citation{Gao}
\@writefile{toc}{\contentsline {section}{\numberline {8}Summary and Future work}{11}{section.8}}
\bibcite{PMI}{1}
\bibcite{nlmeans}{2}
\bibcite{eed}{3}
\bibcite{forest}{4}
\bibcite{ced}{5}
\bibcite{brodatz}{6}
\bibcite{sreenivas}{7}
\bibcite{martin}{8}
\bibcite{nlfast}{9}
\bibcite{ramesh}{10}
\bibcite{greiff}{11}
\bibcite{Gao}{12}
\@writefile{toc}{\contentsline {section}{References}{12}{section*.14}}
\bibcite{mallat}{13}
\bibcite{videolectures}{14}
