\relax 
\providecommand\hyper@newdestlabel[2]{}
\providecommand\HyperFirstAtBeginDocument{\AtBeginDocument}
\HyperFirstAtBeginDocument{\ifx\hyper@anchor\@undefined
\global\let\oldcontentsline\contentsline
\gdef\contentsline#1#2#3#4{\oldcontentsline{#1}{#2}{#3}}
\global\let\oldnewlabel\newlabel
\gdef\newlabel#1#2{\newlabelxx{#1}#2}
\gdef\newlabelxx#1#2#3#4#5#6{\oldnewlabel{#1}{{#2}{#3}}}
\AtEndDocument{\ifx\hyper@anchor\@undefined
\let\contentsline\oldcontentsline
\let\newlabel\oldnewlabel
\fi}
\fi}
\global\let\hyper@last\relax 
\gdef\HyperFirstAtBeginDocument#1{#1}
\providecommand\HyField@AuxAddToFields[1]{}
\providecommand\HyField@AuxAddToCoFields[2]{}
\providecommand \oddpage@label [2]{}
\@writefile{toc}{\contentsline {section}{\numberline {1}Abstract}{5}{section.1}}
\@writefile{toc}{\contentsline {section}{\numberline {2}Introduction}{6}{section.2}}
\newlabel{intro}{{2}{6}{Introduction}{section.2}{}}
\providecommand*\caption@xref[2]{\@setref\relax\@undefined{#1}}
\newlabel{errorsample1}{{2a}{6}{Reference image\relax }{figure.caption.4}{}}
\newlabel{sub@errorsample1}{{a}{6}{Reference image\relax }{figure.caption.4}{}}
\newlabel{errorsample2}{{2b}{6}{Input image affected by JPEG artifacts\relax }{figure.caption.4}{}}
\newlabel{sub@errorsample2}{{b}{6}{Input image affected by JPEG artifacts\relax }{figure.caption.4}{}}
\@writefile{lof}{\contentsline {figure}{\numberline {2}{\ignorespaces MSE: 517.1649\relax }}{6}{figure.caption.4}}
\newlabel{errorsample}{{2}{6}{MSE: 517.1649\relax }{figure.caption.4}{}}
\@writefile{toc}{\contentsline {subsection}{\numberline {2.1}Goals}{7}{subsection.2.1}}
\@writefile{toc}{\contentsline {subsubsection}{\numberline {2.1.1}Interpreting NL means}{7}{subsubsection.2.1.1}}
\@writefile{toc}{\contentsline {subsubsection}{\numberline {2.1.2}Extending NL means as an error measure for texture classification}{7}{subsubsection.2.1.2}}
\newlabel{rgb2gray1}{{3a}{8}{Red Checkerboard\relax }{figure.caption.5}{}}
\newlabel{sub@rgb2gray1}{{a}{8}{Red Checkerboard\relax }{figure.caption.5}{}}
\newlabel{rgn2gray2}{{3b}{8}{Green Checkerboard\relax }{figure.caption.5}{}}
\newlabel{sub@rgn2gray2}{{b}{8}{Green Checkerboard\relax }{figure.caption.5}{}}
\newlabel{rgb2gray3}{{3c}{8}{Grey scale image of Red Checkerboard\relax }{figure.caption.5}{}}
\newlabel{sub@rgb2gray3}{{c}{8}{Grey scale image of Red Checkerboard\relax }{figure.caption.5}{}}
\newlabel{rgb2gray4}{{3d}{8}{Grey scale image of Green Checkerboard\relax }{figure.caption.5}{}}
\newlabel{sub@rgb2gray4}{{d}{8}{Grey scale image of Green Checkerboard\relax }{figure.caption.5}{}}
\@writefile{lof}{\contentsline {figure}{\numberline {3}{\ignorespaces SSIM of color checkerboards: -0.1266, SSIM of grey scale checkerboards: 0.6717\relax }}{8}{figure.caption.5}}
\newlabel{rgb2gray}{{3}{8}{SSIM of color checkerboards: -0.1266, SSIM of grey scale checkerboards: 0.6717\relax }{figure.caption.5}{}}
\@writefile{toc}{\contentsline {subsubsection}{\numberline {2.1.3}Importance of Invariances in error measurement}{9}{subsubsection.2.1.3}}
\@writefile{toc}{\contentsline {subsection}{\numberline {2.2}Organization of the paper}{9}{subsection.2.2}}
\@writefile{toc}{\contentsline {section}{\numberline {3}Related Work}{10}{section.3}}
\newlabel{theory}{{3}{10}{Related Work}{section.3}{}}
\@writefile{toc}{\contentsline {subsection}{\numberline {3.1}Error Measure}{10}{subsection.3.1}}
\@writefile{toc}{\contentsline {subsubsection}{\numberline {3.1.1}How are they useful?}{10}{subsubsection.3.1.1}}
\newlabel{fig:sfig1}{{4a}{11}{Lenna\relax }{figure.caption.6}{}}
\newlabel{sub@fig:sfig1}{{a}{11}{Lenna\relax }{figure.caption.6}{}}
\newlabel{fig:sfig2}{{4b}{11}{Noise with $\sigma $=25,MSE=99.33\relax }{figure.caption.6}{}}
\newlabel{sub@fig:sfig2}{{b}{11}{Noise with $\sigma $=25,MSE=99.33\relax }{figure.caption.6}{}}
\newlabel{fig:sfig3}{{4c}{11}{Noise with $\sigma $=50,MSE=615.94\relax }{figure.caption.6}{}}
\newlabel{sub@fig:sfig3}{{c}{11}{Noise with $\sigma $=50,MSE=615.94\relax }{figure.caption.6}{}}
\newlabel{fig:sfig4}{{4d}{11}{Noise with $\sigma $=50,MSE=2107.99\relax }{figure.caption.6}{}}
\newlabel{sub@fig:sfig4}{{d}{11}{Noise with $\sigma $=50,MSE=2107.99\relax }{figure.caption.6}{}}
\@writefile{lof}{\contentsline {figure}{\numberline {4}{\ignorespaces Comparison of MSE values between different noise images from the original Lenna Image\relax }}{11}{figure.caption.6}}
\newlabel{fig:fig}{{4}{11}{Comparison of MSE values between different noise images from the original Lenna Image\relax }{figure.caption.6}{}}
\@writefile{toc}{\contentsline {subsection}{\numberline {3.2}Texture and it's classification}{11}{subsection.3.2}}
\newlabel{texturebasics}{{3.2}{11}{Texture and it's classification}{subsection.3.2}{}}
\newlabel{fig2:sfig1}{{5a}{12}{aluminium\relax }{figure.caption.7}{}}
\newlabel{sub@fig2:sfig1}{{a}{12}{aluminium\relax }{figure.caption.7}{}}
\newlabel{fig2:sfig2}{{5b}{12}{grass\relax }{figure.caption.7}{}}
\newlabel{sub@fig2:sfig2}{{b}{12}{grass\relax }{figure.caption.7}{}}
\newlabel{fig2:sfig3}{{5c}{12}{roof shingle\relax }{figure.caption.7}{}}
\newlabel{sub@fig2:sfig3}{{c}{12}{roof shingle\relax }{figure.caption.7}{}}
\newlabel{fig2:sfig4}{{5d}{12}{pebble\relax }{figure.caption.7}{}}
\newlabel{sub@fig2:sfig4}{{d}{12}{pebble\relax }{figure.caption.7}{}}
\@writefile{lof}{\contentsline {figure}{\numberline {5}{\ignorespaces Different texture samples  \textbf  {Image Source:} Columbia-Utrecht Reflectance and Texture Database(CUReT )\relax }}{12}{figure.caption.7}}
\newlabel{fig2:fig}{{5}{12}{Different texture samples\\ \textbf {Image Source:} Columbia-Utrecht Reflectance and Texture Database(CUReT )\relax }{figure.caption.7}{}}
\@writefile{toc}{\contentsline {subsection}{\numberline {3.3}Non-Local Means}{12}{subsection.3.3}}
\newlabel{nlmeans}{{3.3}{12}{Non-Local Means}{subsection.3.3}{}}
\@writefile{toc}{\contentsline {subsubsection}{\numberline {3.3.1}Working of NL means}{12}{subsubsection.3.3.1}}
\newlabel{nleq}{{1}{13}{Working of NL means}{equation.3.1}{}}
\@writefile{toc}{\contentsline {subsubsection}{\numberline {3.3.2}General results of NL means}{13}{subsubsection.3.3.2}}
\@writefile{lof}{\contentsline {figure}{\numberline {6}{\ignorespaces Display of the NL-means weight distribution used to estimate the central pixel of every image. The weights go from 1(white) to zero(black) \textbf  {Source:} NL means original paper by Antoni Buades,Bartomeu Coll,Jean-Michel Morel 2011\relax }}{14}{figure.caption.8}}
\newlabel{nlweight}{{6}{14}{Display of the NL-means weight distribution used to estimate the central pixel of every image. The weights go from 1(white) to zero(black) \textbf {Source:} NL means original paper by Antoni Buades,Bartomeu Coll,Jean-Michel Morel 2011\relax }{figure.caption.8}{}}
\newlabel{fig3:sfig1}{{7a}{14}{Lenna Original Image\relax }{figure.caption.9}{}}
\newlabel{sub@fig3:sfig1}{{a}{14}{Lenna Original Image\relax }{figure.caption.9}{}}
\newlabel{fig3:sfig2}{{7b}{14}{Noise with $\sigma $=50,MSE=615.94\relax }{figure.caption.9}{}}
\newlabel{sub@fig3:sfig2}{{b}{14}{Noise with $\sigma $=50,MSE=615.94\relax }{figure.caption.9}{}}
\newlabel{fig3:sfig3}{{7c}{14}{NL means on noisy image. Patch size 9x9, window size 21x21,Penalization factor=130, MSE=98.13\relax }{figure.caption.9}{}}
\newlabel{sub@fig3:sfig3}{{c}{14}{NL means on noisy image. Patch size 9x9, window size 21x21,Penalization factor=130, MSE=98.13\relax }{figure.caption.9}{}}
\@writefile{lof}{\contentsline {figure}{\numberline {7}{\ignorespaces NL means on Lenna image and corresponding MSE values\relax }}{14}{figure.caption.9}}
\newlabel{nlresult}{{7}{14}{NL means on Lenna image and corresponding MSE values\relax }{figure.caption.9}{}}
\@writefile{toc}{\contentsline {section}{\numberline {4}Other work in related areas}{15}{section.4}}
\newlabel{otherwork}{{4}{15}{Other work in related areas}{section.4}{}}
\@writefile{toc}{\contentsline {subsection}{\numberline {4.1}Common Error Measures}{15}{subsection.4.1}}
\newlabel{error}{{4.1}{15}{Common Error Measures}{subsection.4.1}{}}
\@writefile{toc}{\contentsline {subsubsection}{\numberline {4.1.1}Mean Square Error(MSE)}{15}{subsubsection.4.1.1}}
\newlabel{MSE}{{4.1.1}{15}{Mean Square Error(MSE)}{subsubsection.4.1.1}{}}
\newlabel{MSEeq}{{2}{15}{Mean Square Error(MSE)}{equation.4.2}{}}
\newlabel{fig4:sfig1}{{8a}{16}{checkerboard image\relax }{figure.caption.10}{}}
\newlabel{sub@fig4:sfig1}{{a}{16}{checkerboard image\relax }{figure.caption.10}{}}
\newlabel{fig4:sfig2}{{8b}{16}{shifted checkerboard\relax }{figure.caption.10}{}}
\newlabel{sub@fig4:sfig2}{{b}{16}{shifted checkerboard\relax }{figure.caption.10}{}}
\@writefile{lof}{\contentsline {figure}{\numberline {8}{\ignorespaces MSE=65025\relax }}{16}{figure.caption.10}}
\newlabel{check1}{{8}{16}{MSE=65025\relax }{figure.caption.10}{}}
\@writefile{toc}{\contentsline {subsubsection}{\numberline {4.1.2}Structural Similarity Measurement Index(SSIM)}{16}{subsubsection.4.1.2}}
\newlabel{SSIM}{{4.1.2}{16}{Structural Similarity Measurement Index(SSIM)}{subsubsection.4.1.2}{}}
\newlabel{SSIMeq}{{3}{16}{Structural Similarity Measurement Index(SSIM)}{equation.4.3}{}}
\newlabel{fig5:sfig1}{{9a}{17}{Lenna\relax }{figure.caption.11}{}}
\newlabel{sub@fig5:sfig1}{{a}{17}{Lenna\relax }{figure.caption.11}{}}
\newlabel{fig5:sfig2}{{9b}{17}{Noise with $\sigma $=25,SSIM=0.6557\relax }{figure.caption.11}{}}
\newlabel{sub@fig5:sfig2}{{b}{17}{Noise with $\sigma $=25,SSIM=0.6557\relax }{figure.caption.11}{}}
\newlabel{fig5:sfig3}{{9c}{17}{Noise with $\sigma $=50,SSIM=0.3258\relax }{figure.caption.11}{}}
\newlabel{sub@fig5:sfig3}{{c}{17}{Noise with $\sigma $=50,SSIM=0.3258\relax }{figure.caption.11}{}}
\newlabel{fig5:sfig4}{{9d}{17}{Noise with $\sigma $=50,SSIM=0.1528\relax }{figure.caption.11}{}}
\newlabel{sub@fig5:sfig4}{{d}{17}{Noise with $\sigma $=50,SSIM=0.1528\relax }{figure.caption.11}{}}
\@writefile{lof}{\contentsline {figure}{\numberline {9}{\ignorespaces Comparison of SSIM values between different noise images from the original Lenna Image\relax }}{17}{figure.caption.11}}
\newlabel{fig5:fig}{{9}{17}{Comparison of SSIM values between different noise images from the original Lenna Image\relax }{figure.caption.11}{}}
\newlabel{fig6:sfig1}{{10a}{18}{checkerboard image\relax }{figure.caption.12}{}}
\newlabel{sub@fig6:sfig1}{{a}{18}{checkerboard image\relax }{figure.caption.12}{}}
\newlabel{fig6:sfig2}{{10b}{18}{shifted checkerboard\relax }{figure.caption.12}{}}
\newlabel{sub@fig6:sfig2}{{b}{18}{shifted checkerboard\relax }{figure.caption.12}{}}
\@writefile{lof}{\contentsline {figure}{\numberline {10}{\ignorespaces SSIM=-0.4563\relax }}{18}{figure.caption.12}}
\newlabel{check2}{{10}{18}{SSIM=-0.4563\relax }{figure.caption.12}{}}
\@writefile{toc}{\contentsline {subsubsection}{\numberline {4.1.3}MS-SSIM}{18}{subsubsection.4.1.3}}
\newlabel{MSSSIM}{{4.1.3}{18}{MS-SSIM}{subsubsection.4.1.3}{}}
\newlabel{fig7:sfig1}{{11a}{19}{Lenna\relax }{figure.caption.13}{}}
\newlabel{sub@fig7:sfig1}{{a}{19}{Lenna\relax }{figure.caption.13}{}}
\newlabel{fig7:sfig2}{{11b}{19}{Noise with $\sigma $=25,MS-SSIM=0.9452\relax }{figure.caption.13}{}}
\newlabel{sub@fig7:sfig2}{{b}{19}{Noise with $\sigma $=25,MS-SSIM=0.9452\relax }{figure.caption.13}{}}
\newlabel{fig7:sfig3}{{11c}{19}{Noise with $\sigma $=50,MS-SSIM=0.8108\relax }{figure.caption.13}{}}
\newlabel{sub@fig7:sfig3}{{c}{19}{Noise with $\sigma $=50,MS-SSIM=0.8108\relax }{figure.caption.13}{}}
\newlabel{fig7:sfig4}{{11d}{19}{Noise with $\sigma $=50,MS-SSIM=0.6370\relax }{figure.caption.13}{}}
\newlabel{sub@fig7:sfig4}{{d}{19}{Noise with $\sigma $=50,MS-SSIM=0.6370\relax }{figure.caption.13}{}}
\@writefile{lof}{\contentsline {figure}{\numberline {11}{\ignorespaces Comparison of SSIM values between different noise images from the original Lenna Image\relax }}{19}{figure.caption.13}}
\newlabel{fig7:fig}{{11}{19}{Comparison of SSIM values between different noise images from the original Lenna Image\relax }{figure.caption.13}{}}
\newlabel{fig8:sfig1}{{12a}{19}{checkerboard image\relax }{figure.caption.14}{}}
\newlabel{sub@fig8:sfig1}{{a}{19}{checkerboard image\relax }{figure.caption.14}{}}
\newlabel{fig8:sfig2}{{12b}{19}{shifted checkerboard\relax }{figure.caption.14}{}}
\newlabel{sub@fig8:sfig2}{{b}{19}{shifted checkerboard\relax }{figure.caption.14}{}}
\@writefile{lof}{\contentsline {figure}{\numberline {12}{\ignorespaces MS-SSIM=0.9222\relax }}{19}{figure.caption.14}}
\newlabel{check3}{{12}{19}{MS-SSIM=0.9222\relax }{figure.caption.14}{}}
\@writefile{toc}{\contentsline {subsection}{\numberline {4.2}Texture Classification}{20}{subsection.4.2}}
\@writefile{toc}{\contentsline {subsubsection}{\numberline {4.2.1}Local Binary Patterns}{20}{subsubsection.4.2.1}}
\newlabel{LBP}{{4.2.1}{20}{Local Binary Patterns}{subsubsection.4.2.1}{}}
\@writefile{lof}{\contentsline {figure}{\numberline {13}{\ignorespaces LBP for the center pixel with grey value 6.\textbf  {Source:} CMV/Research/LBP/LBPShort, University of Oulu\relax }}{20}{figure.caption.15}}
\newlabel{lbp}{{13}{20}{LBP for the center pixel with grey value 6.\textbf {Source:} CMV/Research/LBP/LBPShort, University of Oulu\relax }{figure.caption.15}{}}
\newlabel{lbp1}{{14a}{21}{Brick\relax }{figure.caption.16}{}}
\newlabel{sub@lbp1}{{a}{21}{Brick\relax }{figure.caption.16}{}}
\newlabel{lbp2}{{14b}{21}{Rotate Brick\relax }{figure.caption.16}{}}
\newlabel{sub@lbp2}{{b}{21}{Rotate Brick\relax }{figure.caption.16}{}}
\newlabel{lbp3}{{14c}{21}{carpet\relax }{figure.caption.16}{}}
\newlabel{sub@lbp3}{{c}{21}{carpet\relax }{figure.caption.16}{}}
\newlabel{lbp4}{{14d}{21}{Histogram bin comparison\relax }{figure.caption.16}{}}
\newlabel{sub@lbp4}{{d}{21}{Histogram bin comparison\relax }{figure.caption.16}{}}
\@writefile{lof}{\contentsline {figure}{\numberline {14}{\ignorespaces LBP working for classifying textures. \textbf  {Source:} Original paper by Ojala, T., M. Pietikainen, and T. Maenpaa. Matlab Implementation mathworks/vision/ref/extractlbpfeatures\relax }}{21}{figure.caption.16}}
\newlabel{lbpresult}{{14}{21}{LBP working for classifying textures. \textbf {Source:} Original paper by Ojala, T., M. Pietikainen, and T. Maenpaa. Matlab Implementation mathworks/vision/ref/extractlbpfeatures\relax }{figure.caption.16}{}}
\@writefile{toc}{\contentsline {section}{\numberline {5}Base Idea: Similarity Measure estimation}{22}{section.5}}
\newlabel{baseidea}{{5}{22}{Base Idea: Similarity Measure estimation}{section.5}{}}
\newlabel{fig9:sfig1}{{15a}{23}{texture 1: reference\relax }{figure.caption.17}{}}
\newlabel{sub@fig9:sfig1}{{a}{23}{texture 1: reference\relax }{figure.caption.17}{}}
\newlabel{fig9:sfig2}{{15b}{23}{texture 2: input\relax }{figure.caption.17}{}}
\newlabel{sub@fig9:sfig2}{{b}{23}{texture 2: input\relax }{figure.caption.17}{}}
\newlabel{fig9:sfig3}{{15c}{23}{self similarity of texture 1\relax }{figure.caption.17}{}}
\newlabel{sub@fig9:sfig3}{{c}{23}{self similarity of texture 1\relax }{figure.caption.17}{}}
\newlabel{fig9:sfig4}{{15d}{23}{self similarity of texture 2\relax }{figure.caption.17}{}}
\newlabel{sub@fig9:sfig4}{{d}{23}{self similarity of texture 2\relax }{figure.caption.17}{}}
\newlabel{fig9:sfig5}{{15e}{23}{similarity of texture 2 with texture 1 as reference\relax }{figure.caption.17}{}}
\newlabel{sub@fig9:sfig5}{{e}{23}{similarity of texture 2 with texture 1 as reference\relax }{figure.caption.17}{}}
\newlabel{fig9:sfig6}{{15f}{23}{similarity of texture 1 with texture 2 as reference\relax }{figure.caption.17}{}}
\newlabel{sub@fig9:sfig6}{{f}{23}{similarity of texture 1 with texture 2 as reference\relax }{figure.caption.17}{}}
\@writefile{lof}{\contentsline {figure}{\numberline {15}{\ignorespaces NL means similarity structure image pairs. patch size =9x9, window size=21x21, penalization factor=130 \textbf  {Image Source:} Brodatz Texture database\relax }}{23}{figure.caption.17}}
\newlabel{nlimagepairs}{{15}{23}{NL means similarity structure image pairs. patch size =9x9, window size=21x21, penalization factor=130\\\textbf {Image Source:} Brodatz Texture database\relax }{figure.caption.17}{}}
\@writefile{toc}{\contentsline {subsection}{\numberline {5.1}Algorithm}{24}{subsection.5.1}}
\newlabel{algorithm}{{5.1}{24}{Algorithm}{subsection.5.1}{}}
\newlabel{nlpixeleq1}{{4}{24}{Algorithm}{equation.5.4}{}}
\newlabel{nlpixeleq2}{{5}{24}{Algorithm}{equation.5.5}{}}
\newlabel{erroreq}{{6}{25}{Algorithm}{equation.5.6}{}}
\newlabel{nlpixeleq3}{{7}{25}{Algorithm}{equation.5.7}{}}
\newlabel{nlpixeleq4}{{8}{25}{Algorithm}{equation.5.8}{}}
\@writefile{toc}{\contentsline {subsection}{\numberline {5.2}Error values using NL means}{26}{subsection.5.2}}
\newlabel{nl1:1}{{16a}{26}{a carpet texture\relax }{figure.caption.18}{}}
\newlabel{sub@nl1:1}{{a}{26}{a carpet texture\relax }{figure.caption.18}{}}
\newlabel{nl1:2}{{16b}{26}{self similarity image of the carpet structure\relax }{figure.caption.18}{}}
\newlabel{sub@nl1:2}{{b}{26}{self similarity image of the carpet structure\relax }{figure.caption.18}{}}
\newlabel{nl1:3}{{16c}{26}{checkerboard structure\relax }{figure.caption.18}{}}
\newlabel{sub@nl1:3}{{c}{26}{checkerboard structure\relax }{figure.caption.18}{}}
\newlabel{nl1:4}{{16d}{26}{self similarity of checkerboard\relax }{figure.caption.18}{}}
\newlabel{sub@nl1:4}{{d}{26}{self similarity of checkerboard\relax }{figure.caption.18}{}}
\@writefile{lof}{\contentsline {figure}{\numberline {16}{\ignorespaces Self similarity structures comparison. \textbf  {Carpet Image Source:} Brodatz Texture database\relax }}{26}{figure.caption.18}}
\newlabel{nl1}{{16}{26}{Self similarity structures comparison.\\\textbf {Carpet Image Source:} Brodatz Texture database\relax }{figure.caption.18}{}}
\newlabel{nlcheck1}{{17a}{27}{checkerboard image\relax }{figure.caption.19}{}}
\newlabel{sub@nlcheck1}{{a}{27}{checkerboard image\relax }{figure.caption.19}{}}
\newlabel{nlcheck2}{{17b}{27}{shifted checkerboard\relax }{figure.caption.19}{}}
\newlabel{sub@nlcheck2}{{b}{27}{shifted checkerboard\relax }{figure.caption.19}{}}
\@writefile{lof}{\contentsline {figure}{\numberline {17}{\ignorespaces NL means error between the checkerboard images=0 (0-No error:perfectly similar strucutres, 65025-Full error: totally dissimilar strucures) \relax }}{27}{figure.caption.19}}
\newlabel{check4}{{17}{27}{NL means error between the checkerboard images=0 (0-No error:perfectly similar strucutres, 65025-Full error: totally dissimilar strucures) \relax }{figure.caption.19}{}}
\@writefile{toc}{\contentsline {section}{\numberline {6}Parameter choices}{28}{section.6}}
\newlabel{paramter}{{6}{28}{Parameter choices}{section.6}{}}
\@writefile{toc}{\contentsline {subsection}{\numberline {6.1}Penalization factor}{28}{subsection.6.1}}
\newlabel{penalize1}{{18a}{28}{Noisy image with standard deviation:20\relax }{figure.caption.20}{}}
\newlabel{sub@penalize1}{{a}{28}{Noisy image with standard deviation:20\relax }{figure.caption.20}{}}
\newlabel{penalize2}{{18b}{28}{Penalization factor $\sigma =80$\relax }{figure.caption.20}{}}
\newlabel{sub@penalize2}{{b}{28}{Penalization factor $\sigma =80$\relax }{figure.caption.20}{}}
\newlabel{penalize3}{{18c}{28}{Penalization factor $\sigma =110$\relax }{figure.caption.20}{}}
\newlabel{sub@penalize3}{{c}{28}{Penalization factor $\sigma =110$\relax }{figure.caption.20}{}}
\newlabel{penalize4}{{18d}{28}{Penalization factor $\sigma =150$\relax }{figure.caption.20}{}}
\newlabel{sub@penalize4}{{d}{28}{Penalization factor $\sigma =150$\relax }{figure.caption.20}{}}
\@writefile{lof}{\contentsline {figure}{\numberline {18}{\ignorespaces Results on changing penalization factor $\sigma $, patch size 9x9 and window size 21x21\relax }}{28}{figure.caption.20}}
\newlabel{penalizeimages}{{18}{28}{Results on changing penalization factor $\sigma $, patch size 9x9 and window size 21x21\relax }{figure.caption.20}{}}
\@writefile{toc}{\contentsline {subsection}{\numberline {6.2}Patch size, Window Size}{29}{subsection.6.2}}
\newlabel{patchwindow}{{6.2}{29}{Patch size, Window Size}{subsection.6.2}{}}
\newlabel{patch1}{{19a}{29}{Noisy image with standard deviation:20\relax }{figure.caption.21}{}}
\newlabel{sub@patch1}{{a}{29}{Noisy image with standard deviation:20\relax }{figure.caption.21}{}}
\newlabel{patch2}{{19b}{29}{Patch size 1x1\relax }{figure.caption.21}{}}
\newlabel{sub@patch2}{{b}{29}{Patch size 1x1\relax }{figure.caption.21}{}}
\newlabel{patch3}{{19c}{29}{Patch size 9x9\relax }{figure.caption.21}{}}
\newlabel{sub@patch3}{{c}{29}{Patch size 9x9\relax }{figure.caption.21}{}}
\newlabel{patch4}{{19d}{29}{Patch size 17x17\relax }{figure.caption.21}{}}
\newlabel{sub@patch4}{{d}{29}{Patch size 17x17\relax }{figure.caption.21}{}}
\@writefile{lof}{\contentsline {figure}{\numberline {19}{\ignorespaces Results on changing patch size , window size 21x21 and penalization factor $\sigma =130$\relax }}{29}{figure.caption.21}}
\newlabel{patchimages}{{19}{29}{Results on changing patch size , window size 21x21 and penalization factor $\sigma =130$\relax }{figure.caption.21}{}}
\newlabel{window1}{{20a}{30}{Noisy image with standard deviation:20\relax }{figure.caption.22}{}}
\newlabel{sub@window1}{{a}{30}{Noisy image with standard deviation:20\relax }{figure.caption.22}{}}
\newlabel{window2}{{20b}{30}{Patch size 1x1, Window size 1x1\relax }{figure.caption.22}{}}
\newlabel{sub@window2}{{b}{30}{Patch size 1x1, Window size 1x1\relax }{figure.caption.22}{}}
\newlabel{window3}{{20c}{30}{Patch size 9x9, Window size 21x21\relax }{figure.caption.22}{}}
\newlabel{sub@window3}{{c}{30}{Patch size 9x9, Window size 21x21\relax }{figure.caption.22}{}}
\newlabel{window4}{{20d}{30}{Patch size 9x9, Window size 41x41\relax }{figure.caption.22}{}}
\newlabel{sub@window4}{{d}{30}{Patch size 9x9, Window size 41x41\relax }{figure.caption.22}{}}
\@writefile{lof}{\contentsline {figure}{\numberline {20}{\ignorespaces Results on changing window size ,penalization factor $\sigma =130$\relax }}{30}{figure.caption.22}}
\newlabel{windowimages}{{20}{30}{Results on changing window size ,penalization factor $\sigma =130$\relax }{figure.caption.22}{}}
\@writefile{toc}{\contentsline {section}{\numberline {7}Invariances in error measure computation}{31}{section.7}}
\newlabel{invariances}{{7}{31}{Invariances in error measure computation}{section.7}{}}
\@writefile{toc}{\contentsline {subsection}{\numberline {7.1}Illumination invariance}{31}{subsection.7.1}}
\newlabel{illum1}{{\caption@xref {illum1}{ on input line 883}}{31}{Illumination invariance}{figure.caption.23}{}}
\newlabel{sub@illum1}{{}{31}{Illumination invariance}{figure.caption.23}{}}
\newlabel{illum2}{{\caption@xref {illum2}{ on input line 888}}{31}{Illumination invariance}{figure.caption.23}{}}
\newlabel{sub@illum2}{{}{31}{Illumination invariance}{figure.caption.23}{}}
\@writefile{lof}{\contentsline {figure}{\numberline {21}{\ignorespaces Same texture with varying illumination. NL means error(with invariance parameter $\alpha =0.45$)=95.1966, NL means error(without invariance parameter)=317.97225 \relax }}{31}{figure.caption.23}}
\newlabel{errorillumeq}{{12}{31}{Illumination invariance}{equation.7.12}{}}
\@writefile{toc}{\contentsline {subsection}{\numberline {7.2}Rotational invariance}{32}{subsection.7.2}}
\newlabel{rotate1}{{\caption@xref {rotate1}{ on input line 917}}{32}{Rotational invariance}{figure.caption.24}{}}
\newlabel{sub@rotate1}{{}{32}{Rotational invariance}{figure.caption.24}{}}
\newlabel{rotate2}{{\caption@xref {rotate2}{ on input line 922}}{32}{Rotational invariance}{figure.caption.24}{}}
\newlabel{sub@rotate2}{{}{32}{Rotational invariance}{figure.caption.24}{}}
\@writefile{lof}{\contentsline {figure}{\numberline {22}{\ignorespaces Same texture with rotated patterns($90^{\circ }$). NL means error(with invariance parameter $\beta =0.3$)=192.9203, NL means error(without invariance parameter)=228.433   \textbf  {Image Source:} Brodatz Texture database\relax }}{32}{figure.caption.24}}
\newlabel{rotateimagepairs}{{22}{32}{Same texture with rotated patterns($90^{\circ }$). NL means error(with invariance parameter $\beta =0.3$)=192.9203, NL means error(without invariance parameter)=228.433 \\ \textbf {Image Source:} Brodatz Texture database\relax }{figure.caption.24}{}}
\newlabel{errorrotateeq}{{16}{32}{Rotational invariance}{equation.7.16}{}}
\@writefile{toc}{\contentsline {section}{\numberline {8}Pre-processing transformations}{33}{section.8}}
\newlabel{preprocess}{{8}{33}{Pre-processing transformations}{section.8}{}}
\@writefile{toc}{\contentsline {subsection}{\numberline {8.1}Rank Transform}{33}{subsection.8.1}}
\newlabel{ranktable1}{{23a}{33}{Intensity values\relax }{figure.caption.25}{}}
\newlabel{sub@ranktable1}{{a}{33}{Intensity values\relax }{figure.caption.25}{}}
\newlabel{ranktable2}{{23b}{33}{Rank\relax }{figure.caption.25}{}}
\newlabel{sub@ranktable2}{{b}{33}{Rank\relax }{figure.caption.25}{}}
\@writefile{lof}{\contentsline {figure}{\numberline {23}{\ignorespaces Rank transformation:Center pixel's rank value\relax }}{33}{figure.caption.25}}
\newlabel{ranktable}{{23}{33}{Rank transformation:Center pixel's rank value\relax }{figure.caption.25}{}}
\@writefile{toc}{\contentsline {subsection}{\numberline {8.2}Census Transform}{34}{subsection.8.2}}
\newlabel{censustable1}{{24a}{34}{Intensity values\relax }{figure.caption.26}{}}
\newlabel{sub@censustable1}{{a}{34}{Intensity values\relax }{figure.caption.26}{}}
\newlabel{censustable2}{{24b}{34}{Census\relax }{figure.caption.26}{}}
\newlabel{sub@censustable2}{{b}{34}{Census\relax }{figure.caption.26}{}}
\@writefile{lof}{\contentsline {figure}{\numberline {24}{\ignorespaces Census transformation: value=10110110\relax }}{34}{figure.caption.26}}
\newlabel{censustable}{{24}{34}{Census transformation: value=10110110\relax }{figure.caption.26}{}}
\@writefile{toc}{\contentsline {subsection}{\numberline {8.3}Complete Rank Transform}{35}{subsection.8.3}}
\newlabel{completeranktransform}{{8.3}{35}{Complete Rank Transform}{subsection.8.3}{}}
\newlabel{completeranktable1}{{25a}{35}{Intensity values\relax }{figure.caption.27}{}}
\newlabel{sub@completeranktable1}{{a}{35}{Intensity values\relax }{figure.caption.27}{}}
\newlabel{completeranktable2}{{25b}{35}{Complete Rank\relax }{figure.caption.27}{}}
\newlabel{sub@completeranktable2}{{b}{35}{Complete Rank\relax }{figure.caption.27}{}}
\@writefile{lof}{\contentsline {figure}{\numberline {25}{\ignorespaces Complete rank transformation: Vector value={0,7,4,1,5,6,2,3,8}\relax }}{35}{figure.caption.27}}
\newlabel{completeranktable}{{25}{35}{Complete rank transformation: Vector value={0,7,4,1,5,6,2,3,8}\relax }{figure.caption.27}{}}
\newlabel{comparisonrank1}{{26a}{36}{Lenna\relax }{figure.caption.28}{}}
\newlabel{sub@comparisonrank1}{{a}{36}{Lenna\relax }{figure.caption.28}{}}
\newlabel{comparisonrank2}{{26b}{36}{Rank Transformed image\relax }{figure.caption.28}{}}
\newlabel{sub@comparisonrank2}{{b}{36}{Rank Transformed image\relax }{figure.caption.28}{}}
\newlabel{comparisonrank3}{{26c}{36}{Census Transformed image\relax }{figure.caption.28}{}}
\newlabel{sub@comparisonrank3}{{c}{36}{Census Transformed image\relax }{figure.caption.28}{}}
\newlabel{comparisonrank4}{{26d}{36}{Complete Rank Transformed image\relax }{figure.caption.28}{}}
\newlabel{sub@comparisonrank4}{{d}{36}{Complete Rank Transformed image\relax }{figure.caption.28}{}}
\@writefile{lof}{\contentsline {figure}{\numberline {26}{\ignorespaces Different pre-processing transformations for 3x3 matrix neighborhoods \relax }}{36}{figure.caption.28}}
\newlabel{comparisonrank}{{26}{36}{Different pre-processing transformations for 3x3 matrix neighborhoods \relax }{figure.caption.28}{}}
\@writefile{toc}{\contentsline {section}{\numberline {9}Results}{37}{section.9}}
\newlabel{res}{{9}{37}{Results}{section.9}{}}
\@writefile{toc}{\contentsline {subsection}{\numberline {9.1}Error measure comparison}{37}{subsection.9.1}}
\newlabel{res1}{{9.1}{37}{Error measure comparison}{subsection.9.1}{}}
\newlabel{es1:1}{{27a}{37}{texture 2: same texture as texture 1 \\ translated/shifted version taken from \\different part of same texture. \\NL means Error: 200 \relax }{figure.caption.29}{}}
\newlabel{sub@es1:1}{{a}{37}{texture 2: same texture as texture 1 \\ translated/shifted version taken from \\different part of same texture. \\NL means Error: 200 \relax }{figure.caption.29}{}}
\newlabel{es1:2}{{27b}{37}{Salt and Pepper Noise \\Noise Density: 0.04\\NL means Error: 193.572\relax }{figure.caption.29}{}}
\newlabel{sub@es1:2}{{b}{37}{Salt and Pepper Noise \\Noise Density: 0.04\\NL means Error: 193.572\relax }{figure.caption.29}{}}
\newlabel{es1:3}{{27c}{37}{Gaussian noise\\mean: 0 variance: 0.017\\NL means Error: 238.17\relax }{figure.caption.29}{}}
\newlabel{sub@es1:3}{{c}{37}{Gaussian noise\\mean: 0 variance: 0.017\\NL means Error: 238.17\relax }{figure.caption.29}{}}
\newlabel{es1:4}{{27d}{37}{Gaussian Blur\\variance: 7\\NL means Error: 201\relax }{figure.caption.29}{}}
\newlabel{sub@es1:4}{{d}{37}{Gaussian Blur\\variance: 7\\NL means Error: 201\relax }{figure.caption.29}{}}
\@writefile{lof}{\contentsline {figure}{\numberline {27}{\ignorespaces Error Sphere with NL means error of approximately 200 \textbf  {Image Source:} Brodatz textures \relax }}{37}{figure.caption.29}}
\newlabel{es1}{{27}{37}{Error Sphere with NL means error of approximately 200\\\textbf {Image Source:} Brodatz textures \relax }{figure.caption.29}{}}
\newlabel{es2:1}{{28a}{38}{texture 2: same texture as texture 1 \\ translated/shifted version taken from \\different part of same texture. \\MSE: 2064.5 \relax }{figure.caption.30}{}}
\newlabel{sub@es2:1}{{a}{38}{texture 2: same texture as texture 1 \\ translated/shifted version taken from \\different part of same texture. \\MSE: 2064.5 \relax }{figure.caption.30}{}}
\newlabel{es2:2}{{28b}{38}{Salt and Pepper Noise \\Noise Density: 0.1\\MSE: 2191.1\relax }{figure.caption.30}{}}
\newlabel{sub@es2:2}{{b}{38}{Salt and Pepper Noise \\Noise Density: 0.1\\MSE: 2191.1\relax }{figure.caption.30}{}}
\newlabel{es2:3}{{28c}{38}{Gaussian noise\\mean: 0 variance: 0.04\\MSE: 2034.5\relax }{figure.caption.30}{}}
\newlabel{sub@es2:3}{{c}{38}{Gaussian noise\\mean: 0 variance: 0.04\\MSE: 2034.5\relax }{figure.caption.30}{}}
\newlabel{es1:4}{{28d}{38}{Gaussian Blur\\variance: 25\\MSE: 1000\relax }{figure.caption.30}{}}
\newlabel{sub@es1:4}{{d}{38}{Gaussian Blur\\variance: 25\\MSE: 1000\relax }{figure.caption.30}{}}
\@writefile{lof}{\contentsline {figure}{\numberline {28}{\ignorespaces Error Sphere with MSE of approximately 2000 \textbf  {Image Source:} Brodatz textures \relax }}{38}{figure.caption.30}}
\newlabel{es2}{{28}{38}{Error Sphere with MSE of approximately 2000\\\textbf {Image Source:} Brodatz textures \relax }{figure.caption.30}{}}
\newlabel{es3:1}{{29a}{39}{texture 2: same texture as texture 1 \\ translated/shifted version taken from \\different part of same texture. \\SSIM: 0.1196 \relax }{figure.caption.31}{}}
\newlabel{sub@es3:1}{{a}{39}{texture 2: same texture as texture 1 \\ translated/shifted version taken from \\different part of same texture. \\SSIM: 0.1196 \relax }{figure.caption.31}{}}
\newlabel{es3:2}{{29b}{39}{Salt and Pepper Noise \\Noise Density: 0.23\\SSIM: 0.1248\relax }{figure.caption.31}{}}
\newlabel{sub@es3:2}{{b}{39}{Salt and Pepper Noise \\Noise Density: 0.23\\SSIM: 0.1248\relax }{figure.caption.31}{}}
\newlabel{es3:3}{{29c}{39}{Gaussian noise\\mean: 0 variance: 0.09\\SSIM: 0.1219\relax }{figure.caption.31}{}}
\newlabel{sub@es3:3}{{c}{39}{Gaussian noise\\mean: 0 variance: 0.09\\SSIM: 0.1219\relax }{figure.caption.31}{}}
\newlabel{es3:4}{{29d}{39}{Gaussian Blur\\variance: 20\\SSIM: 0.2536\relax }{figure.caption.31}{}}
\newlabel{sub@es3:4}{{d}{39}{Gaussian Blur\\variance: 20\\SSIM: 0.2536\relax }{figure.caption.31}{}}
\@writefile{lof}{\contentsline {figure}{\numberline {29}{\ignorespaces Error Sphere with SSIM value of approximately 0.1200 \textbf  {Image Source:} Brodatz textures \relax }}{39}{figure.caption.31}}
\newlabel{es3}{{29}{39}{Error Sphere with SSIM value of approximately 0.1200\\\textbf {Image Source:} Brodatz textures \relax }{figure.caption.31}{}}
\newlabel{es4:1}{{30a}{40}{texture 2: same texture as texture 1 \\ translated/shifted version taken from \\different part of same texture. \\MS-SSIM: 0.0856 \relax }{figure.caption.32}{}}
\newlabel{sub@es4:1}{{a}{40}{texture 2: same texture as texture 1 \\ translated/shifted version taken from \\different part of same texture. \\MS-SSIM: 0.0856 \relax }{figure.caption.32}{}}
\newlabel{es4:2}{{30b}{40}{Salt and Pepper Noise \\Noise Density: 0.9\\MS-SSIM: 0.0796\relax }{figure.caption.32}{}}
\newlabel{sub@es4:2}{{b}{40}{Salt and Pepper Noise \\Noise Density: 0.9\\MS-SSIM: 0.0796\relax }{figure.caption.32}{}}
\newlabel{es4:3}{{30c}{40}{Gaussian noise\\mean: 0 variance: 10\\NL means Error: 0.0728\relax }{figure.caption.32}{}}
\newlabel{sub@es4:3}{{c}{40}{Gaussian noise\\mean: 0 variance: 10\\NL means Error: 0.0728\relax }{figure.caption.32}{}}
\newlabel{es4:4}{{30d}{40}{Gaussian Blur\\variance: 25\\MS-SSIM: 0.1728\relax }{figure.caption.32}{}}
\newlabel{sub@es4:4}{{d}{40}{Gaussian Blur\\variance: 25\\MS-SSIM: 0.1728\relax }{figure.caption.32}{}}
\@writefile{lof}{\contentsline {figure}{\numberline {30}{\ignorespaces Error Sphere with MS-SSIM value of approximately 0.0800 \textbf  {Image Source:} Brodatz textures \relax }}{40}{figure.caption.32}}
\newlabel{es4}{{30}{40}{Error Sphere with MS-SSIM value of approximately 0.0800\\\textbf {Image Source:} Brodatz textures \relax }{figure.caption.32}{}}
\newlabel{check5:1}{{31a}{41}{checkerboard image\relax }{figure.caption.33}{}}
\newlabel{sub@check5:1}{{a}{41}{checkerboard image\relax }{figure.caption.33}{}}
\newlabel{check5:2}{{31b}{41}{shifted checkerboard\relax }{figure.caption.33}{}}
\newlabel{sub@check5:2}{{b}{41}{shifted checkerboard\relax }{figure.caption.33}{}}
\@writefile{lof}{\contentsline {figure}{\numberline {31}{\ignorespaces MSE=65025, SSIM=-0.4563, MS-SSIM=0.9222, NL means error=0\relax }}{41}{figure.caption.33}}
\newlabel{check5}{{31}{41}{MSE=65025, SSIM=-0.4563, MS-SSIM=0.9222, NL means error=0\relax }{figure.caption.33}{}}
\newlabel{jpeg1}{{32a}{42}{original building image.\\\tab \\\tab \\\tab \\\tab \relax }{figure.caption.34}{}}
\newlabel{sub@jpeg1}{{a}{42}{original building image.\\\tab \\\tab \\\tab \\\tab \relax }{figure.caption.34}{}}
\newlabel{jpeg2}{{32b}{42}{bit rate:0.64297\\MSE:72.1326\\SSIM:0.9276\\MS-SSIM:0.98617\\NL means error:29.747298\relax }{figure.caption.34}{}}
\newlabel{sub@jpeg2}{{b}{42}{bit rate:0.64297\\MSE:72.1326\\SSIM:0.9276\\MS-SSIM:0.98617\\NL means error:29.747298\relax }{figure.caption.34}{}}
\newlabel{jpeg3}{{32c}{42}{bit rate:0.39385\\MSE:178.8167\\SSIM:0.8360\\MS-SSIM:0.96285\\NL means error:77.211059\relax }{figure.caption.34}{}}
\newlabel{sub@jpeg3}{{c}{42}{bit rate:0.39385\\MSE:178.8167\\SSIM:0.8360\\MS-SSIM:0.96285\\NL means error:77.211059\relax }{figure.caption.34}{}}
\newlabel{jpeg4}{{32d}{42}{bit rate:0.26018\\MSE:386.6692\\SSIM: 0.6750\\MS-SSIM:0.90908\\NL means error:176.0024\relax }{figure.caption.34}{}}
\newlabel{sub@jpeg4}{{d}{42}{bit rate:0.26018\\MSE:386.6692\\SSIM: 0.6750\\MS-SSIM:0.90908\\NL means error:176.0024\relax }{figure.caption.34}{}}
\@writefile{lof}{\contentsline {figure}{\numberline {32}{\ignorespaces JPEG artifacts with varying bit rate \textbf  {Image Source:} LIVE Image Quality Assessment Database, University of Texas,Austin \relax }}{42}{figure.caption.34}}
\newlabel{jpeg}{{32}{42}{JPEG artifacts with varying bit rate\\\textbf {Image Source:} LIVE Image Quality Assessment Database, University of Texas,Austin \relax }{figure.caption.34}{}}
\newlabel{gb1}{{33a}{43}{original carnival dolls image.\\\tab \\\tab \\\tab \\\tab \relax }{figure.caption.35}{}}
\newlabel{sub@gb1}{{a}{43}{original carnival dolls image.\\\tab \\\tab \\\tab \\\tab \relax }{figure.caption.35}{}}
\newlabel{gb2}{{33b}{43}{$\sigma $:1.278615\\MSE:58.5697\\SSIM:0.9387\\MS-SSIM:0.99198\\NL means error:40.087558\relax }{figure.caption.35}{}}
\newlabel{sub@gb2}{{b}{43}{$\sigma $:1.278615\\MSE:58.5697\\SSIM:0.9387\\MS-SSIM:0.99198\\NL means error:40.087558\relax }{figure.caption.35}{}}
\newlabel{gb3}{{33c}{43}{$\sigma $:1.765595\\MSE:113.491\\SSIM:0.8800\\MS-SSIM:0.97976\\NL means error:79.146057\relax }{figure.caption.35}{}}
\newlabel{sub@gb3}{{c}{43}{$\sigma $:1.765595\\MSE:113.491\\SSIM:0.8800\\MS-SSIM:0.97976\\NL means error:79.146057\relax }{figure.caption.35}{}}
\newlabel{gb4}{{33d}{43}{$\sigma $:2.854139\\MSE:230.5641\\SSIM: 0.7643\\MS-SSIM:0.94044\\NL means error:167.134556\relax }{figure.caption.35}{}}
\newlabel{sub@gb4}{{d}{43}{$\sigma $:2.854139\\MSE:230.5641\\SSIM: 0.7643\\MS-SSIM:0.94044\\NL means error:167.134556\relax }{figure.caption.35}{}}
\@writefile{lof}{\contentsline {figure}{\numberline {33}{\ignorespaces Gussian blur with varying std deviation $\sigma $ \textbf  {Image Source:} LIVE Image Quality Assessment Database, University of Texas,Austin\relax }}{43}{figure.caption.35}}
\newlabel{gb}{{33}{43}{Gussian blur with varying std deviation $\sigma $\\\textbf {Image Source:} LIVE Image Quality Assessment Database, University of Texas,Austin\relax }{figure.caption.35}{}}
\newlabel{wn1}{{34a}{44}{original ocean image.\\\tab \\\tab \\\tab \\\tab \relax }{figure.caption.36}{}}
\newlabel{sub@wn1}{{a}{44}{original ocean image.\\\tab \\\tab \\\tab \\\tab \relax }{figure.caption.36}{}}
\newlabel{wn2}{{34b}{44}{$\sigma $:0.109375\\MSE:33.6856\\SSIM:0.7561\\MS-SSIM:0.94869\\NL means error:0.468187\relax }{figure.caption.36}{}}
\newlabel{sub@wn2}{{b}{44}{$\sigma $:0.109375\\MSE:33.6856\\SSIM:0.7561\\MS-SSIM:0.94869\\NL means error:0.468187\relax }{figure.caption.36}{}}
\newlabel{wn3}{{34c}{44}{$\sigma $:0.179688\\MSE:88.4276\\SSIM:0.5720\\MS-SSIM:0.88812\\NL means error:3.992450\relax }{figure.caption.36}{}}
\newlabel{sub@wn3}{{c}{44}{$\sigma $:0.179688\\MSE:88.4276\\SSIM:0.5720\\MS-SSIM:0.88812\\NL means error:3.992450\relax }{figure.caption.36}{}}
\newlabel{wn4}{{34d}{44}{$\sigma $:1.996094\\MSE:1638.420\\SSIM: 0.0922\\MS-SSIM:0.36064\\NL means error:1121.6723\relax }{figure.caption.36}{}}
\newlabel{sub@wn4}{{d}{44}{$\sigma $:1.996094\\MSE:1638.420\\SSIM: 0.0922\\MS-SSIM:0.36064\\NL means error:1121.6723\relax }{figure.caption.36}{}}
\@writefile{lof}{\contentsline {figure}{\numberline {34}{\ignorespaces White Noise with varying std deviation $\sigma $  \textbf  {Image Source:} LIVE Image Quality Assessment Database, University of Texas,Austin\relax }}{44}{figure.caption.36}}
\newlabel{wn}{{34}{44}{White Noise with varying std deviation $\sigma $ \\\textbf {Image Source:} LIVE Image Quality Assessment Database, University of Texas,Austin\relax }{figure.caption.36}{}}
\@writefile{toc}{\contentsline {subsection}{\numberline {9.2}Texture Classification database}{46}{subsection.9.2}}
\newlabel{res2}{{9.2}{46}{Texture Classification database}{subsection.9.2}{}}
\@writefile{lof}{\contentsline {figure}{\numberline {35}{\ignorespaces Reference texture for comparison  \textbf  {Image Source:} Brodatz Texture database\relax }}{46}{figure.caption.37}}
\newlabel{referencetex}{{35}{46}{Reference texture for comparison\\ \textbf {Image Source:} Brodatz Texture database\relax }{figure.caption.37}{}}
\newlabel{tex1}{{36a}{47}{NL means error=215.5398\relax }{figure.caption.38}{}}
\newlabel{sub@tex1}{{a}{47}{NL means error=215.5398\relax }{figure.caption.38}{}}
\newlabel{tex2}{{36b}{47}{NL means error=676.0787\relax }{figure.caption.38}{}}
\newlabel{sub@tex2}{{b}{47}{NL means error=676.0787\relax }{figure.caption.38}{}}
\newlabel{tex3}{{36c}{47}{NL means error=202.9718\relax }{figure.caption.38}{}}
\newlabel{sub@tex3}{{c}{47}{NL means error=202.9718\relax }{figure.caption.38}{}}
\newlabel{tex4}{{36d}{47}{NL means error=341.712\relax }{figure.caption.38}{}}
\newlabel{sub@tex4}{{d}{47}{NL means error=341.712\relax }{figure.caption.38}{}}
\@writefile{lof}{\contentsline {figure}{\numberline {36}{\ignorespaces Input textures to compare with reference in figure \ref  {referencetex}  \textbf  {Image Source:} Brodatz Texture database\relax }}{47}{figure.caption.38}}
\newlabel{tex}{{36}{47}{Input textures to compare with reference in figure \ref {referencetex}\\ \textbf {Image Source:} Brodatz Texture database\relax }{figure.caption.38}{}}
\newlabel{sim1:1}{{37a}{48}{texture 1: reference\relax }{figure.caption.39}{}}
\newlabel{sub@sim1:1}{{a}{48}{texture 1: reference\relax }{figure.caption.39}{}}
\newlabel{sim1:2}{{37b}{48}{texture 2: input\relax }{figure.caption.39}{}}
\newlabel{sub@sim1:2}{{b}{48}{texture 2: input\relax }{figure.caption.39}{}}
\newlabel{sim1:3}{{37c}{48}{similarity of texture 2 with texture 1 as reference\relax }{figure.caption.39}{}}
\newlabel{sub@sim1:3}{{c}{48}{similarity of texture 2 with texture 1 as reference\relax }{figure.caption.39}{}}
\newlabel{sim1:4}{{37d}{48}{similarity of texture 1 with texture 2 as reference\relax }{figure.caption.39}{}}
\newlabel{sub@sim1:4}{{d}{48}{similarity of texture 1 with texture 2 as reference\relax }{figure.caption.39}{}}
\@writefile{lof}{\contentsline {figure}{\numberline {37}{\ignorespaces Understanding similarity strucutres(1)  \textbf  {Image Source:} Brodatz Texture database\relax }}{48}{figure.caption.39}}
\newlabel{sim1}{{37}{48}{Understanding similarity strucutres(1)\\ \textbf {Image Source:} Brodatz Texture database\relax }{figure.caption.39}{}}
\newlabel{sim2:1}{{38a}{49}{texture 1: reference\relax }{figure.caption.40}{}}
\newlabel{sub@sim2:1}{{a}{49}{texture 1: reference\relax }{figure.caption.40}{}}
\newlabel{sim2:2}{{38b}{49}{texture 3: input\relax }{figure.caption.40}{}}
\newlabel{sub@sim2:2}{{b}{49}{texture 3: input\relax }{figure.caption.40}{}}
\newlabel{sim2:3}{{38c}{49}{similarity of texture 3 with texture 1 as reference\relax }{figure.caption.40}{}}
\newlabel{sub@sim2:3}{{c}{49}{similarity of texture 3 with texture 1 as reference\relax }{figure.caption.40}{}}
\newlabel{sim2:4}{{38d}{49}{similarity of texture 1 with texture 3 as reference\relax }{figure.caption.40}{}}
\newlabel{sub@sim2:4}{{d}{49}{similarity of texture 1 with texture 3 as reference\relax }{figure.caption.40}{}}
\@writefile{lof}{\contentsline {figure}{\numberline {38}{\ignorespaces Understanding similarity strucutres(2)  \textbf  {Image Source:} Brodatz Texture database\relax }}{49}{figure.caption.40}}
\newlabel{sim2}{{38}{49}{Understanding similarity strucutres(2)\\ \textbf {Image Source:} Brodatz Texture database\relax }{figure.caption.40}{}}
\newlabel{texture1}{{39a}{51}{aluminium1:a1\relax }{figure.caption.41}{}}
\newlabel{sub@texture1}{{a}{51}{aluminium1:a1\relax }{figure.caption.41}{}}
\newlabel{texture2}{{39b}{51}{aluminium1:a2\relax }{figure.caption.41}{}}
\newlabel{sub@texture2}{{b}{51}{aluminium1:a2\relax }{figure.caption.41}{}}
\newlabel{texture3}{{39c}{51}{aluminium3:a3\relax }{figure.caption.41}{}}
\newlabel{sub@texture3}{{c}{51}{aluminium3:a3\relax }{figure.caption.41}{}}
\newlabel{texture4}{{39d}{51}{grass1:g1\relax }{figure.caption.41}{}}
\newlabel{sub@texture4}{{d}{51}{grass1:g1\relax }{figure.caption.41}{}}
\newlabel{texture5}{{39e}{51}{grass2:g2\relax }{figure.caption.41}{}}
\newlabel{sub@texture5}{{e}{51}{grass2:g2\relax }{figure.caption.41}{}}
\newlabel{texture6}{{39f}{51}{grass3:g3\relax }{figure.caption.41}{}}
\newlabel{sub@texture6}{{f}{51}{grass3:g3\relax }{figure.caption.41}{}}
\newlabel{texture7}{{39g}{51}{pebble1:p1\relax }{figure.caption.41}{}}
\newlabel{sub@texture7}{{g}{51}{pebble1:p1\relax }{figure.caption.41}{}}
\newlabel{texture8}{{39h}{51}{pebble2:p2\relax }{figure.caption.41}{}}
\newlabel{sub@texture8}{{h}{51}{pebble2:p2\relax }{figure.caption.41}{}}
\newlabel{texture9}{{39i}{51}{pebble3:p3\relax }{figure.caption.41}{}}
\newlabel{sub@texture9}{{i}{51}{pebble3:p3\relax }{figure.caption.41}{}}
\newlabel{texture10}{{39j}{51}{roofshingle1:r1\relax }{figure.caption.41}{}}
\newlabel{sub@texture10}{{j}{51}{roofshingle1:r1\relax }{figure.caption.41}{}}
\newlabel{texture11}{{39k}{51}{roofshingle2:r2\relax }{figure.caption.41}{}}
\newlabel{sub@texture11}{{k}{51}{roofshingle2:r2\relax }{figure.caption.41}{}}
\newlabel{texture12}{{39l}{51}{roofshingle3:r3\relax }{figure.caption.41}{}}
\newlabel{sub@texture12}{{l}{51}{roofshingle3:r3\relax }{figure.caption.41}{}}
\@writefile{lof}{\contentsline {figure}{\numberline {39}{\ignorespaces Texture database  \textbf  {Image Source:} Columbia-Utrecht Reflectance and Texture Database(CUReT)\relax }}{51}{figure.caption.41}}
\newlabel{texture}{{39}{51}{Texture database\\ \textbf {Image Source:} Columbia-Utrecht Reflectance and Texture Database(CUReT)\relax }{figure.caption.41}{}}
\@writefile{lot}{\contentsline {table}{\numberline {1}{\ignorespaces LBP as texture classification\relax }}{52}{table.caption.42}}
\newlabel{lbptable}{{1}{52}{LBP as texture classification\relax }{table.caption.42}{}}
\@writefile{lot}{\contentsline {table}{\numberline {2}{\ignorespaces NL means as texture classification\relax }}{53}{table.caption.43}}
\newlabel{nltable}{{2}{53}{NL means as texture classification\relax }{table.caption.43}{}}
\@writefile{lot}{\contentsline {table}{\numberline {3}{\ignorespaces NL means as texture classification with complete rank pre-processing transformation\relax }}{54}{table.caption.44}}
\newlabel{nlcrtable}{{3}{54}{NL means as texture classification with complete rank pre-processing transformation\relax }{table.caption.44}{}}
\@writefile{toc}{\contentsline {section}{\numberline {10}Conclusion and Outlook}{55}{section.10}}
\@writefile{toc}{\contentsline {subsection}{\numberline {10.1}General Conclusion}{55}{subsection.10.1}}
\@writefile{toc}{\contentsline {subsection}{\numberline {10.2}Drawbacks}{56}{subsection.10.2}}
\newlabel{drawback}{{10.2}{56}{Drawbacks}{subsection.10.2}{}}
\@writefile{toc}{\contentsline {subsection}{\numberline {10.3}Future Work}{56}{subsection.10.3}}
\newlabel{future}{{10.3}{56}{Future Work}{subsection.10.3}{}}
