\relax 
\providecommand\hyper@newdestlabel[2]{}
\providecommand\HyperFirstAtBeginDocument{\AtBeginDocument}
\HyperFirstAtBeginDocument{\ifx\hyper@anchor\@undefined
\global\let\oldcontentsline\contentsline
\gdef\contentsline#1#2#3#4{\oldcontentsline{#1}{#2}{#3}}
\global\let\oldnewlabel\newlabel
\gdef\newlabel#1#2{\newlabelxx{#1}#2}
\gdef\newlabelxx#1#2#3#4#5#6{\oldnewlabel{#1}{{#2}{#3}}}
\AtEndDocument{\ifx\hyper@anchor\@undefined
\let\contentsline\oldcontentsline
\let\newlabel\oldnewlabel
\fi}
\fi}
\global\let\hyper@last\relax 
\gdef\HyperFirstAtBeginDocument#1{#1}
\providecommand\HyField@AuxAddToFields[1]{}
\providecommand\HyField@AuxAddToCoFields[2]{}
\providecommand \oddpage@label [2]{}
\citation{mse}
\citation{ssim}
\citation{ssimextra1}
\citation{msssim}
\citation{nlmeans}
\citation{msssim}
\citation{nlmeans}
\citation{illuminationinvariance}
\citation{rotationinvariance}
\citation{ssim}
\citation{msssim}
\citation{mse}
\citation{lossy}
\citation{live}
\citation{live}
\citation{psnr}
\citation{ssimwiki}
\citation{live}
\@writefile{toc}{\contentsline {section}{\numberline {1}Introduction}{1}{section.1}}
\newlabel{intro}{{1}{1}{Introduction}{section.1}{}}
\providecommand*\caption@xref[2]{\@setref\relax\@undefined{#1}}
\newlabel{errorsample1}{{2a}{1}{Reference image\relax }{figure.caption.5}{}}
\newlabel{sub@errorsample1}{{a}{1}{Reference image\relax }{figure.caption.5}{}}
\newlabel{errorsample2}{{2b}{1}{Input image affected by JPEG artifacts\relax }{figure.caption.5}{}}
\newlabel{sub@errorsample2}{{b}{1}{Input image affected by JPEG artifacts\relax }{figure.caption.5}{}}
\@writefile{lof}{\contentsline {figure}{\numberline {2}{\ignorespaces MSE: 517.1649  \textbf  {Image source:} LIVE Image Quality Assessment Database \cite  {live}\relax }}{1}{figure.caption.5}}
\newlabel{errorsample}{{2}{1}{MSE: 517.1649 \\\textbf {Image source:} LIVE Image Quality Assessment Database \cite {live}\relax }{figure.caption.5}{}}
\citation{nlmeans}
\citation{nlmeans}
\citation{rgb2gray}
\@writefile{toc}{\contentsline {subsection}{\numberline {1.1}Goals}{2}{subsection.1.1}}
\@writefile{toc}{\contentsline {subsubsection}{\numberline {1.1.1}Interpreting Non-Local means}{2}{subsubsection.1.1.1}}
\@writefile{toc}{\contentsline {subsubsection}{\numberline {1.1.2}Non-Local means as an error measure for texture classification}{2}{subsubsection.1.1.2}}
\citation{illuminationinvariance}
\citation{rotationinvariance}
\citation{rank}
\citation{census}
\citation{completerank}
\newlabel{rgb2gray1}{{3a}{3}{Red Checkerboard\relax }{figure.caption.6}{}}
\newlabel{sub@rgb2gray1}{{a}{3}{Red Checkerboard\relax }{figure.caption.6}{}}
\newlabel{rgn2gray2}{{3b}{3}{Green Checkerboard\relax }{figure.caption.6}{}}
\newlabel{sub@rgn2gray2}{{b}{3}{Green Checkerboard\relax }{figure.caption.6}{}}
\newlabel{rgb2gray3}{{3c}{3}{Grey scale image of Red Checkerboard\relax }{figure.caption.6}{}}
\newlabel{sub@rgb2gray3}{{c}{3}{Grey scale image of Red Checkerboard\relax }{figure.caption.6}{}}
\newlabel{rgb2gray4}{{3d}{3}{Grey scale image of Green Checkerboard\relax }{figure.caption.6}{}}
\newlabel{sub@rgb2gray4}{{d}{3}{Grey scale image of Green Checkerboard\relax }{figure.caption.6}{}}
\@writefile{lof}{\contentsline {figure}{\numberline {3}{\ignorespaces SSIM of color checkerboards: -0.1266, SSIM of grey scale checkerboards: 0.6717\relax }}{3}{figure.caption.6}}
\newlabel{rgb2gray}{{3}{3}{SSIM of color checkerboards: -0.1266, SSIM of grey scale checkerboards: 0.6717\relax }{figure.caption.6}{}}
\@writefile{toc}{\contentsline {subsubsection}{\numberline {1.1.3}Importance of invariances in error measurement}{4}{subsubsection.1.1.3}}
\@writefile{toc}{\contentsline {subsection}{\numberline {1.2}Organization of the paper}{4}{subsection.1.2}}
\citation{mse}
\citation{mseissues}
\@writefile{toc}{\contentsline {section}{\numberline {2}Related Work}{5}{section.2}}
\newlabel{theory}{{2}{5}{Related Work}{section.2}{}}
\@writefile{toc}{\contentsline {subsection}{\numberline {2.1}Error Measure}{5}{subsection.2.1}}
\@writefile{toc}{\contentsline {subsubsection}{\numberline {2.1.1}Mean Square Error (MSE)}{5}{subsubsection.2.1.1}}
\newlabel{MSEeq}{{1}{5}{Mean Square Error (MSE)}{equation.2.1}{}}
\citation{noise}
\citation{normaldistimage}
\citation{normaldistimage}
\@writefile{lof}{\contentsline {figure}{\numberline {4}{\ignorespaces Normal Distribution  \textbf  {Image source:} Wikipedia article on Normal Distribution \cite  {normaldistimage}\relax }}{6}{figure.caption.7}}
\newlabel{normald}{{4}{6}{Normal Distribution \\\textbf {Image source:} Wikipedia article on Normal Distribution \cite {normaldistimage}\relax }{figure.caption.7}{}}
\citation{mseissues}
\newlabel{fig:sfig1}{{5a}{7}{Lenna\relax }{figure.caption.8}{}}
\newlabel{sub@fig:sfig1}{{a}{7}{Lenna\relax }{figure.caption.8}{}}
\newlabel{fig:sfig2}{{5b}{7}{Noise with $\sigma $ = 10, MSE = 99.33\relax }{figure.caption.8}{}}
\newlabel{sub@fig:sfig2}{{b}{7}{Noise with $\sigma $ = 10, MSE = 99.33\relax }{figure.caption.8}{}}
\newlabel{fig:sfig3}{{5c}{7}{Noise with $\sigma $ = 25, MSE = 615.94\relax }{figure.caption.8}{}}
\newlabel{sub@fig:sfig3}{{c}{7}{Noise with $\sigma $ = 25, MSE = 615.94\relax }{figure.caption.8}{}}
\newlabel{fig:sfig4}{{5d}{7}{Noise with $\sigma $ = 50, MSE = 2107.99\relax }{figure.caption.8}{}}
\newlabel{sub@fig:sfig4}{{d}{7}{Noise with $\sigma $ = 50, MSE = 2107.99\relax }{figure.caption.8}{}}
\@writefile{lof}{\contentsline {figure}{\numberline {5}{\ignorespaces Comparison of MSE values between different noise images from the original Lenna Image\relax }}{7}{figure.caption.8}}
\newlabel{fig:fig}{{5}{7}{Comparison of MSE values between different noise images from the original Lenna Image\relax }{figure.caption.8}{}}
\citation{ssim}
\newlabel{fig4:sfig1}{{6a}{8}{checkerboard image\relax }{figure.caption.9}{}}
\newlabel{sub@fig4:sfig1}{{a}{8}{checkerboard image\relax }{figure.caption.9}{}}
\newlabel{fig4:sfig2}{{6b}{8}{shifted checkerboard\relax }{figure.caption.9}{}}
\newlabel{sub@fig4:sfig2}{{b}{8}{shifted checkerboard\relax }{figure.caption.9}{}}
\@writefile{lof}{\contentsline {figure}{\numberline {6}{\ignorespaces MSE = 65025\relax }}{8}{figure.caption.9}}
\newlabel{checker1}{{6}{8}{MSE = 65025\relax }{figure.caption.9}{}}
\@writefile{toc}{\contentsline {subsubsection}{\numberline {2.1.2}Structural Similarity (SSIM) Index}{8}{subsubsection.2.1.2}}
\newlabel{SSIM}{{2.1.2}{8}{Structural Similarity (SSIM) Index}{subsubsection.2.1.2}{}}
\newlabel{SSIMeq}{{2}{8}{Structural Similarity (SSIM) Index}{equation.2.2}{}}
\citation{ssimcode}
\newlabel{fig5:sfig1}{{7a}{9}{Lenna\relax }{figure.caption.10}{}}
\newlabel{sub@fig5:sfig1}{{a}{9}{Lenna\relax }{figure.caption.10}{}}
\newlabel{fig5:sfig2}{{7b}{9}{Noise with $\sigma $ = 10, SSIM = 0.6557\relax }{figure.caption.10}{}}
\newlabel{sub@fig5:sfig2}{{b}{9}{Noise with $\sigma $ = 10, SSIM = 0.6557\relax }{figure.caption.10}{}}
\newlabel{fig5:sfig3}{{7c}{9}{Noise with $\sigma $ = 25, SSIM = 0.3258\relax }{figure.caption.10}{}}
\newlabel{sub@fig5:sfig3}{{c}{9}{Noise with $\sigma $ = 25, SSIM = 0.3258\relax }{figure.caption.10}{}}
\newlabel{fig5:sfig4}{{7d}{9}{Noise with $\sigma $ = 50, SSIM = 0.1528\relax }{figure.caption.10}{}}
\newlabel{sub@fig5:sfig4}{{d}{9}{Noise with $\sigma $ = 50, SSIM = 0.1528\relax }{figure.caption.10}{}}
\@writefile{lof}{\contentsline {figure}{\numberline {7}{\ignorespaces Comparison of SSIM values between different noise images from the original Lenna Image\relax }}{9}{figure.caption.10}}
\newlabel{fig5:fig}{{7}{9}{Comparison of SSIM values between different noise images from the original Lenna Image\relax }{figure.caption.10}{}}
\citation{msssim}
\citation{msssim}
\citation{msssimcode}
\citation{msssimproof}
\newlabel{fig6:sfig1}{{8a}{10}{checkerboard image\relax }{figure.caption.11}{}}
\newlabel{sub@fig6:sfig1}{{a}{10}{checkerboard image\relax }{figure.caption.11}{}}
\newlabel{fig6:sfig2}{{8b}{10}{shifted checkerboard\relax }{figure.caption.11}{}}
\newlabel{sub@fig6:sfig2}{{b}{10}{shifted checkerboard\relax }{figure.caption.11}{}}
\@writefile{lof}{\contentsline {figure}{\numberline {8}{\ignorespaces SSIM = -0.4563\relax }}{10}{figure.caption.11}}
\newlabel{check2}{{8}{10}{SSIM = -0.4563\relax }{figure.caption.11}{}}
\@writefile{toc}{\contentsline {subsubsection}{\numberline {2.1.3}Multi-Scale Structural Similarity (MS-SSIM) Index}{10}{subsubsection.2.1.3}}
\newlabel{MSSSIM}{{2.1.3}{10}{Multi-Scale Structural Similarity (MS-SSIM) Index}{subsubsection.2.1.3}{}}
\citation{msssimcode}
\newlabel{fig7:sfig1}{{9a}{11}{Lenna\relax }{figure.caption.12}{}}
\newlabel{sub@fig7:sfig1}{{a}{11}{Lenna\relax }{figure.caption.12}{}}
\newlabel{fig7:sfig2}{{9b}{11}{Noise with $\sigma $ = 10, MS-SSIM = 0.9452\relax }{figure.caption.12}{}}
\newlabel{sub@fig7:sfig2}{{b}{11}{Noise with $\sigma $ = 10, MS-SSIM = 0.9452\relax }{figure.caption.12}{}}
\newlabel{fig7:sfig3}{{9c}{11}{Noise with $\sigma $ = 25, MS-SSIM = 0.8108\relax }{figure.caption.12}{}}
\newlabel{sub@fig7:sfig3}{{c}{11}{Noise with $\sigma $ = 25, MS-SSIM = 0.8108\relax }{figure.caption.12}{}}
\newlabel{fig7:sfig4}{{9d}{11}{Noise with $\sigma $ = 50, MS-SSIM = 0.6370\relax }{figure.caption.12}{}}
\newlabel{sub@fig7:sfig4}{{d}{11}{Noise with $\sigma $ = 50, MS-SSIM = 0.6370\relax }{figure.caption.12}{}}
\@writefile{lof}{\contentsline {figure}{\numberline {9}{\ignorespaces Comparison of MS-SSIM values between different noise images from the original Lenna Image\relax }}{11}{figure.caption.12}}
\newlabel{fig7:fig}{{9}{11}{Comparison of MS-SSIM values between different noise images from the original Lenna Image\relax }{figure.caption.12}{}}
\citation{texture}
\citation{statistics1}
\citation{statistics2}
\citation{lbp}
\citation{lbp}
\citation{curet}
\citation{curet}
\newlabel{fig8:sfig1}{{10a}{12}{checkerboard image\relax }{figure.caption.13}{}}
\newlabel{sub@fig8:sfig1}{{a}{12}{checkerboard image\relax }{figure.caption.13}{}}
\newlabel{fig8:sfig2}{{10b}{12}{shifted checkerboard\relax }{figure.caption.13}{}}
\newlabel{sub@fig8:sfig2}{{b}{12}{shifted checkerboard\relax }{figure.caption.13}{}}
\@writefile{lof}{\contentsline {figure}{\numberline {10}{\ignorespaces MS-SSIM = 0.9222\relax }}{12}{figure.caption.13}}
\newlabel{check3}{{10}{12}{MS-SSIM = 0.9222\relax }{figure.caption.13}{}}
\@writefile{toc}{\contentsline {subsection}{\numberline {2.2}Texture classification}{12}{subsection.2.2}}
\newlabel{texturebasics}{{2.2}{12}{Texture classification}{subsection.2.2}{}}
\citation{statistics1}
\citation{statistics2}
\citation{statistics1}
\citation{lbp}
\citation{lbpcode}
\newlabel{fig2:sfig1}{{11a}{13}{Aluminium\relax }{figure.caption.14}{}}
\newlabel{sub@fig2:sfig1}{{a}{13}{Aluminium\relax }{figure.caption.14}{}}
\newlabel{fig2:sfig2}{{11b}{13}{Artificial Grass\relax }{figure.caption.14}{}}
\newlabel{sub@fig2:sfig2}{{b}{13}{Artificial Grass\relax }{figure.caption.14}{}}
\newlabel{fig2:sfig3}{{11c}{13}{Roof Shingle\relax }{figure.caption.14}{}}
\newlabel{sub@fig2:sfig3}{{c}{13}{Roof Shingle\relax }{figure.caption.14}{}}
\newlabel{fig2:sfig4}{{11d}{13}{Pebble\relax }{figure.caption.14}{}}
\newlabel{sub@fig2:sfig4}{{d}{13}{Pebble\relax }{figure.caption.14}{}}
\@writefile{lof}{\contentsline {figure}{\numberline {11}{\ignorespaces Different texture samples  \textbf  {Image source:} Columbia-Utrecht Reflectance and Texture Database (CUReT) \cite  {curet}\relax }}{13}{figure.caption.14}}
\newlabel{fig2:fig}{{11}{13}{Different texture samples\\ \textbf {Image source:} Columbia-Utrecht Reflectance and Texture Database (CUReT) \cite {curet}\relax }{figure.caption.14}{}}
\@writefile{toc}{\contentsline {subsubsection}{\numberline {2.2.1}Local Binary Patterns}{13}{subsubsection.2.2.1}}
\newlabel{LBP}{{2.2.1}{13}{Local Binary Patterns}{subsubsection.2.2.1}{}}
\citation{lbpprocedure}
\citation{lbpcode}
\citation{lbpcode}
\citation{lbpcode}
\newlabel{lbpt1}{{12a}{14}{Intensity values\relax }{figure.caption.15}{}}
\newlabel{sub@lbpt1}{{a}{14}{Intensity values\relax }{figure.caption.15}{}}
\newlabel{lbpt2}{{12b}{14}{Thresholds\relax }{figure.caption.15}{}}
\newlabel{sub@lbpt2}{{b}{14}{Thresholds\relax }{figure.caption.15}{}}
\newlabel{lbpt3}{{12c}{14}{Weights\relax }{figure.caption.15}{}}
\newlabel{sub@lbpt3}{{c}{14}{Weights\relax }{figure.caption.15}{}}
\@writefile{lof}{\contentsline {figure}{\numberline {12}{\ignorespaces LBP for the center pixel with grey value 60\relax }}{14}{figure.caption.15}}
\newlabel{lbpt}{{12}{14}{LBP for the center pixel with grey value 60\relax }{figure.caption.15}{}}
\newlabel{euclidean}{{3}{14}{Local Binary Patterns}{equation.2.3}{}}
\citation{lbpprocedure}
\citation{lbpdis}
\newlabel{lbp1}{{13a}{15}{Brick texture\relax }{figure.caption.16}{}}
\newlabel{sub@lbp1}{{a}{15}{Brick texture\relax }{figure.caption.16}{}}
\newlabel{lbp2}{{13b}{15}{Rotated brick texture\relax }{figure.caption.16}{}}
\newlabel{sub@lbp2}{{b}{15}{Rotated brick texture\relax }{figure.caption.16}{}}
\newlabel{lbp3}{{13c}{15}{Carpet texture\relax }{figure.caption.16}{}}
\newlabel{sub@lbp3}{{c}{15}{Carpet texture\relax }{figure.caption.16}{}}
\newlabel{lbp4}{{13d}{15}{Histogram bin comparison\relax }{figure.caption.16}{}}
\newlabel{sub@lbp4}{{d}{15}{Histogram bin comparison\relax }{figure.caption.16}{}}
\@writefile{lof}{\contentsline {figure}{\numberline {13}{\ignorespaces LBP working for classifying textures.   \textbf  {Image source:} Matlab implementation based on the paper by T. Ojala et al. \cite  {lbpcode} \relax }}{15}{figure.caption.16}}
\newlabel{lbpresult}{{13}{15}{LBP working for classifying textures. \\ \textbf {Image source:} Matlab implementation based on the paper by T. Ojala et al. \cite {lbpcode} \relax }{figure.caption.16}{}}
\citation{nlmeans}
\citation{nlmeans}
\@writefile{toc}{\contentsline {subsection}{\numberline {2.3}Non-Local means (NL-means)}{16}{subsection.2.3}}
\newlabel{nlmeans}{{2.3}{16}{Non-Local means (NL-means)}{subsection.2.3}{}}
\@writefile{toc}{\contentsline {subsubsection}{\numberline {2.3.1}Working}{16}{subsubsection.2.3.1}}
\newlabel{nlpixeleq}{{6}{16}{Working}{equation.2.6}{}}
\citation{nlmeans}
\citation{nlmeans}
\newlabel{weightnleq}{{7}{17}{Working}{equation.2.7}{}}
\@writefile{toc}{\contentsline {subsubsection}{\numberline {2.3.2}General results of NL-means}{17}{subsubsection.2.3.2}}
\newlabel{nlweight1}{{14a}{17}{Left: Pattern 1 \\Right: Weight Distribution\relax }{figure.caption.17}{}}
\newlabel{sub@nlweight1}{{a}{17}{Left: Pattern 1 \\Right: Weight Distribution\relax }{figure.caption.17}{}}
\newlabel{nlweight2}{{14b}{17}{Left: Pattern 2 \\Right: Weight Distribution\relax }{figure.caption.17}{}}
\newlabel{sub@nlweight2}{{b}{17}{Left: Pattern 2 \\Right: Weight Distribution\relax }{figure.caption.17}{}}
\@writefile{lof}{\contentsline {figure}{\numberline {14}{\ignorespaces NL-means weight distribution with regards to the central pixel   \textbf  {Image source:} ``A non-local algorithm for image denoising'' by A. Buades et al. \cite  {nlmeans}\relax }}{17}{figure.caption.17}}
\newlabel{nlweight}{{14}{17}{NL-means weight distribution with regards to the central pixel \\ \textbf {Image source:} \quotes {A non-local algorithm for image denoising} by A. Buades et al. \cite {nlmeans}\relax }{figure.caption.17}{}}
\newlabel{fig3:sfig1}{{15a}{18}{Lenna Original Image\relax }{figure.caption.18}{}}
\newlabel{sub@fig3:sfig1}{{a}{18}{Lenna Original Image\relax }{figure.caption.18}{}}
\newlabel{fig3:sfig2}{{15b}{18}{Noise $\sigma $ = 25, MSE = 615.94\relax }{figure.caption.18}{}}
\newlabel{sub@fig3:sfig2}{{b}{18}{Noise $\sigma $ = 25, MSE = 615.94\relax }{figure.caption.18}{}}
\newlabel{fig3:sfig3}{{15c}{18}{NL-means, MSE = 98.13\relax }{figure.caption.18}{}}
\newlabel{sub@fig3:sfig3}{{c}{18}{NL-means, MSE = 98.13\relax }{figure.caption.18}{}}
\@writefile{lof}{\contentsline {figure}{\numberline {15}{\ignorespaces NL-means on Lenna image and corresponding MSE values\relax }}{18}{figure.caption.18}}
\newlabel{nlresult}{{15}{18}{NL-means on Lenna image and corresponding MSE values\relax }{figure.caption.18}{}}
\citation{brodatz}
\citation{brodatz}
\@writefile{toc}{\contentsline {section}{\numberline {3}Base idea: Similarity structures}{19}{section.3}}
\newlabel{baseidea}{{3}{19}{Base idea: Similarity structures}{section.3}{}}
\newlabel{fig9:sfig1}{{16a}{20}{Texture 1\relax }{figure.caption.19}{}}
\newlabel{sub@fig9:sfig1}{{a}{20}{Texture 1\relax }{figure.caption.19}{}}
\newlabel{fig9:sfig2}{{16b}{20}{Texture 2\relax }{figure.caption.19}{}}
\newlabel{sub@fig9:sfig2}{{b}{20}{Texture 2\relax }{figure.caption.19}{}}
\newlabel{fig9:sfig3}{{16c}{20}{Self-similarity of texture 1\relax }{figure.caption.19}{}}
\newlabel{sub@fig9:sfig3}{{c}{20}{Self-similarity of texture 1\relax }{figure.caption.19}{}}
\newlabel{fig9:sfig4}{{16d}{20}{Self-similarity of texture 2\relax }{figure.caption.19}{}}
\newlabel{sub@fig9:sfig4}{{d}{20}{Self-similarity of texture 2\relax }{figure.caption.19}{}}
\newlabel{fig9:sfig5}{{16e}{20}{Cross-similarity of texture 2 with \\texture 1 as reference\relax }{figure.caption.19}{}}
\newlabel{sub@fig9:sfig5}{{e}{20}{Cross-similarity of texture 2 with \\texture 1 as reference\relax }{figure.caption.19}{}}
\newlabel{fig9:sfig6}{{16f}{20}{Cross-similarity of texture 1 with \\texture 2 as reference\relax }{figure.caption.19}{}}
\newlabel{sub@fig9:sfig6}{{f}{20}{Cross-similarity of texture 1 with \\texture 2 as reference\relax }{figure.caption.19}{}}
\@writefile{lof}{\contentsline {figure}{\numberline {16}{\ignorespaces NL-means similarity structure image pairs.  Patch size =9x9, Window size=21x21, penalization factor=130 \textbf  {Image source:} Brodatz textures \cite  {brodatz}\relax }}{20}{figure.caption.19}}
\newlabel{nlimagepairs}{{16}{20}{NL-means similarity structure image pairs. \\Patch size =9x9, Window size=21x21, penalization factor=130\\\textbf {Image source:} Brodatz textures \cite {brodatz}\relax }{figure.caption.19}{}}
\@writefile{toc}{\contentsline {subsection}{\numberline {3.1}Algorithm}{21}{subsection.3.1}}
\newlabel{algorithm}{{3.1}{21}{Algorithm}{subsection.3.1}{}}
\newlabel{nlmeans1}{{8}{21}{Algorithm}{equation.3.8}{}}
\newlabel{nlmeans2}{{10}{21}{Algorithm}{equation.3.10}{}}
\newlabel{erroreq1}{{12}{21}{Algorithm}{equation.3.12}{}}
\newlabel{nlmeans3}{{13}{21}{Algorithm}{equation.3.13}{}}
\citation{brodatz}
\citation{brodatz}
\newlabel{nlmeans4}{{15}{22}{Algorithm}{equation.3.15}{}}
\newlabel{erroreq2}{{17}{22}{Algorithm}{equation.3.17}{}}
\@writefile{toc}{\contentsline {subsection}{\numberline {3.2}Error values using NL-means}{22}{subsection.3.2}}
\newlabel{nl1:1}{{17a}{23}{Carpet texture\relax }{figure.caption.20}{}}
\newlabel{sub@nl1:1}{{a}{23}{Carpet texture\relax }{figure.caption.20}{}}
\newlabel{nl1:2}{{17b}{23}{Self-similarity image of the carpet structure\relax }{figure.caption.20}{}}
\newlabel{sub@nl1:2}{{b}{23}{Self-similarity image of the carpet structure\relax }{figure.caption.20}{}}
\newlabel{nl1:3}{{17c}{23}{Checkerboard structure\relax }{figure.caption.20}{}}
\newlabel{sub@nl1:3}{{c}{23}{Checkerboard structure\relax }{figure.caption.20}{}}
\newlabel{nl1:4}{{17d}{23}{Self-similarity of checkerboard\relax }{figure.caption.20}{}}
\newlabel{sub@nl1:4}{{d}{23}{Self-similarity of checkerboard\relax }{figure.caption.20}{}}
\@writefile{lof}{\contentsline {figure}{\numberline {17}{\ignorespaces Self-similarity structures comparison. \textbf  {Carpet Image source:} Brodatz textures \cite  {brodatz}\relax }}{23}{figure.caption.20}}
\newlabel{nl1}{{17}{23}{Self-similarity structures comparison.\\\textbf {Carpet Image source:} Brodatz textures \cite {brodatz}\relax }{figure.caption.20}{}}
\newlabel{nlcheck1}{{18a}{24}{checkerboard image\relax }{figure.caption.21}{}}
\newlabel{sub@nlcheck1}{{a}{24}{checkerboard image\relax }{figure.caption.21}{}}
\newlabel{nlcheck2}{{18b}{24}{shifted checkerboard\relax }{figure.caption.21}{}}
\newlabel{sub@nlcheck2}{{b}{24}{shifted checkerboard\relax }{figure.caption.21}{}}
\@writefile{lof}{\contentsline {figure}{\numberline {18}{\ignorespaces NL-means error between the checkerboard images = 0\relax }}{24}{figure.caption.21}}
\newlabel{check4}{{18}{24}{NL-means error between the checkerboard images = 0\relax }{figure.caption.21}{}}
\citation{brodatz}
\citation{brodatz}
\@writefile{toc}{\contentsline {section}{\numberline {4}Parameter choices}{25}{section.4}}
\newlabel{paramter}{{4}{25}{Parameter choices}{section.4}{}}
\@writefile{toc}{\contentsline {subsection}{\numberline {4.1}Penalization factor}{25}{subsection.4.1}}
\newlabel{penalize}{{4.1}{25}{Penalization factor}{subsection.4.1}{}}
\newlabel{penalize1}{{19a}{25}{Penalization factor $\delta = 40$\relax }{figure.caption.22}{}}
\newlabel{sub@penalize1}{{a}{25}{Penalization factor $\delta = 40$\relax }{figure.caption.22}{}}
\newlabel{penalize2}{{19b}{25}{Penalization factor $\delta = 70$\relax }{figure.caption.22}{}}
\newlabel{sub@penalize2}{{b}{25}{Penalization factor $\delta = 70$\relax }{figure.caption.22}{}}
\newlabel{penalize3}{{19c}{25}{Penalization factor $\delta = 130$\relax }{figure.caption.22}{}}
\newlabel{sub@penalize3}{{c}{25}{Penalization factor $\delta = 130$\relax }{figure.caption.22}{}}
\newlabel{penalize4}{{19d}{25}{Penalization factor $\delta = 200$\relax }{figure.caption.22}{}}
\newlabel{sub@penalize4}{{d}{25}{Penalization factor $\delta = 200$\relax }{figure.caption.22}{}}
\@writefile{lof}{\contentsline {figure}{\numberline {19}{\ignorespaces Results on changing penalization factor $\delta $,   patch size 9x9 and window size 21x21  \textbf  {Image source:} Brodatz textures \cite  {brodatz}\relax }}{25}{figure.caption.22}}
\newlabel{penalizeimages}{{19}{25}{Results on changing penalization factor $\delta $, \\ patch size 9x9 and window size 21x21 \\\textbf {Image source:} Brodatz textures \cite {brodatz}\relax }{figure.caption.22}{}}
\citation{brodatz}
\citation{brodatz}
\@writefile{toc}{\contentsline {subsection}{\numberline {4.2}Patch size}{26}{subsection.4.2}}
\newlabel{patch}{{4.2}{26}{Patch size}{subsection.4.2}{}}
\newlabel{patch1}{{20a}{26}{Patch size: 1x1\relax }{figure.caption.23}{}}
\newlabel{sub@patch1}{{a}{26}{Patch size: 1x1\relax }{figure.caption.23}{}}
\newlabel{patch2}{{20b}{26}{Patch size: 4x4\relax }{figure.caption.23}{}}
\newlabel{sub@patch2}{{b}{26}{Patch size: 4x4\relax }{figure.caption.23}{}}
\newlabel{patch3}{{20c}{26}{Patch size: 9x9\relax }{figure.caption.23}{}}
\newlabel{sub@patch3}{{c}{26}{Patch size: 9x9\relax }{figure.caption.23}{}}
\newlabel{patch4}{{20d}{26}{Patch size: 17x17\relax }{figure.caption.23}{}}
\newlabel{sub@patch4}{{d}{26}{Patch size: 17x17\relax }{figure.caption.23}{}}
\@writefile{lof}{\contentsline {figure}{\numberline {20}{\ignorespaces Results on varying patch size ,   window size: 21x21 and penalization factor $\delta $: $130$  \textbf  {Image source:} Brodatz textures \cite  {brodatz}\relax }}{26}{figure.caption.23}}
\newlabel{patchimages}{{20}{26}{Results on varying patch size , \\ window size: 21x21 and penalization factor $\delta $: $130$ \\\textbf {Image source:} Brodatz textures \cite {brodatz}\relax }{figure.caption.23}{}}
\citation{brodatz}
\citation{brodatz}
\@writefile{toc}{\contentsline {subsection}{\numberline {4.3}Window size}{27}{subsection.4.3}}
\newlabel{window}{{4.3}{27}{Window size}{subsection.4.3}{}}
\newlabel{window1}{{21a}{28}{Patch size: 1x1, Window size: 1x1\relax }{figure.caption.24}{}}
\newlabel{sub@window1}{{a}{28}{Patch size: 1x1, Window size: 1x1\relax }{figure.caption.24}{}}
\newlabel{window2}{{21b}{28}{Patch size: 9x9, Window size: 13x13\relax }{figure.caption.24}{}}
\newlabel{sub@window2}{{b}{28}{Patch size: 9x9, Window size: 13x13\relax }{figure.caption.24}{}}
\newlabel{window3}{{21c}{28}{Patch size: 9x9, Window size: 21x21\relax }{figure.caption.24}{}}
\newlabel{sub@window3}{{c}{28}{Patch size: 9x9, Window size: 21x21\relax }{figure.caption.24}{}}
\newlabel{window4}{{21d}{28}{Patch size: 9x9, Window size: 41x41\relax }{figure.caption.24}{}}
\newlabel{sub@window4}{{d}{28}{Patch size: 9x9, Window size: 41x41\relax }{figure.caption.24}{}}
\@writefile{lof}{\contentsline {figure}{\numberline {21}{\ignorespaces Results on varying window size,   penalization factor $\delta $: $130$  \textbf  {Image source:} Brodatz textures \cite  {brodatz}\relax }}{28}{figure.caption.24}}
\newlabel{windowimages}{{21}{28}{Results on varying window size, \\ penalization factor $\delta $: $130$ \\\textbf {Image source:} Brodatz textures \cite {brodatz}\relax }{figure.caption.24}{}}
\citation{brodatz}
\citation{brodatz}
\citation{illuminationinvariance}
\@writefile{toc}{\contentsline {section}{\numberline {5}Invariances in error measure computation}{29}{section.5}}
\newlabel{invariances}{{5}{29}{Invariances in error measure computation}{section.5}{}}
\@writefile{toc}{\contentsline {subsection}{\numberline {5.1}Illumination invariance}{29}{subsection.5.1}}
\newlabel{illum1}{{\caption@xref {illum1}{ on input line 1036}}{29}{Illumination invariance}{figure.caption.25}{}}
\newlabel{sub@illum1}{{}{29}{Illumination invariance}{figure.caption.25}{}}
\newlabel{illum2}{{\caption@xref {illum2}{ on input line 1041}}{29}{Illumination invariance}{figure.caption.25}{}}
\newlabel{sub@illum2}{{}{29}{Illumination invariance}{figure.caption.25}{}}
\@writefile{lof}{\contentsline {figure}{\numberline {22}{\ignorespaces Same texture with varying illumination. NL-means error (without invariance parameter) = 317.97225, NL-means error (with invariance parameter $\alpha =0.45$) = 95.1966   \textbf  {Image source:} Brodatz textures \cite  {brodatz}\relax }}{29}{figure.caption.25}}
\citation{brodatz}
\citation{brodatz}
\citation{rotationinvariance}
\newlabel{errorillumeq}{{25}{30}{Illumination invariance}{equation.5.25}{}}
\@writefile{toc}{\contentsline {subsection}{\numberline {5.2}Rotational invariance}{30}{subsection.5.2}}
\newlabel{rotate1}{{\caption@xref {rotate1}{ on input line 1084}}{30}{Rotational invariance}{figure.caption.26}{}}
\newlabel{sub@rotate1}{{}{30}{Rotational invariance}{figure.caption.26}{}}
\newlabel{rotate2}{{\caption@xref {rotate2}{ on input line 1089}}{30}{Rotational invariance}{figure.caption.26}{}}
\newlabel{sub@rotate2}{{}{30}{Rotational invariance}{figure.caption.26}{}}
\@writefile{lof}{\contentsline {figure}{\numberline {23}{\ignorespaces Same texture with rotated patterns ($90^{\circ }$). NL-means error (without invariance parameter) = 228.433, NL-means error (with invariance parameter $\beta =0.3$) = 192.9203   \textbf  {Image source:} Brodatz textures \cite  {brodatz}\relax }}{30}{figure.caption.26}}
\newlabel{rotateimagepairs}{{23}{30}{Same texture with rotated patterns ($90^{\circ }$). NL-means error (without invariance parameter) = 228.433, NL-means error (with invariance parameter $\beta =0.3$) = 192.9203 \\ \textbf {Image source:} Brodatz textures \cite {brodatz}\relax }{figure.caption.26}{}}
\newlabel{errorrotateeq}{{31}{31}{Rotational invariance}{equation.5.31}{}}
\citation{rank}
\citation{rankproof}
\citation{rank}
\citation{rankproof}
\@writefile{toc}{\contentsline {section}{\numberline {6}Pre-processing transformations}{32}{section.6}}
\newlabel{preprocess}{{6}{32}{Pre-processing transformations}{section.6}{}}
\@writefile{toc}{\contentsline {subsection}{\numberline {6.1}Rank Transform}{32}{subsection.6.1}}
\newlabel{ranktable1}{{24a}{32}{Intensity values\relax }{figure.caption.27}{}}
\newlabel{sub@ranktable1}{{a}{32}{Intensity values\relax }{figure.caption.27}{}}
\newlabel{ranktable2}{{24b}{32}{Rank\relax }{figure.caption.27}{}}
\newlabel{sub@ranktable2}{{b}{32}{Rank\relax }{figure.caption.27}{}}
\@writefile{lof}{\contentsline {figure}{\numberline {24}{\ignorespaces Rank transformation: Center pixel's rank value\relax }}{32}{figure.caption.27}}
\newlabel{ranktable}{{24}{32}{Rank transformation: Center pixel's rank value\relax }{figure.caption.27}{}}
\citation{census}
\citation{census1}
\citation{census2}
\@writefile{toc}{\contentsline {subsection}{\numberline {6.2}Census Transform}{33}{subsection.6.2}}
\newlabel{censustable1}{{25a}{33}{Intensity values\relax }{figure.caption.28}{}}
\newlabel{sub@censustable1}{{a}{33}{Intensity values\relax }{figure.caption.28}{}}
\newlabel{censustable2}{{25b}{33}{Census\relax }{figure.caption.28}{}}
\newlabel{sub@censustable2}{{b}{33}{Census\relax }{figure.caption.28}{}}
\@writefile{lof}{\contentsline {figure}{\numberline {25}{\ignorespaces Census transformation: Vector value = (1, 0, 1, 1, 0, 1, 1, 0)\relax }}{33}{figure.caption.28}}
\newlabel{censustable}{{25}{33}{Census transformation: Vector value = (1, 0, 1, 1, 0, 1, 1, 0)\relax }{figure.caption.28}{}}
\citation{completerank}
\@writefile{toc}{\contentsline {subsection}{\numberline {6.3}Complete Rank Transform}{34}{subsection.6.3}}
\newlabel{completeranktransform}{{6.3}{34}{Complete Rank Transform}{subsection.6.3}{}}
\newlabel{completeranktable1}{{26a}{34}{Intensity values\relax }{figure.caption.29}{}}
\newlabel{sub@completeranktable1}{{a}{34}{Intensity values\relax }{figure.caption.29}{}}
\newlabel{completeranktable2}{{26b}{34}{Complete Rank\relax }{figure.caption.29}{}}
\newlabel{sub@completeranktable2}{{b}{34}{Complete Rank\relax }{figure.caption.29}{}}
\@writefile{lof}{\contentsline {figure}{\numberline {26}{\ignorespaces Complete rank transformation: Vector value = (0, 7, 4, 1, 5, 6, 2, 3, 8)\relax }}{34}{figure.caption.29}}
\newlabel{completeranktable}{{26}{34}{Complete rank transformation: Vector value = (0, 7, 4, 1, 5, 6, 2, 3, 8)\relax }{figure.caption.29}{}}
\newlabel{comparisonrank1}{{27a}{35}{Lenna\relax }{figure.caption.30}{}}
\newlabel{sub@comparisonrank1}{{a}{35}{Lenna\relax }{figure.caption.30}{}}
\newlabel{comparisonrank2}{{27b}{35}{Rank Transformed image\relax }{figure.caption.30}{}}
\newlabel{sub@comparisonrank2}{{b}{35}{Rank Transformed image\relax }{figure.caption.30}{}}
\newlabel{comparisonrank3}{{27c}{35}{Census Transformed image\relax }{figure.caption.30}{}}
\newlabel{sub@comparisonrank3}{{c}{35}{Census Transformed image\relax }{figure.caption.30}{}}
\newlabel{comparisonrank4}{{27d}{35}{Complete Rank Transformed image\relax }{figure.caption.30}{}}
\newlabel{sub@comparisonrank4}{{d}{35}{Complete Rank Transformed image\relax }{figure.caption.30}{}}
\@writefile{lof}{\contentsline {figure}{\numberline {27}{\ignorespaces Different pre-processing transformations for 3x3 neighborhood \relax }}{35}{figure.caption.30}}
\newlabel{comparisonrank}{{27}{35}{Different pre-processing transformations for 3x3 neighborhood \relax }{figure.caption.30}{}}
\citation{live}
\citation{hyphersphere}
\citation{brodatz}
\citation{brodatz}
\citation{brodatz}
\citation{brodatz}
\@writefile{toc}{\contentsline {section}{\numberline {7}Results}{36}{section.7}}
\newlabel{res}{{7}{36}{Results}{section.7}{}}
\@writefile{toc}{\contentsline {subsection}{\numberline {7.1}Error measure comparison}{36}{subsection.7.1}}
\newlabel{res1}{{7.1}{36}{Error measure comparison}{subsection.7.1}{}}
\newlabel{es-1}{{28a}{36}{Rough Wall texture 1 \relax }{figure.caption.31}{}}
\newlabel{sub@es-1}{{a}{36}{Rough Wall texture 1 \relax }{figure.caption.31}{}}
\newlabel{es-2}{{28b}{36}{Rough Wall texture 2\relax }{figure.caption.31}{}}
\newlabel{sub@es-2}{{b}{36}{Rough Wall texture 2\relax }{figure.caption.31}{}}
\@writefile{lof}{\contentsline {figure}{\numberline {28}{\ignorespaces Same textures taken from different part of the same image.  MSE: 2064.5, SSIM: 0.1196, MS-SSIM: 0.0856, NL-means error: 193.5720   \textbf  {Image source:} Brodatz textures \cite  {brodatz}\relax }}{36}{figure.caption.31}}
\newlabel{es:1}{{28}{36}{Same textures taken from different part of the same image. \\MSE: 2064.5, SSIM: 0.1196, MS-SSIM: 0.0856, NL-means error: 193.5720 \\ \textbf {Image source:} Brodatz textures \cite {brodatz}\relax }{figure.caption.31}{}}
\newlabel{es2:1}{{29a}{37}{Rough Wall texture 2 \\ MSE: 2064.5 \relax }{figure.caption.32}{}}
\newlabel{sub@es2:1}{{a}{37}{Rough Wall texture 2 \\ MSE: 2064.5 \relax }{figure.caption.32}{}}
\newlabel{es2:2}{{29b}{37}{Salt-and-pepper Noise \\Noise Density: 0.1, MSE: 2191.1\relax }{figure.caption.32}{}}
\newlabel{sub@es2:2}{{b}{37}{Salt-and-pepper Noise \\Noise Density: 0.1, MSE: 2191.1\relax }{figure.caption.32}{}}
\newlabel{es2:3}{{29c}{37}{Gaussian noise\\mean: 0 variance: 0.04, MSE: 2034.5\relax }{figure.caption.32}{}}
\newlabel{sub@es2:3}{{c}{37}{Gaussian noise\\mean: 0 variance: 0.04, MSE: 2034.5\relax }{figure.caption.32}{}}
\newlabel{es2:4}{{29d}{37}{Gaussian Blur\\variance: 25, MSE: 1000\relax }{figure.caption.32}{}}
\newlabel{sub@es2:4}{{d}{37}{Gaussian Blur\\variance: 25, MSE: 1000\relax }{figure.caption.32}{}}
\@writefile{lof}{\contentsline {figure}{\numberline {29}{\ignorespaces Hypersphere with MSE values closest to 2000 obtainable using noise and blur \textbf  {Image source:} Brodatz textures \cite  {brodatz}\relax }}{37}{figure.caption.32}}
\newlabel{es2}{{29}{37}{Hypersphere with MSE values closest to 2000 obtainable using noise and blur\\\textbf {Image source:} Brodatz textures \cite {brodatz}\relax }{figure.caption.32}{}}
\citation{brodatz}
\citation{brodatz}
\citation{brodatz}
\citation{brodatz}
\newlabel{es3:1}{{30a}{38}{Rough Wall texture 2\\SSIM: 0.1196 \relax }{figure.caption.33}{}}
\newlabel{sub@es3:1}{{a}{38}{Rough Wall texture 2\\SSIM: 0.1196 \relax }{figure.caption.33}{}}
\newlabel{es3:2}{{30b}{38}{Salt-and-pepper Noise \\Noise Density: 0.23, SSIM: 0.1248\relax }{figure.caption.33}{}}
\newlabel{sub@es3:2}{{b}{38}{Salt-and-pepper Noise \\Noise Density: 0.23, SSIM: 0.1248\relax }{figure.caption.33}{}}
\newlabel{es3:3}{{30c}{38}{Gaussian noise\\mean: 0 variance: 0.09, SSIM: 0.1219\relax }{figure.caption.33}{}}
\newlabel{sub@es3:3}{{c}{38}{Gaussian noise\\mean: 0 variance: 0.09, SSIM: 0.1219\relax }{figure.caption.33}{}}
\newlabel{es3:4}{{30d}{38}{Gaussian Blur\\variance: 20, SSIM: 0.2536\relax }{figure.caption.33}{}}
\newlabel{sub@es3:4}{{d}{38}{Gaussian Blur\\variance: 20, SSIM: 0.2536\relax }{figure.caption.33}{}}
\@writefile{lof}{\contentsline {figure}{\numberline {30}{\ignorespaces Hyersphere with SSIM value closest to 0.1200 obtainable using noise and blur \textbf  {Image source:} Brodatz textures \cite  {brodatz}\relax }}{38}{figure.caption.33}}
\newlabel{es3}{{30}{38}{Hyersphere with SSIM value closest to 0.1200 obtainable using noise and blur\\\textbf {Image source:} Brodatz textures \cite {brodatz}\relax }{figure.caption.33}{}}
\newlabel{es4:1}{{31a}{39}{Rough Wall texture 2 \\MS-SSIM: 0.0856 \relax }{figure.caption.34}{}}
\newlabel{sub@es4:1}{{a}{39}{Rough Wall texture 2 \\MS-SSIM: 0.0856 \relax }{figure.caption.34}{}}
\newlabel{es4:2}{{31b}{39}{Salt-and-pepper Noise \\Noise Density: 0.9, MS-SSIM: 0.0796\relax }{figure.caption.34}{}}
\newlabel{sub@es4:2}{{b}{39}{Salt-and-pepper Noise \\Noise Density: 0.9, MS-SSIM: 0.0796\relax }{figure.caption.34}{}}
\newlabel{es4:3}{{31c}{39}{Gaussian noise\\mean: 0 variance: 10, MS-SSIM: 0.0728\relax }{figure.caption.34}{}}
\newlabel{sub@es4:3}{{c}{39}{Gaussian noise\\mean: 0 variance: 10, MS-SSIM: 0.0728\relax }{figure.caption.34}{}}
\newlabel{es4:4}{{31d}{39}{Gaussian Blur\\variance: 25, MS-SSIM: 0.1728\relax }{figure.caption.34}{}}
\newlabel{sub@es4:4}{{d}{39}{Gaussian Blur\\variance: 25, MS-SSIM: 0.1728\relax }{figure.caption.34}{}}
\@writefile{lof}{\contentsline {figure}{\numberline {31}{\ignorespaces Hyersphere with MS-SSIM value closest to 0.0800 obtainable using noise and blur \textbf  {Image source:} Brodatz textures \cite  {brodatz}\relax }}{39}{figure.caption.34}}
\newlabel{es4}{{31}{39}{Hyersphere with MS-SSIM value closest to 0.0800 obtainable using noise and blur\\\textbf {Image source:} Brodatz textures \cite {brodatz}\relax }{figure.caption.34}{}}
\citation{brodatz}
\citation{brodatz}
\newlabel{es1:1}{{32a}{40}{Rough Wall texture 2\\NL-means Error: 200 \relax }{figure.caption.35}{}}
\newlabel{sub@es1:1}{{a}{40}{Rough Wall texture 2\\NL-means Error: 200 \relax }{figure.caption.35}{}}
\newlabel{es1:2}{{32b}{40}{Salt-and-pepper Noise \\Noise Density: 0.04, NL-means: 193.572\relax }{figure.caption.35}{}}
\newlabel{sub@es1:2}{{b}{40}{Salt-and-pepper Noise \\Noise Density: 0.04, NL-means: 193.572\relax }{figure.caption.35}{}}
\newlabel{es1:3}{{32c}{40}{Gaussian noise\\mean: 0 variance: 0.017, NL-means: 238.17\relax }{figure.caption.35}{}}
\newlabel{sub@es1:3}{{c}{40}{Gaussian noise\\mean: 0 variance: 0.017, NL-means: 238.17\relax }{figure.caption.35}{}}
\newlabel{es1:4}{{32d}{40}{Gaussian Blur\\variance: 7, NL-means: 201\relax }{figure.caption.35}{}}
\newlabel{sub@es1:4}{{d}{40}{Gaussian Blur\\variance: 7, NL-means: 201\relax }{figure.caption.35}{}}
\@writefile{lof}{\contentsline {figure}{\numberline {32}{\ignorespaces Hyersphere with NL-means error value closest to 200 obtainable using noise and blur \textbf  {Image source:} Brodatz textures \cite  {brodatz}\relax }}{40}{figure.caption.35}}
\newlabel{es1}{{32}{40}{Hyersphere with NL-means error value closest to 200 obtainable using noise and blur\\\textbf {Image source:} Brodatz textures \cite {brodatz}\relax }{figure.caption.35}{}}
\citation{brodatz}
\citation{brodatz}
\citation{brodatz}
\citation{brodatz}
\citation{brodatz}
\citation{brodatz}
\citation{brodatz}
\citation{brodatz}
\citation{brodatz}
\citation{brodatz}
\citation{brodatz}
\citation{brodatz}
\citation{brodatz}
\citation{brodatz}
\citation{brodatz}
\citation{brodatz}
\citation{brodatz}
\citation{brodatz}
\citation{brodatz}
\citation{brodatz}
\newlabel{es-3}{{33a}{41}{Raffia texture 1 \relax }{figure.caption.36}{}}
\newlabel{sub@es-3}{{a}{41}{Raffia texture 1 \relax }{figure.caption.36}{}}
\newlabel{es-4}{{33b}{41}{Raffia texture 2\relax }{figure.caption.36}{}}
\newlabel{sub@es-4}{{b}{41}{Raffia texture 2\relax }{figure.caption.36}{}}
\@writefile{lof}{\contentsline {figure}{\numberline {33}{\ignorespaces Same textures taken from different part of the same image.  MSE: 929.9956, SSIM: 0.2313, MS-SSIM: 0.2024, NL-means error: 96.4637   \textbf  {Image source:} Brodatz textures \cite  {brodatz}\relax }}{41}{figure.caption.36}}
\newlabel{es:2}{{33}{41}{Same textures taken from different part of the same image. \\MSE: 929.9956, SSIM: 0.2313, MS-SSIM: 0.2024, NL-means error: 96.4637 \\ \textbf {Image source:} Brodatz textures \cite {brodatz}\relax }{figure.caption.36}{}}
\newlabel{es-5}{{34a}{41}{Plastic bubble texture 1 \relax }{figure.caption.37}{}}
\newlabel{sub@es-5}{{a}{41}{Plastic bubble texture 1 \relax }{figure.caption.37}{}}
\newlabel{es-6}{{34b}{41}{Plastic bubble texture 2\relax }{figure.caption.37}{}}
\newlabel{sub@es-6}{{b}{41}{Plastic bubble texture 2\relax }{figure.caption.37}{}}
\@writefile{lof}{\contentsline {figure}{\numberline {34}{\ignorespaces Same textures taken from different part of the same image.  MSE: 2660.9, SSIM: 0.1437, MS-SSIM: 0.1254, NL-means error: 470.8358   \textbf  {Image source:} Brodatz textures \cite  {brodatz}\relax }}{41}{figure.caption.37}}
\newlabel{es:3}{{34}{41}{Same textures taken from different part of the same image. \\MSE: 2660.9, SSIM: 0.1437, MS-SSIM: 0.1254, NL-means error: 470.8358 \\ \textbf {Image source:} Brodatz textures \cite {brodatz}\relax }{figure.caption.37}{}}
\newlabel{es5:1}{{35a}{42}{Raffia texture 2 \\ MSE: 929.9956 \relax }{figure.caption.38}{}}
\newlabel{sub@es5:1}{{a}{42}{Raffia texture 2 \\ MSE: 929.9956 \relax }{figure.caption.38}{}}
\newlabel{es5:2}{{35b}{42}{Salt-and-pepper Noise \\Noise Density: 0.04, MSE: 963.46\relax }{figure.caption.38}{}}
\newlabel{sub@es5:2}{{b}{42}{Salt-and-pepper Noise \\Noise Density: 0.04, MSE: 963.46\relax }{figure.caption.38}{}}
\newlabel{es5:3}{{35c}{42}{Gaussian noise\\mean: 0 variance: 0.018, MSE: 964.0905\relax }{figure.caption.38}{}}
\newlabel{sub@es5:3}{{c}{42}{Gaussian noise\\mean: 0 variance: 0.018, MSE: 964.0905\relax }{figure.caption.38}{}}
\newlabel{es5:4}{{35d}{42}{Gaussian Blur\\variance: 50, MSE: 401.5931\relax }{figure.caption.38}{}}
\newlabel{sub@es5:4}{{d}{42}{Gaussian Blur\\variance: 50, MSE: 401.5931\relax }{figure.caption.38}{}}
\@writefile{lof}{\contentsline {figure}{\numberline {35}{\ignorespaces Hyersphere with MSE values closest to 930 obtainable using noise and blur \textbf  {Image source:} Brodatz textures \cite  {brodatz}\relax }}{42}{figure.caption.38}}
\newlabel{es5}{{35}{42}{Hyersphere with MSE values closest to 930 obtainable using noise and blur\\\textbf {Image source:} Brodatz textures \cite {brodatz}\relax }{figure.caption.38}{}}
\newlabel{es6:1}{{36a}{43}{Raffia texture 2\\SSIM: 0.2313 \relax }{figure.caption.39}{}}
\newlabel{sub@es6:1}{{a}{43}{Raffia texture 2\\SSIM: 0.2313 \relax }{figure.caption.39}{}}
\newlabel{es6:2}{{36b}{43}{Salt-and-pepper Noise \\Noise Density: 0.08, SSIM: 0.2280\relax }{figure.caption.39}{}}
\newlabel{sub@es6:2}{{b}{43}{Salt-and-pepper Noise \\Noise Density: 0.08, SSIM: 0.2280\relax }{figure.caption.39}{}}
\newlabel{es6:3}{{36c}{43}{Gaussian noise\\mean: 0 variance: 0.015, SSIM: 0.2317\relax }{figure.caption.39}{}}
\newlabel{sub@es6:3}{{c}{43}{Gaussian noise\\mean: 0 variance: 0.015, SSIM: 0.2317\relax }{figure.caption.39}{}}
\newlabel{es6:4}{{36d}{43}{Gaussian Blur\\variance: 60, SSIM: 0.4336\relax }{figure.caption.39}{}}
\newlabel{sub@es6:4}{{d}{43}{Gaussian Blur\\variance: 60, SSIM: 0.4336\relax }{figure.caption.39}{}}
\@writefile{lof}{\contentsline {figure}{\numberline {36}{\ignorespaces Hyersphere with SSIM value closest to 0.2300 obtainable using noise and blur \textbf  {Image source:} Brodatz textures \cite  {brodatz}\relax }}{43}{figure.caption.39}}
\newlabel{es6}{{36}{43}{Hyersphere with SSIM value closest to 0.2300 obtainable using noise and blur\\\textbf {Image source:} Brodatz textures \cite {brodatz}\relax }{figure.caption.39}{}}
\newlabel{es7:1}{{37a}{44}{Raffia texture 2 \\MS-SSIM: 0.2024 \relax }{figure.caption.40}{}}
\newlabel{sub@es7:1}{{a}{44}{Raffia texture 2 \\MS-SSIM: 0.2024 \relax }{figure.caption.40}{}}
\newlabel{es7:2}{{37b}{44}{Salt-and-pepper Noise \\Noise Density: 0.9, MS-SSIM: 0.2074\relax }{figure.caption.40}{}}
\newlabel{sub@es7:2}{{b}{44}{Salt-and-pepper Noise \\Noise Density: 0.9, MS-SSIM: 0.2074\relax }{figure.caption.40}{}}
\newlabel{es7:3}{{37c}{44}{Gaussian noise\\mean: 0 variance: 5, MS-SSIM: 0.2564\relax }{figure.caption.40}{}}
\newlabel{sub@es7:3}{{c}{44}{Gaussian noise\\mean: 0 variance: 5, MS-SSIM: 0.2564\relax }{figure.caption.40}{}}
\newlabel{es7:4}{{37d}{44}{Gaussian Blur\\variance: 60, MS-SSIM: 0.2689\relax }{figure.caption.40}{}}
\newlabel{sub@es7:4}{{d}{44}{Gaussian Blur\\variance: 60, MS-SSIM: 0.2689\relax }{figure.caption.40}{}}
\@writefile{lof}{\contentsline {figure}{\numberline {37}{\ignorespaces Hyersphere with MS-SSIM value closest to 0.2020 obtainable using noise and blur \textbf  {Image source:} Brodatz textures \cite  {brodatz}\relax }}{44}{figure.caption.40}}
\newlabel{es7}{{37}{44}{Hyersphere with MS-SSIM value closest to 0.2020 obtainable using noise and blur\\\textbf {Image source:} Brodatz textures \cite {brodatz}\relax }{figure.caption.40}{}}
\newlabel{es8:1}{{38a}{45}{Raffia texture 2\\NL-means Error: 96.4637 \relax }{figure.caption.41}{}}
\newlabel{sub@es8:1}{{a}{45}{Raffia texture 2\\NL-means Error: 96.4637 \relax }{figure.caption.41}{}}
\newlabel{es8:2}{{38b}{45}{Salt-and-pepper Noise \\Noise Density: 0.035, NL-means: 109.09\relax }{figure.caption.41}{}}
\newlabel{sub@es8:2}{{b}{45}{Salt-and-pepper Noise \\Noise Density: 0.035, NL-means: 109.09\relax }{figure.caption.41}{}}
\newlabel{es8:3}{{38c}{45}{Gaussian noise\\mean: 0 variance: 0.019, NL-means: 104.3973\relax }{figure.caption.41}{}}
\newlabel{sub@es8:3}{{c}{45}{Gaussian noise\\mean: 0 variance: 0.019, NL-means: 104.3973\relax }{figure.caption.41}{}}
\newlabel{es8:4}{{38d}{45}{Gaussian Blur\\variance: 15, NL-means: 90.4567\relax }{figure.caption.41}{}}
\newlabel{sub@es8:4}{{d}{45}{Gaussian Blur\\variance: 15, NL-means: 90.4567\relax }{figure.caption.41}{}}
\@writefile{lof}{\contentsline {figure}{\numberline {38}{\ignorespaces Hyersphere with NL-means error value closest to 96 obtainable using noise and blur \textbf  {Image source:} Brodatz textures \cite  {brodatz}\relax }}{45}{figure.caption.41}}
\newlabel{es8}{{38}{45}{Hyersphere with NL-means error value closest to 96 obtainable using noise and blur\\\textbf {Image source:} Brodatz textures \cite {brodatz}\relax }{figure.caption.41}{}}
\newlabel{es9:1}{{39a}{46}{Plastic bubble texture 2 \\ MSE: 2660.9 \relax }{figure.caption.42}{}}
\newlabel{sub@es9:1}{{a}{46}{Plastic bubble texture 2 \\ MSE: 2660.9 \relax }{figure.caption.42}{}}
\newlabel{es9:2}{{39b}{46}{Salt-and-pepper Noise \\Noise Density: 0.14, MSE: 2615.9\relax }{figure.caption.42}{}}
\newlabel{sub@es9:2}{{b}{46}{Salt-and-pepper Noise \\Noise Density: 0.14, MSE: 2615.9\relax }{figure.caption.42}{}}
\newlabel{es9:3}{{39c}{46}{Gaussian noise\\mean: 0 variance: 0.046, MSE: 2585.9\relax }{figure.caption.42}{}}
\newlabel{sub@es9:3}{{c}{46}{Gaussian noise\\mean: 0 variance: 0.046, MSE: 2585.9\relax }{figure.caption.42}{}}
\newlabel{es9:4}{{39d}{46}{Gaussian Blur\\variance: 100, MSE: 1579.8\relax }{figure.caption.42}{}}
\newlabel{sub@es9:4}{{d}{46}{Gaussian Blur\\variance: 100, MSE: 1579.8\relax }{figure.caption.42}{}}
\@writefile{lof}{\contentsline {figure}{\numberline {39}{\ignorespaces Hyersphere with MSE values closest to 2660 obtainable using noise and blur \textbf  {Image source:} Brodatz textures \cite  {brodatz}\relax }}{46}{figure.caption.42}}
\newlabel{es9}{{39}{46}{Hyersphere with MSE values closest to 2660 obtainable using noise and blur\\\textbf {Image source:} Brodatz textures \cite {brodatz}\relax }{figure.caption.42}{}}
\newlabel{es10:1}{{40a}{47}{Plastic bubble texture 2\\SSIM: 0.1437 \relax }{figure.caption.43}{}}
\newlabel{sub@es10:1}{{a}{47}{Plastic bubble texture 2\\SSIM: 0.1437 \relax }{figure.caption.43}{}}
\newlabel{es10:2}{{40b}{47}{Salt-and-pepper Noise \\Noise Density: 0.17, SSIM: 0.1477\relax }{figure.caption.43}{}}
\newlabel{sub@es10:2}{{b}{47}{Salt-and-pepper Noise \\Noise Density: 0.17, SSIM: 0.1477\relax }{figure.caption.43}{}}
\newlabel{es10:3}{{40c}{47}{Gaussian noise\\mean: 0 variance: 0.05, SSIM: 0.1434\relax }{figure.caption.43}{}}
\newlabel{sub@es10:3}{{c}{47}{Gaussian noise\\mean: 0 variance: 0.05, SSIM: 0.1434\relax }{figure.caption.43}{}}
\newlabel{es10:4}{{40d}{47}{Gaussian Blur\\variance: 100, SSIM: 0.2896\relax }{figure.caption.43}{}}
\newlabel{sub@es10:4}{{d}{47}{Gaussian Blur\\variance: 100, SSIM: 0.2896\relax }{figure.caption.43}{}}
\@writefile{lof}{\contentsline {figure}{\numberline {40}{\ignorespaces Hyersphere with SSIM value closest to 0.1430 obtainable using noise and blur \textbf  {Image source:} Brodatz textures \cite  {brodatz}\relax }}{47}{figure.caption.43}}
\newlabel{es10}{{40}{47}{Hyersphere with SSIM value closest to 0.1430 obtainable using noise and blur\\\textbf {Image source:} Brodatz textures \cite {brodatz}\relax }{figure.caption.43}{}}
\newlabel{es11:1}{{41a}{48}{Plastic bubble texture 2 \\MS-SSIM: 0.1254 \relax }{figure.caption.44}{}}
\newlabel{sub@es11:1}{{a}{48}{Plastic bubble texture 2 \\MS-SSIM: 0.1254 \relax }{figure.caption.44}{}}
\newlabel{es11:2}{{41b}{48}{Salt-and-pepper Noise \\Noise Density: 0.93, MS-SSIM: 0.1273\relax }{figure.caption.44}{}}
\newlabel{sub@es11:2}{{b}{48}{Salt-and-pepper Noise \\Noise Density: 0.93, MS-SSIM: 0.1273\relax }{figure.caption.44}{}}
\newlabel{es11:3}{{41c}{48}{Gaussian noise\\mean: 0 variance: 30, MS-SSIM: 0.1453\relax }{figure.caption.44}{}}
\newlabel{sub@es11:3}{{c}{48}{Gaussian noise\\mean: 0 variance: 30, MS-SSIM: 0.1453\relax }{figure.caption.44}{}}
\newlabel{es11:4}{{41d}{48}{Gaussian Blur\\variance: 45, MS-SSIM: 0.1287\relax }{figure.caption.44}{}}
\newlabel{sub@es11:4}{{d}{48}{Gaussian Blur\\variance: 45, MS-SSIM: 0.1287\relax }{figure.caption.44}{}}
\@writefile{lof}{\contentsline {figure}{\numberline {41}{\ignorespaces Hyersphere with MS-SSIM value closest to 0.1250 obtainable using noise and blur \textbf  {Image source:} Brodatz textures \cite  {brodatz}\relax }}{48}{figure.caption.44}}
\newlabel{es11}{{41}{48}{Hyersphere with MS-SSIM value closest to 0.1250 obtainable using noise and blur\\\textbf {Image source:} Brodatz textures \cite {brodatz}\relax }{figure.caption.44}{}}
\newlabel{es12:1}{{42a}{49}{Plastic bubble texture 2\\NL-means Error: 470.8358 \relax }{figure.caption.45}{}}
\newlabel{sub@es12:1}{{a}{49}{Plastic bubble texture 2\\NL-means Error: 470.8358 \relax }{figure.caption.45}{}}
\newlabel{es12:2}{{42b}{49}{Salt-and-pepper Noise \\Noise Density: 0.0735, NL-means: 466.9960\relax }{figure.caption.45}{}}
\newlabel{sub@es12:2}{{b}{49}{Salt-and-pepper Noise \\Noise Density: 0.0735, NL-means: 466.9960\relax }{figure.caption.45}{}}
\newlabel{es12:3}{{42c}{49}{Gaussian noise\\mean: 0 variance: 0.021, NL-means: 451.2814\relax }{figure.caption.45}{}}
\newlabel{sub@es12:3}{{c}{49}{Gaussian noise\\mean: 0 variance: 0.021, NL-means: 451.2814\relax }{figure.caption.45}{}}
\newlabel{es12:4}{{42d}{49}{Gaussian Blur\\variance: 25, NL-means: 450.5\relax }{figure.caption.45}{}}
\newlabel{sub@es12:4}{{d}{49}{Gaussian Blur\\variance: 25, NL-means: 450.5\relax }{figure.caption.45}{}}
\@writefile{lof}{\contentsline {figure}{\numberline {42}{\ignorespaces Hyersphere with NL-means error value closest to 470 obtainable using noise and blur \textbf  {Image source:} Brodatz textures \cite  {brodatz}\relax }}{49}{figure.caption.45}}
\newlabel{es12}{{42}{49}{Hyersphere with NL-means error value closest to 470 obtainable using noise and blur\\\textbf {Image source:} Brodatz textures \cite {brodatz}\relax }{figure.caption.45}{}}
\citation{live}
\newlabel{check5:1}{{43a}{50}{Checkerboard image\relax }{figure.caption.46}{}}
\newlabel{sub@check5:1}{{a}{50}{Checkerboard image\relax }{figure.caption.46}{}}
\newlabel{check5:2}{{43b}{50}{Shifted checkerboard\relax }{figure.caption.46}{}}
\newlabel{sub@check5:2}{{b}{50}{Shifted checkerboard\relax }{figure.caption.46}{}}
\@writefile{lof}{\contentsline {figure}{\numberline {43}{\ignorespaces MSE = 65025, SSIM = -0.4563, MS-SSIM = 0.9222, NL-means error = 0\relax }}{50}{figure.caption.46}}
\newlabel{check5}{{43}{50}{MSE = 65025, SSIM = -0.4563, MS-SSIM = 0.9222, NL-means error = 0\relax }{figure.caption.46}{}}
\citation{live}
\citation{live}
\newlabel{jpeg1}{{44a}{51}{Building image.\\\tab \\\tab \\\tab \\\tab \relax }{figure.caption.47}{}}
\newlabel{sub@jpeg1}{{a}{51}{Building image.\\\tab \\\tab \\\tab \\\tab \relax }{figure.caption.47}{}}
\newlabel{jpeg2}{{44b}{51}{Bit rate: 0.64297\\MSE: 72.1326\\SSIM: 0.9276\\MS-SSIM: 0.98617\\NL-means error: 29.747298\relax }{figure.caption.47}{}}
\newlabel{sub@jpeg2}{{b}{51}{Bit rate: 0.64297\\MSE: 72.1326\\SSIM: 0.9276\\MS-SSIM: 0.98617\\NL-means error: 29.747298\relax }{figure.caption.47}{}}
\newlabel{jpeg3}{{44c}{51}{Bit rate: 0.39385\\MSE: 178.8167\\SSIM: 0.8360\\MS-SSIM: 0.96285\\NL-means error: 77.211059\relax }{figure.caption.47}{}}
\newlabel{sub@jpeg3}{{c}{51}{Bit rate: 0.39385\\MSE: 178.8167\\SSIM: 0.8360\\MS-SSIM: 0.96285\\NL-means error: 77.211059\relax }{figure.caption.47}{}}
\newlabel{jpeg4}{{44d}{51}{Bit rate: 0.26018\\MSE: 386.6692\\SSIM: 0.6750\\MS-SSIM: 0.90908\\NL-means error: 176.0024\relax }{figure.caption.47}{}}
\newlabel{sub@jpeg4}{{d}{51}{Bit rate: 0.26018\\MSE: 386.6692\\SSIM: 0.6750\\MS-SSIM: 0.90908\\NL-means error: 176.0024\relax }{figure.caption.47}{}}
\@writefile{lof}{\contentsline {figure}{\numberline {44}{\ignorespaces JPEG artifacts with varying bit rate \textbf  {Image source:} LIVE Image Quality Assessment Database \cite  {live}\relax }}{51}{figure.caption.47}}
\newlabel{jpeg}{{44}{51}{JPEG artifacts with varying bit rate\\\textbf {Image source:} LIVE Image Quality Assessment Database \cite {live}\relax }{figure.caption.47}{}}
\citation{live}
\citation{live}
\newlabel{gb1}{{45a}{52}{Carnival dolls image.\\\tab \\\tab \\\tab \\\tab \relax }{figure.caption.48}{}}
\newlabel{sub@gb1}{{a}{52}{Carnival dolls image.\\\tab \\\tab \\\tab \\\tab \relax }{figure.caption.48}{}}
\newlabel{gb2}{{45b}{52}{$\sigma $: 1.278615\\MSE: 58.5697\\SSIM: 0.9387\\MS-SSIM: 0.99198\\NL-means error: 40.087558\relax }{figure.caption.48}{}}
\newlabel{sub@gb2}{{b}{52}{$\sigma $: 1.278615\\MSE: 58.5697\\SSIM: 0.9387\\MS-SSIM: 0.99198\\NL-means error: 40.087558\relax }{figure.caption.48}{}}
\newlabel{gb3}{{45c}{52}{$\sigma $: 1.765595\\MSE: 113.491\\SSIM: 0.8800\\MS-SSIM: 0.97976\\NL-means error: 79.146057\relax }{figure.caption.48}{}}
\newlabel{sub@gb3}{{c}{52}{$\sigma $: 1.765595\\MSE: 113.491\\SSIM: 0.8800\\MS-SSIM: 0.97976\\NL-means error: 79.146057\relax }{figure.caption.48}{}}
\newlabel{gb4}{{45d}{52}{$\sigma $: 2.854139\\MSE: 230.5641\\SSIM: 0.7643\\MS-SSIM: 0.94044\\NL-means error: 167.134556\relax }{figure.caption.48}{}}
\newlabel{sub@gb4}{{d}{52}{$\sigma $: 2.854139\\MSE: 230.5641\\SSIM: 0.7643\\MS-SSIM: 0.94044\\NL-means error: 167.134556\relax }{figure.caption.48}{}}
\@writefile{lof}{\contentsline {figure}{\numberline {45}{\ignorespaces Gussian blur with varying std deviation $\sigma $ \textbf  {Image source:} LIVE Image Quality Assessment Database \cite  {live}\relax }}{52}{figure.caption.48}}
\newlabel{gb}{{45}{52}{Gussian blur with varying std deviation $\sigma $\\\textbf {Image source:} LIVE Image Quality Assessment Database \cite {live}\relax }{figure.caption.48}{}}
\citation{live}
\citation{live}
\newlabel{wn1}{{46a}{53}{Ocean image.\\\tab \\\tab \\\tab \\\tab \relax }{figure.caption.49}{}}
\newlabel{sub@wn1}{{a}{53}{Ocean image.\\\tab \\\tab \\\tab \\\tab \relax }{figure.caption.49}{}}
\newlabel{wn2}{{46b}{53}{$\sigma $: 0.109375\\MSE: 33.6856\\SSIM: 0.7561\\MS-SSIM: 0.94869\\NL-means error:0.468187\relax }{figure.caption.49}{}}
\newlabel{sub@wn2}{{b}{53}{$\sigma $: 0.109375\\MSE: 33.6856\\SSIM: 0.7561\\MS-SSIM: 0.94869\\NL-means error:0.468187\relax }{figure.caption.49}{}}
\newlabel{wn3}{{46c}{53}{$\sigma $: 0.179688\\MSE: 88.4276\\SSIM: 0.5720\\MS-SSIM: 0.88812\\NL-means error: 3.992450\relax }{figure.caption.49}{}}
\newlabel{sub@wn3}{{c}{53}{$\sigma $: 0.179688\\MSE: 88.4276\\SSIM: 0.5720\\MS-SSIM: 0.88812\\NL-means error: 3.992450\relax }{figure.caption.49}{}}
\newlabel{wn4}{{46d}{53}{$\sigma $: 1.996094\\MSE: 1638.420\\SSIM: 0.0922\\MS-SSIM: 0.36064\\NL-means error: 1121.6723\relax }{figure.caption.49}{}}
\newlabel{sub@wn4}{{d}{53}{$\sigma $: 1.996094\\MSE: 1638.420\\SSIM: 0.0922\\MS-SSIM: 0.36064\\NL-means error: 1121.6723\relax }{figure.caption.49}{}}
\@writefile{lof}{\contentsline {figure}{\numberline {46}{\ignorespaces White Noise with varying std deviation $\sigma $  \textbf  {Image source:} LIVE Image Quality Assessment Database \cite  {live}\relax }}{53}{figure.caption.49}}
\newlabel{wn}{{46}{53}{White Noise with varying std deviation $\sigma $ \\\textbf {Image source:} LIVE Image Quality Assessment Database \cite {live}\relax }{figure.caption.49}{}}
\citation{curet}
\citation{brodatz}
\citation{brodatz}
\citation{brodatz}
\citation{brodatz}
\@writefile{toc}{\contentsline {subsection}{\numberline {7.2}Texture classification database}{54}{subsection.7.2}}
\newlabel{res2}{{7.2}{54}{Texture classification database}{subsection.7.2}{}}
\@writefile{lof}{\contentsline {figure}{\numberline {47}{\ignorespaces Reference texture for comparison  \textbf  {Image source:} Brodatz textures \cite  {brodatz}\relax }}{54}{figure.caption.50}}
\newlabel{referencetex}{{47}{54}{Reference texture for comparison\\ \textbf {Image source:} Brodatz textures \cite {brodatz}\relax }{figure.caption.50}{}}
\newlabel{tex1}{{48a}{55}{NL-means error = 215.5398\relax }{figure.caption.51}{}}
\newlabel{sub@tex1}{{a}{55}{NL-means error = 215.5398\relax }{figure.caption.51}{}}
\newlabel{tex2}{{48b}{55}{NL-means error = 676.0787\relax }{figure.caption.51}{}}
\newlabel{sub@tex2}{{b}{55}{NL-means error = 676.0787\relax }{figure.caption.51}{}}
\newlabel{tex3}{{48c}{55}{NL-means error = 202.9718\relax }{figure.caption.51}{}}
\newlabel{sub@tex3}{{c}{55}{NL-means error = 202.9718\relax }{figure.caption.51}{}}
\newlabel{tex4}{{48d}{55}{NL-means error = 341.712\relax }{figure.caption.51}{}}
\newlabel{sub@tex4}{{d}{55}{NL-means error = 341.712\relax }{figure.caption.51}{}}
\@writefile{lof}{\contentsline {figure}{\numberline {48}{\ignorespaces Input textures to compare with reference texture  \textbf  {Image source:} Brodatz textures \cite  {brodatz}\relax }}{55}{figure.caption.51}}
\newlabel{tex}{{48}{55}{Input textures to compare with reference texture\\ \textbf {Image source:} Brodatz textures \cite {brodatz}\relax }{figure.caption.51}{}}
\citation{brodatz}
\citation{brodatz}
\citation{brodatz}
\citation{brodatz}
\newlabel{sim1:1}{{49a}{56}{Texture 1\\ reference image\relax }{figure.caption.52}{}}
\newlabel{sub@sim1:1}{{a}{56}{Texture 1\\ reference image\relax }{figure.caption.52}{}}
\newlabel{sim1:2}{{49b}{56}{Texture 2: input \\NL-means error: 713.3675\relax }{figure.caption.52}{}}
\newlabel{sub@sim1:2}{{b}{56}{Texture 2: input \\NL-means error: 713.3675\relax }{figure.caption.52}{}}
\newlabel{sim1:3}{{49c}{56}{Texture 3: input \\NL-means error: 1059.5850\relax }{figure.caption.52}{}}
\newlabel{sub@sim1:3}{{c}{56}{Texture 3: input \\NL-means error: 1059.5850\relax }{figure.caption.52}{}}
\@writefile{lof}{\contentsline {figure}{\numberline {49}{\ignorespaces Different textures to compare  \textbf  {Image source:} Brodatz textures \cite  {brodatz}\relax }}{56}{figure.caption.52}}
\newlabel{sim1}{{49}{56}{Different textures to compare\\ \textbf {Image source:} Brodatz textures \cite {brodatz}\relax }{figure.caption.52}{}}
\newlabel{sim2:1}{{50a}{57}{Cross-similarity of texture 2 with texture 1 as reference\relax }{figure.caption.53}{}}
\newlabel{sub@sim2:1}{{a}{57}{Cross-similarity of texture 2 with texture 1 as reference\relax }{figure.caption.53}{}}
\newlabel{sim2:2}{{50b}{57}{Cross-similarity of texture 1 with texture 2 as reference\relax }{figure.caption.53}{}}
\newlabel{sub@sim2:2}{{b}{57}{Cross-similarity of texture 1 with texture 2 as reference\relax }{figure.caption.53}{}}
\newlabel{sim2:3}{{50c}{57}{Cross-similarity of texture 3 with texture 1 as reference\relax }{figure.caption.53}{}}
\newlabel{sub@sim2:3}{{c}{57}{Cross-similarity of texture 3 with texture 1 as reference\relax }{figure.caption.53}{}}
\newlabel{sim2:4}{{50d}{57}{Cross-similarity of texture 1 with texture 3 as reference\relax }{figure.caption.53}{}}
\newlabel{sub@sim2:4}{{d}{57}{Cross-similarity of texture 1 with texture 3 as reference\relax }{figure.caption.53}{}}
\@writefile{lof}{\contentsline {figure}{\numberline {50}{\ignorespaces Understanding cross-similarity strucutres  \textbf  {Image source:} Brodatz textures \cite  {brodatz}\relax }}{57}{figure.caption.53}}
\newlabel{sim2}{{50}{57}{Understanding cross-similarity strucutres\\ \textbf {Image source:} Brodatz textures \cite {brodatz}\relax }{figure.caption.53}{}}
\citation{curet}
\citation{curet}
\@writefile{lot}{\contentsline {table}{\numberline {1}{\ignorespaces Similarity of texture 2 and texture 3 with regards to texture 1 based on human perception\relax }}{58}{table.caption.54}}
\newlabel{userstudy}{{1}{58}{Similarity of texture 2 and texture 3 with regards to texture 1 based on human perception\relax }{table.caption.54}{}}
\newlabel{texture1}{{51a}{59}{Aluminium1: a1\relax }{figure.caption.55}{}}
\newlabel{sub@texture1}{{a}{59}{Aluminium1: a1\relax }{figure.caption.55}{}}
\newlabel{texture2}{{51b}{59}{Aluminium2: a2\relax }{figure.caption.55}{}}
\newlabel{sub@texture2}{{b}{59}{Aluminium2: a2\relax }{figure.caption.55}{}}
\newlabel{texture3}{{51c}{59}{Aluminium3: a3\relax }{figure.caption.55}{}}
\newlabel{sub@texture3}{{c}{59}{Aluminium3: a3\relax }{figure.caption.55}{}}
\newlabel{texture4}{{51d}{59}{Artificial grass1: g1\relax }{figure.caption.55}{}}
\newlabel{sub@texture4}{{d}{59}{Artificial grass1: g1\relax }{figure.caption.55}{}}
\newlabel{texture5}{{51e}{59}{Artificial grass2: g2\relax }{figure.caption.55}{}}
\newlabel{sub@texture5}{{e}{59}{Artificial grass2: g2\relax }{figure.caption.55}{}}
\newlabel{texture6}{{51f}{59}{Artificial grass3: g3\relax }{figure.caption.55}{}}
\newlabel{sub@texture6}{{f}{59}{Artificial grass3: g3\relax }{figure.caption.55}{}}
\newlabel{texture7}{{51g}{59}{Pebble1: p1\relax }{figure.caption.55}{}}
\newlabel{sub@texture7}{{g}{59}{Pebble1: p1\relax }{figure.caption.55}{}}
\newlabel{texture8}{{51h}{59}{Pebble2: p2\relax }{figure.caption.55}{}}
\newlabel{sub@texture8}{{h}{59}{Pebble2: p2\relax }{figure.caption.55}{}}
\newlabel{texture9}{{51i}{59}{Pebble3: p3\relax }{figure.caption.55}{}}
\newlabel{sub@texture9}{{i}{59}{Pebble3: p3\relax }{figure.caption.55}{}}
\newlabel{texture10}{{51j}{59}{Roofshingle1: r1\relax }{figure.caption.55}{}}
\newlabel{sub@texture10}{{j}{59}{Roofshingle1: r1\relax }{figure.caption.55}{}}
\newlabel{texture11}{{51k}{59}{Roofshingle2: r2\relax }{figure.caption.55}{}}
\newlabel{sub@texture11}{{k}{59}{Roofshingle2: r2\relax }{figure.caption.55}{}}
\newlabel{texture12}{{51l}{59}{Roofshingle3: r3\relax }{figure.caption.55}{}}
\newlabel{sub@texture12}{{l}{59}{Roofshingle3: r3\relax }{figure.caption.55}{}}
\@writefile{lof}{\contentsline {figure}{\numberline {51}{\ignorespaces Texture database  \textbf  {Image source:} Columbia-Utrecht Reflectance and Texture Database(CUReT) \cite  {curet}\relax }}{59}{figure.caption.55}}
\newlabel{texture}{{51}{59}{Texture database\\ \textbf {Image source:} Columbia-Utrecht Reflectance and Texture Database(CUReT) \cite {curet}\relax }{figure.caption.55}{}}
\citation{lbpcode}
\newlabel{RF1}{61}
\@writefile{lot}{\contentsline {table}{\numberline {2}{\ignorespaces LBP: Texture classification\relax }}{61}{table.caption.56}}
\newlabel{LBPtable}{{2}{61}{LBP: Texture classification\relax }{table.caption.56}{}}
\newlabel{RF2}{62}
\@writefile{lot}{\contentsline {table}{\numberline {3}{\ignorespaces NL-means error measure: Texture classification\relax }}{62}{table.caption.57}}
\newlabel{nlmeanstable}{{3}{62}{NL-means error measure: Texture classification\relax }{table.caption.57}{}}
\newlabel{RF3}{63}
\@writefile{lot}{\contentsline {table}{\numberline {4}{\ignorespaces Rank transform pre-processing for NL-means: Texture classification\relax }}{63}{table.caption.58}}
\newlabel{rankclasstable}{{4}{63}{Rank transform pre-processing for NL-means: Texture classification\relax }{table.caption.58}{}}
\newlabel{RF4}{64}
\@writefile{lot}{\contentsline {table}{\numberline {5}{\ignorespaces Census transform pre-processing for NL-means: Texture classification\relax }}{64}{table.caption.59}}
\newlabel{censusclasstable}{{5}{64}{Census transform pre-processing for NL-means: Texture classification\relax }{table.caption.59}{}}
\newlabel{RF5}{65}
\@writefile{lot}{\contentsline {table}{\numberline {6}{\ignorespaces Complete rank transform pre-processing for NL-means: Texture classification\relax }}{65}{table.caption.60}}
\newlabel{completerankclasstable}{{6}{65}{Complete rank transform pre-processing for NL-means: Texture classification\relax }{table.caption.60}{}}
\citation{illuminationinvariance}
\citation{rotationinvariance}
\citation{rank}
\citation{census}
\citation{completerank}
\@writefile{toc}{\contentsline {section}{\numberline {8}Conclusion and outlook}{66}{section.8}}
\@writefile{toc}{\contentsline {subsection}{\numberline {8.1}General conclusion}{66}{subsection.8.1}}
\citation{nlmeansspeed1}
\@writefile{toc}{\contentsline {subsection}{\numberline {8.2}Future work}{67}{subsection.8.2}}
\newlabel{future}{{8.2}{67}{Future work}{subsection.8.2}{}}
\bibcite{nlmeans}{1}
\bibcite{mse}{2}
\bibcite{mseissues}{3}
\bibcite{psnr}{4}
\bibcite{ssim}{5}
\bibcite{ssimextra1}{6}
\bibcite{msssim}{7}
\bibcite{ssimwiki}{8}
\bibcite{ssimcode}{9}
\bibcite{msssimcode}{10}
\bibcite{msssimproof}{11}
\bibcite{lossy}{12}
\bibcite{texture}{13}
\bibcite{rgb2gray}{14}
\@writefile{toc}{\contentsline {section}{References}{68}{section*.61}}
\bibcite{statistics1}{15}
\bibcite{statistics2}{16}
\bibcite{lbp}{17}
\bibcite{lbpcode}{18}
\bibcite{lbpprocedure}{19}
\bibcite{lbpdis}{20}
\bibcite{illuminationinvariance}{21}
\bibcite{rotationinvariance}{22}
\bibcite{rank}{23}
\bibcite{rankproof}{24}
\bibcite{census}{25}
\bibcite{census1}{26}
\bibcite{census2}{27}
\bibcite{completerank}{28}
\bibcite{curet}{29}
\bibcite{noise}{30}
\bibcite{brodatz}{31}
\bibcite{live}{32}
\bibcite{nlmeansspeed1}{33}
\bibcite{normaldistimage}{34}
\bibcite{hyphersphere}{35}
