s
-------------------------------------------------------------------------------------------------------------------------------------------------------


NL-MEANS AND GAUSSIAN CONVOLUTION

**************************************************

    Copyright 2014 by Joachim Weickert,           
    Sven Grewenig and Pascal Peter                
    Dept. of Mathematics and Computer Science     
    Saarland University, Saarbruecken, Germany    

    All rights reserved. Unauthorized usage,      
    copying, hiring, and selling prohibited.      

    Send bug reports to                           
    weickert@mia.uni-saarland.de                  

**************************************************

first input image (pgm):                      texture4sq.pgm
second input image to compare (pgm):                      texture4rotatesq.pgm

available algorithms:                 
  (0) denoising with NL-means         
  (1) denoising with Gauss-convolution
your choice:                            0

patch size m (integer):                 4
search window size n (integer):         10
std. dev. sigma (float):                130
output image1 (pgm):                     tex44sq.pgm

output image2 (pgm):                     tex44rotatesq.pgm

Applying NL-means filter with patch size 4, 
window size 10 and std. dev. 130.0000

error value is 113.786591
self similarity of reference texture is 340.721222
similarity of original image with new texture is 564.153748

filtered image:
minimum:          63.47 
maximum:         210.63 
mean:            174.99 
standard dev.:    13.70 


NL-MEANS AND GAUSSIAN CONVOLUTION

**************************************************

    Copyright 2014 by Joachim Weickert,           
    Sven Grewenig and Pascal Peter                
    Dept. of Mathematics and Computer Science     
    Saarland University, Saarbruecken, Germany    

    All rights reserved. Unauthorized usage,      
    copying, hiring, and selling prohibited.      

    Send bug reports to                           
    weickert@mia.uni-saarland.de                  

**************************************************

first input image (pgm):                      texture4sq.pgm
second input image to compare (pgm):                      texture5sq.pgm

available algorithms:                 
  (0) denoising with NL-means         
  (1) denoising with Gauss-convolution
your choice:                            0

patch size m (integer):                 4
search window size n (integer):         10
std. dev. sigma (float):                130
output image1 (pgm):                     tex44sq.pgm

output image2 (pgm):                     tex45sq.pgm

Applying NL-means filter with patch size 4, 
window size 10 and std. dev. 130.0000

error value is 470.899597
self similarity of reference texture is 343.301910
similarity of original image with new texture is 1006.588989

filtered image:
minimum:          63.47 
maximum:         210.63 
mean:            174.99 
standard dev.:    13.70 

output image-1 tex44sq.pgm successfully written

output image-2 tex45sq.pgm successfully written

method noise tex44sq_method_noise.pgm successfully written

NL-MEANS AND GAUSSIAN CONVOLUTION

**************************************************

    Copyright 2014 by Joachim Weickert,           
    Sven Grewenig and Pascal Peter                
    Dept. of Mathematics and Computer Science     
    Saarland University, Saarbruecken, Germany    

    All rights reserved. Unauthorized usage,      
    copying, hiring, and selling prohibited.      

    Send bug reports to                           
    weickert@mia.uni-saarland.de                  

**************************************************

first input image (pgm):                      texture4sq.pgm
second input image to compare (pgm):                      texture3sq.pgm

available algorithms:                 
  (0) denoising with NL-means         
  (1) denoising with Gauss-convolution
your choice:                            0

patch size m (integer):                 4
search window size n (integer):         10
std. dev. sigma (float):                130
output image1 (pgm):                     tex44sq.pgm

output image2 (pgm):                     tex43sq.pgm

Applying NL-means filter with patch size 4, 
window size 10 and std. dev. 130.0000

error value is 196.947205
self similarity of reference texture is 343.301910
similarity of original image with new texture is 682.669983

filtered image:
minimum:          63.47 
maximum:         210.63 
mean:            174.99 
standard dev.:    13.70 

output image-1 tex44sq.pgm successfully written

output image-2 tex43sq.pgm successfully written

method noise tex44sq_method_noise.pgm successfully written
NL-MEANS AND GAUSSIAN CONVOLUTION

**************************************************

    Copyright 2014 by Joachim Weickert,           
    Sven Grewenig and Pascal Peter                
    Dept. of Mathematics and Computer Science     
    Saarland University, Saarbruecken, Germany    

    All rights reserved. Unauthorized usage,      
    copying, hiring, and selling prohibited.      

    Send bug reports to                           
    weickert@mia.uni-saarland.de                  

**************************************************

first input image (pgm):                      texture3sq.pgm
second input image to compare (pgm):                      texture3rotatesq.pgm

available algorithms:                 
  (0) denoising with NL-means         
  (1) denoising with Gauss-convolution
your choice:                            0

patch size m (integer):                 4
search window size n (integer):         10
std. dev. sigma (float):                130
output image1 (pgm):                     tex33sq.pgm

output image2 (pgm):                     tex33rotatesq.pgm

Applying NL-means filter with patch size 4, 
window size 10 and std. dev. 130.0000

error value is 570.547729
self similarity of reference texture is 227.105713
similarity of original image with new texture is 1085.526855

filtered image:
minimum:          27.09 
maximum:         221.83 
mean:            158.15 
standard dev.:    28.67 

output image-1 tex33sq.pgm successfully written

output image-2 tex33rotatesq.pgm successfully written

method noise tex33sq_method_noise.pgm successfully written
NL-MEANS AND GAUSSIAN CONVOLUTION

**************************************************

    Copyright 2014 by Joachim Weickert,           
    Sven Grewenig and Pascal Peter                
    Dept. of Mathematics and Computer Science     
    Saarland University, Saarbruecken, Germany    

    All rights reserved. Unauthorized usage,      
    copying, hiring, and selling prohibited.      

    Send bug reports to                           
    weickert@mia.uni-saarland.de                  

**************************************************

first input image (pgm):                      texture3sq.pgm
second input image to compare (pgm):                      texture4sq.pgm

available algorithms:                 
  (0) denoising with NL-means         
  (1) denoising with Gauss-convolution
your choice:                            0 

patch size m (integer):                 4
search window size n (integer):         10
std. dev. sigma (float):                130
output image1 (pgm):                     tex33sq.pgm

output image2 (pgm):                     tex34sq.pgm

Applying NL-means filter with patch size 4, 
window size 10 and std. dev. 130.0000

error value is 714.305786
self similarity of reference texture is 227.105713
similarity of original image with new texture is 1221.450195

filtered image:
minimum:          27.09 
maximum:         221.83 
mean:            158.15 
standard dev.:    28.67 

output image-1 tex33sq.pgm successfully written

output image-2 tex34sq.pgm successfully written

method noise tex33sq_method_noise.pgm successfully written

NL-MEANS AND GAUSSIAN CONVOLUTION

**************************************************

    Copyright 2014 by Joachim Weickert,           
    Sven Grewenig and Pascal Peter                
    Dept. of Mathematics and Computer Science     
    Saarland University, Saarbruecken, Germany    

    All rights reserved. Unauthorized usage,      
    copying, hiring, and selling prohibited.      

    Send bug reports to                           
    weickert@mia.uni-saarland.de                  

**************************************************

first input image (pgm):                      texture3sq.pgm
second input image to compare (pgm):                      texture5sq.pgm

available algorithms:                 
  (0) denoising with NL-means         
  (1) denoising with Gauss-convolution
your choice:                            0

patch size m (integer):                 4
search window size n (integer):         10
std. dev. sigma (float):                130
output image1 (pgm):                     tex33sq.pgm

output image2 (pgm):                     tex35sq.pgm

Applying NL-means filter with patch size 4, 
window size 10 and std. dev. 130.0000

error value is 576.192932
self similarity of reference texture is 227.105713
similarity of original image with new texture is 1106.894531

filtered image:
minimum:          27.09 
maximum:         221.83 
mean:            158.15 
standard dev.:    28.67 

output image-1 tex33sq.pgm successfully written

output image-2 tex35sq.pgm successfully written

method noise tex33sq_method_noise.pgm successfully written

NL-MEANS AND GAUSSIAN CONVOLUTION

**************************************************

    Copyright 2014 by Joachim Weickert,           
    Sven Grewenig and Pascal Peter                
    Dept. of Mathematics and Computer Science     
    Saarland University, Saarbruecken, Germany    

    All rights reserved. Unauthorized usage,      
    copying, hiring, and selling prohibited.      

    Send bug reports to                           
    weickert@mia.uni-saarland.de                  

**************************************************

first input image (pgm):                      texture5sq.pgm
second input image to compare (pgm):                      texture5rotatesq.pgm

available algorithms:                 
  (0) denoising with NL-means         
  (1) denoising with Gauss-convolution
your choice:                            0

patch size m (integer):                 4
search window size n (integer):         10
std. dev. sigma (float):                130
output image1 (pgm):                     tex55sq.pgm

output image2 (pgm):                     tex55rotatesq.pgm

Applying NL-means filter with patch size 4, 
window size 10 and std. dev. 130.0000

error value is 129.682999
self similarity of reference texture is 309.732086
similarity of original image with new texture is 471.134857

filtered image:
minimum:          91.43 
maximum:         210.07 
mean:            146.25 
standard dev.:    14.40 

output image-1 tex55sq.pgm successfully written

output image-2 tex55rotatesq.pgm successfully written

method noise tex55sq_method_noise.pgm successfully written


NL-MEANS AND GAUSSIAN CONVOLUTION

**************************************************

    Copyright 2014 by Joachim Weickert,           
    Sven Grewenig and Pascal Peter                
    Dept. of Mathematics and Computer Science     
    Saarland University, Saarbruecken, Germany    

    All rights reserved. Unauthorized usage,      
    copying, hiring, and selling prohibited.      

    Send bug reports to                           
    weickert@mia.uni-saarland.de                  

**************************************************

first input image (pgm):                      texture5sq.pgm
second input image to compare (pgm):                      texture3sq.pgm

available algorithms:                 
  (0) denoising with NL-means         
  (1) denoising with Gauss-convolution
your choice:                            0

patch size m (integer):                 4
search window size n (integer):         10
std. dev. sigma (float):                130
output image1 (pgm):                     tex55sq.pgm

output image2 (pgm):                     tex53sq.pgm

Applying NL-means filter with patch size 4, 
window size 10 and std. dev. 130.0000

error value is 210.850693
self similarity of reference texture is 309.732086
similarity of original image with new texture is 489.965759

filtered image:
minimum:          91.43 
maximum:         210.07 
mean:            146.25 
standard dev.:    14.40 

output image-1 tex55sq.pgm successfully written

output image-2 tex53sq.pgm successfully written

method noise tex55sq_method_noise.pgm successfully written

NL-MEANS AND GAUSSIAN CONVOLUTION

**************************************************

    Copyright 2014 by Joachim Weickert,           
    Sven Grewenig and Pascal Peter                
    Dept. of Mathematics and Computer Science     
    Saarland University, Saarbruecken, Germany    

    All rights reserved. Unauthorized usage,      
    copying, hiring, and selling prohibited.      

    Send bug reports to                           
    weickert@mia.uni-saarland.de                  

**************************************************

first input image (pgm):                      texture5sq.pgm
second input image to compare (pgm):                      texture4sq.pgm

available algorithms:                 
  (0) denoising with NL-means         
  (1) denoising with Gauss-convolution
your choice:                            0

patch size m (integer):                 4 
search window size n (integer):         10
std. dev. sigma (float):                130
output image1 (pgm):                     tex55sq.pgm

output image2 (pgm):                     tex54sq.pgm

Applying NL-means filter with patch size 4, 
window size 10 and std. dev. 130.0000

error value is 748.331543
self similarity of reference texture is 309.732086
similarity of original image with new texture is 1049.688232

filtered image:
minimum:          91.43 
maximum:         210.07 
mean:            146.25 
standard dev.:    14.40 

output image-1 tex55sq.pgm successfully written

output image-2 tex54sq.pgm successfully written

method noise tex55sq_method_noise.pgm successfully written

NL-MEANS AND GAUSSIAN CONVOLUTION

**************************************************

    Copyright 2014 by Joachim Weickert,           
    Sven Grewenig and Pascal Peter                
    Dept. of Mathematics and Computer Science     
    Saarland University, Saarbruecken, Germany    

    All rights reserved. Unauthorized usage,      
    copying, hiring, and selling prohibited.      

    Send bug reports to                           
    weickert@mia.uni-saarland.de                  

**************************************************

first input image (pgm):                      check.pgm
second input image to compare (pgm):                      check1.pgm

available algorithms:                 
  (0) denoising with NL-means         
  (1) denoising with Gauss-convolution
your choice:                            0

patch size m (integer):                 4
search window size n (integer):         10
std. dev. sigma (float):                130
output image1 (pgm):                     checkselfout.pgm

output image2 (pgm):                     checkshiftout.pgm

Applying NL-means filter with patch size 4, 
window size 10 and std. dev. 130.0000

error value is 0.000000
self similarity of reference texture is 0.000000
similarity of original image with new texture is 0.000000
filtered image:
minimum:           0.00 
maximum:         255.00 
mean:            127.50 
standard dev.:   127.59 

output image-1 checkselfout.pgm successfully written

output image-2 checkshiftout.pgm successfully written

method noise checkselfout_method_noise.pgm successfully written

NL-MEANS AND GAUSSIAN CONVOLUTION

**************************************************

    Copyright 2014 by Joachim Weickert,           
    Sven Grewenig and Pascal Peter                
    Dept. of Mathematics and Computer Science     
    Saarland University, Saarbruecken, Germany    

    All rights reserved. Unauthorized usage,      
    copying, hiring, and selling prohibited.      

    Send bug reports to                           
    weickert@mia.uni-saarland.de                  

**************************************************

first input image (pgm):                      texture7sq.pgm
second input image to compare (pgm):                      texture7rotatesq.pgm

available algorithms:                 
  (0) denoising with NL-means         
  (1) denoising with Gauss-convolution
your choice:                            0

patch size m (integer):                 4 
search window size n (integer):         10
std. dev. sigma (float):                130
output image1 (pgm):                     tex77sq.pgm

output image2 (pgm):                     tex77rotatesq.pgm

Applying NL-means filter with patch size 4, 
window size 10 and std. dev. 130.0000

error value is 118.014572
self similarity of reference texture is 279.265289
similarity of original image with new texture is 483.258209
filtered image:
minimum:          65.55 
maximum:         235.47 
mean:            192.76 
standard dev.:    15.94 

output image-1 tex77sq.pgm successfully written

output image-2 tex77rotatesq.pgm successfully written

method noise tex77sq_method_noise.pgm successfully written

NL-MEANS AND GAUSSIAN CONVOLUTION

**************************************************

    Copyright 2014 by Joachim Weickert,           
    Sven Grewenig and Pascal Peter                
    Dept. of Mathematics and Computer Science     
    Saarland University, Saarbruecken, Germany    

    All rights reserved. Unauthorized usage,      
    copying, hiring, and selling prohibited.      

    Send bug reports to                           
    weickert@mia.uni-saarland.de                  

**************************************************

first input image (pgm):                      texture7sq.pgm
second input image to compare (pgm):                      texture8sq.pgm 

available algorithms:                 
  (0) denoising with NL-means         
  (1) denoising with Gauss-convolution
your choice:                            0

patch size m (integer):                 4
search window size n (integer):         10
std. dev. sigma (float):                130
output image1 (pgm):                     tex77sq.pgm

output image2 (pgm):                     tex78sq.pgm

Applying NL-means filter with patch size 4, 
window size 10 and std. dev. 130.0000

error value is 315.396912
self similarity of reference texture is 279.265289
similarity of original image with new texture is 745.491638
filtered image:
minimum:          65.55 
maximum:         235.47 
mean:            192.76 
standard dev.:    15.94 

output image-1 tex77sq.pgm successfully written

output image-2 tex78sq.pgm successfully written

method noise tex77sq_method_noise.pgm successfully written

NL-MEANS AND GAUSSIAN CONVOLUTION

**************************************************

    Copyright 2014 by Joachim Weickert,           
    Sven Grewenig and Pascal Peter                
    Dept. of Mathematics and Computer Science     
    Saarland University, Saarbruecken, Germany    

    All rights reserved. Unauthorized usage,      
    copying, hiring, and selling prohibited.      

    Send bug reports to                           
    weickert@mia.uni-saarland.de                  

**************************************************

first input image (pgm):                      texture7sq.pgm
second input image to compare (pgm):                      texture9sq.pgm

available algorithms:                 
  (0) denoising with NL-means         
  (1) denoising with Gauss-convolution
your choice:                            0 

patch size m (integer):                 4
search window size n (integer):         10
std. dev. sigma (float):                130
output image1 (pgm):                     tex77sq.pgm

output image2 (pgm):                     tex79sq.pgm

Applying NL-means filter with patch size 4, 
window size 10 and std. dev. 130.0000

error value is 826.435120
self similarity of reference texture is 279.265289
similarity of original image with new texture is 1237.954102
filtered image:
minimum:          65.55 
maximum:         235.47 
mean:            192.76 
standard dev.:    15.94 

output image-1 tex77sq.pgm successfully written

output image-2 tex79sq.pgm successfully written

method noise tex77sq_method_noise.pgm successfully written

NL-MEANS AND GAUSSIAN CONVOLUTION

**************************************************

    Copyright 2014 by Joachim Weickert,           
    Sven Grewenig and Pascal Peter                
    Dept. of Mathematics and Computer Science     
    Saarland University, Saarbruecken, Germany    

    All rights reserved. Unauthorized usage,      
    copying, hiring, and selling prohibited.      

    Send bug reports to                           
    weickert@mia.uni-saarland.de                  

**************************************************

first input image (pgm):                      texture7sq.pgm
second input image to compare (pgm):                      texture10sq.pgm

available algorithms:                 
  (0) denoising with NL-means         
  (1) denoising with Gauss-convolution
your choice:                            0

patch size m (integer):                 4
search window size n (integer):         10
std. dev. sigma (float):                130
output image1 (pgm):                     tex77sq.pgm

output image2 (pgm):                     tex710sq.pgm

Applying NL-means filter with patch size 4, 
window size 10 and std. dev. 130.0000

error value is 120.864273
self similarity of reference texture is 279.265289
similarity of original image with new texture is 486.962250
filtered image:
minimum:          65.55 
maximum:         235.47 
mean:            192.76 
standard dev.:    15.94 

output image-1 tex77sq.pgm successfully written

output image-2 tex710sq.pgm successfully written

method noise tex77sq_method_noise.pgm successfully written

NL-MEANS AND GAUSSIAN CONVOLUTION

**************************************************

    Copyright 2014 by Joachim Weickert,           
    Sven Grewenig and Pascal Peter                
    Dept. of Mathematics and Computer Science     
    Saarland University, Saarbruecken, Germany    

    All rights reserved. Unauthorized usage,      
    copying, hiring, and selling prohibited.      

    Send bug reports to                           
    weickert@mia.uni-saarland.de                  

**************************************************

first input image (pgm):                      texture7sq.pgm
second input image to compare (pgm):                      texture11sq.pgm

available algorithms:                 
  (0) denoising with NL-means         
  (1) denoising with Gauss-convolution
your choice:                            0

patch size m (integer):                 4
search window size n (integer):         10
std. dev. sigma (float):                130
output image1 (pgm):                     tex77sq.pgm

output image2 (pgm):                     tex711sq.pgm

Applying NL-means filter with patch size 4, 
window size 10 and std. dev. 130.0000

error value is 244.580994
self similarity of reference texture is 279.265289
similarity of original image with new texture is 632.365601
filtered image:
minimum:          65.55 
maximum:         235.47 
mean:            192.76 
standard dev.:    15.94 

output image-1 tex77sq.pgm successfully written

output image-2 tex711sq.pgm successfully written

method noise tex77sq_method_noise.pgm successfully written


NL-MEANS AND GAUSSIAN CONVOLUTION

**************************************************

    Copyright 2014 by Joachim Weickert,           
    Sven Grewenig and Pascal Peter                
    Dept. of Mathematics and Computer Science     
    Saarland University, Saarbruecken, Germany    

    All rights reserved. Unauthorized usage,      
    copying, hiring, and selling prohibited.      

    Send bug reports to                           
    weickert@mia.uni-saarland.de                  

**************************************************

first input image (pgm):                      texture8sq.pgm
second input image to compare (pgm):                      texture8rotatesq.pgm

available algorithms:                 
  (0) denoising with NL-means         
  (1) denoising with Gauss-convolution
your choice:                            0

patch size m (integer):                 4
search window size n (integer):         10
std. dev. sigma (float):                130
output image1 (pgm):                     tex88sq.pgm

output image2 (pgm):                     tex88rotatesq.pgm

Applying NL-means filter with patch size 4, 
window size 10 and std. dev. 130.0000

error value is 17.363428
self similarity of reference texture is 68.351273
similarity of original image with new texture is 108.368256
filtered image:
minimum:         155.13 
maximum:         195.14 
mean:            182.11 
standard dev.:     3.57 

output image-1 tex88sq.pgm successfully written

output image-2 tex88rotatesq.pgm successfully written

method noise tex88sq_method_noise.pgm successfully written

NL-MEANS AND GAUSSIAN CONVOLUTION

**************************************************

    Copyright 2014 by Joachim Weickert,           
    Sven Grewenig and Pascal Peter                
    Dept. of Mathematics and Computer Science     
    Saarland University, Saarbruecken, Germany    

    All rights reserved. Unauthorized usage,      
    copying, hiring, and selling prohibited.      

    Send bug reports to                           
    weickert@mia.uni-saarland.de                  

**************************************************

first input image (pgm):                      texture8sq.pgm
second input image to compare (pgm):                      texture7sq.pgm

available algorithms:                 
  (0) denoising with NL-means         
  (1) denoising with Gauss-convolution
your choice:                            0

patch size m (integer):                 4
search window size n (integer):         10
std. dev. sigma (float):                130
output image1 (pgm):                     tex88sq.pgm

output image2 (pgm):                     tex87sq.pgm

Applying NL-means filter with patch size 4, 
window size 10 and std. dev. 130.0000

error value is 115.701721
self similarity of reference texture is 68.351273
similarity of original image with new texture is 175.233810
filtered image:
minimum:         155.13 
maximum:         195.14 
mean:            182.11 
standard dev.:     3.57 

output image-1 tex88sq.pgm successfully written

output image-2 tex87sq.pgm successfully written

method noise tex88sq_method_noise.pgm successfully written

NL-MEANS AND GAUSSIAN CONVOLUTION

**************************************************

    Copyright 2014 by Joachim Weickert,           
    Sven Grewenig and Pascal Peter                
    Dept. of Mathematics and Computer Science     
    Saarland University, Saarbruecken, Germany    

    All rights reserved. Unauthorized usage,      
    copying, hiring, and selling prohibited.      

    Send bug reports to                           
    weickert@mia.uni-saarland.de                  

**************************************************

first input image (pgm):                      texture8sq.pgm
second input image to compare (pgm):                      texture9sq.pgm

available algorithms:                 
  (0) denoising with NL-means         
  (1) denoising with Gauss-convolution
your choice:                            0

patch size m (integer):                 4
search window size n (integer):         10
std. dev. sigma (float):                130
output image1 (pgm):                     tex88sq.pgm

output image2 (pgm):                     tex89sq.pgm

Applying NL-means filter with patch size 4, 
window size 10 and std. dev. 130.0000

error value is 1116.369141
self similarity of reference texture is 68.351273
similarity of original image with new texture is 1132.356812
filtered image:
minimum:         155.13 
maximum:         195.14 
mean:            182.11 
standard dev.:     3.57 

output image-1 tex88sq.pgm successfully written

output image-2 tex89sq.pgm successfully written

method noise tex88sq_method_noise.pgm successfully written

NL-MEANS AND GAUSSIAN CONVOLUTION

**************************************************

    Copyright 2014 by Joachim Weickert,           
    Sven Grewenig and Pascal Peter                
    Dept. of Mathematics and Computer Science     
    Saarland University, Saarbruecken, Germany    

    All rights reserved. Unauthorized usage,      
    copying, hiring, and selling prohibited.      

    Send bug reports to                           
    weickert@mia.uni-saarland.de                  

**************************************************

first input image (pgm):                      texture8sq.pgm
second input image to compare (pgm):                      texture10sq.pgm

available algorithms:                 
  (0) denoising with NL-means         
  (1) denoising with Gauss-convolution
your choice:                            0

patch size m (integer):                 4
search window size n (integer):         10
std. dev. sigma (float):                130
output image1 (pgm):                     tex88sq.pgm

output image2 (pgm):                     tex810sq.pgm

Applying NL-means filter with patch size 4, 
window size 10 and std. dev. 130.0000

error value is 91.649452
self similarity of reference texture is 68.351273
similarity of original image with new texture is 154.868423
filtered image:
minimum:         155.13 
maximum:         195.14 
mean:            182.11 
standard dev.:     3.57 

output image-1 tex88sq.pgm successfully written

output image-2 tex810sq.pgm successfully written

method noise tex88sq_method_noise.pgm successfully written


NL-MEANS AND GAUSSIAN CONVOLUTION

**************************************************

    Copyright 2014 by Joachim Weickert,           
    Sven Grewenig and Pascal Peter                
    Dept. of Mathematics and Computer Science     
    Saarland University, Saarbruecken, Germany    

    All rights reserved. Unauthorized usage,      
    copying, hiring, and selling prohibited.      

    Send bug reports to                           
    weickert@mia.uni-saarland.de                  

**************************************************

first input image (pgm):                      texture8sq.pgm
second input image to compare (pgm):                      texture11sq.pgm

available algorithms:                 
  (0) denoising with NL-means         
  (1) denoising with Gauss-convolution
your choice:                            0

patch size m (integer):                 4
search window size n (integer):         10
std. dev. sigma (float):                130
output image1 (pgm):                     tex88sq.pgm

output image2 (pgm):                     tex811sq.pgm

Applying NL-means filter with patch size 4, 
window size 10 and std. dev. 130.0000

error value is 347.462189
self similarity of reference texture is 68.351273
similarity of original image with new texture is 408.983490
filtered image:
minimum:         155.13 
maximum:         195.14 
mean:            182.11 
standard dev.:     3.57 

output image-1 tex88sq.pgm successfully written

output image-2 tex811sq.pgm successfully written

method noise tex88sq_method_noise.pgm successfully written

NL-MEANS AND GAUSSIAN CONVOLUTION

**************************************************

    Copyright 2014 by JoachNL-MEANS AND GAUSSIAN CONVOLUTION

**************************************************

    Copyright 2014 by Joachim Weickert,           
    Sven Grewenig and Pascal Peter                
    Dept. of Mathematics and Computer Science     
    Saarland University, Saarbruecken, Germany    

    All rights reserved. Unauthorized usage,      
    copying, hiring, and selling prohibited.      

    Send bug reports to                           
    weickert@mia.uni-saarland.de                  

**************************************************

first input image (pgm):                      texture11crop.pgm
second input image to compare (pgm):                      texture11crop1.pgm

available algorithms:                 
  (0) denoising with NL-means         
  (1) denoising with Gauss-convolution
your choice:                            0  

patch size m (integer):                 4
search window size n (integer):         10
std. dev. sigma (float):                80 
output image1 (pgm):                     tex1111cropless.pgm

output image2 (pgm):                     tex1111translateless.pgm

Applying NL-means filter with patch size 4, 
window size 10 and std. dev.  80.0000

error value is 357.770660
self similarity of reference texture is 36.461243
similarity of original image with new texture is 430.400665
filtered image:
minimum:          12.01 
maximum:         251.48 
mean:            199.60 
standard dev.:    35.06 

output image-1 tex1111cropless.pgm successfully written

output image-2 tex1111translateless.pgm successfully written

method noise tex1111cropless_method_noise.pgm successfully written
im Weickert,           
    Sven Grewenig and Pascal Peter                
    Dept. of Mathematics and Computer Science     
    Saarland University, Saarbruecken, Germany    

    All rights reserved. Unauthorized usage,      
    copying, hiring, and selling prohibited.      

    Send bug reports to                           
    weickert@mia.uni-saarland.de                  

**************************************************

first input image (pgm):                      texture7crop.pgm
second input image to compare (pgm):                      texture7crop1.pgm

available algorithms:                 
  (0) denoising with NL-means         
  (1) denoising with Gauss-convolution
your choice:                            0

patch size m (integer):                 4
search window size n (integer):         10
std. dev. sigma (float):                130
output image1 (pgm):                     tex77crop.pgm

output image2 (pgm):                     tex77translate.pgm

Applying NL-means filter with patch size 4, 
window size 10 and std. dev. 130.0000

error value is 95.552780
self similarity of reference texture is 286.050476
similarity of original image with new texture is 461.218353
filtered image:
minimum:          67.73 
maximum:         240.70 
mean:            192.43 
standard dev.:    15.37 

output image-1 tex77crop.pgm successfully written

output image-2 tex77translate.pgm successfully written

method noise tex77crop_method_noise.pgm successfully written

NL-MEANS AND GAUSSIAN CONVOLUTION

**************************************************

    Copyright 2014 by Joachim Weickert,           
    Sven Grewenig and Pascal Peter                
    Dept. of Mathematics and Computer Science     
    Saarland University, Saarbruecken, Germany    

    All rights reserved. Unauthorized usage,      
    copying, hiring, and selling prohibited.      

    Send bug reports to                           
    weickert@mia.uni-saarland.de                  

**************************************************

first input image (pgm):                      texture7crop.pgm
second input image to compare (pgm):                      texture7croprotate.pgm

available algorithms:                 
  (0) denoising with NL-means         
  (1) denoising with Gauss-convolution
your choice:                            0

patch size m (integer):                 4
search window size n (integer):         10
std. dev. sigma (float):                130
output image1 (pgm):                     tex77crop.pgm

output image2 (pgm):                     tex77croprotate.pgm

Applying NL-means filter with patch size 4, 
window size 10 and std. dev. 130.0000

error value is 110.923164
self similarity of reference texture is 286.050476
similarity of original image with new texture is 482.246613
filtered image:
minimum:          67.73 
maximum:         240.70 
mean:            192.43 
standard dev.:    15.37 

output image-1 tex77crop.pgm successfully written

output image-2 tex77croprotate.pgm successfully written

method noise tex77crop_method_noise.pgm successfully written

NL-MEANS AND GAUSSIAN CONVOLUTION

**************************************************

    Copyright 2014 by Joachim Weickert,           
    Sven Grewenig and Pascal Peter                
    Dept. of Mathematics and Computer Science     
    Saarland University, Saarbruecken, Germany    

    All rights reserved. Unauthorized usage,      
    copying, hiring, and selling prohibited.      

    Send bug reports to                           
    weickert@mia.uni-saarland.de                  

**************************************************

first input image (pgm):                      texture8crop.pgm
second input image to compare (pgm):                      texture8crop1.pgm

available algorithms:                 
  (0) denoising with NL-means         
  (1) denoising with Gauss-convolution
your choice:                            0

patch size m (integer):                 4
search window size n (integer):         10
std. dev. sigma (float):                130
output image1 (pgm):                     tex88crop.pgm

output image2 (pgm):                     tex88translate.pgm

Applying NL-means filter with patch size 4, 
window size 10 and std. dev. 130.0000

error value is 12.288491
self similarity of reference texture is 77.197525
similarity of original image with new texture is 101.181892
filtered image:
minimum:         158.16 
maximum:         194.06 
mean:            182.34 
standard dev.:     3.62 

output image-1 tex88crop.pgm successfully written

output image-2 tex88translate.pgm successfully written

method noise tex88crop_method_noise.pgm successfully written


NL-MEANS AND GAUSSIAN CONVOLUTION

**************************************************

    Copyright 2014 by Joachim Weickert,           
    Sven Grewenig and Pascal Peter                
    Dept. of Mathematics and Computer Science     
    Saarland University, Saarbruecken, Germany    

    All rights reserved. Unauthorized usage,      
    copying, hiring, and selling prohibited.      

    Send bug reports to                           
    weickert@mia.uni-saarland.de                  

**************************************************

first input image (pgm):                      texture8crop.pgm
second input image to compare (pgm):                      texture8croprotate.pgm

available algorithms:                 
  (0) denoising with NL-means         
  (1) denoising with Gauss-convolution
your choice:                            0

patch size m (integer):                 4
search window size n (integer):         10
std. dev. sigma (float):                130
output image1 (pgm):                     tex88crop.pgm

output image2 (pgm):                     tex88croprotate.pgm

Applying NL-means filter with patch size 4, 
window size 10 and std. dev. 130.0000

error value is 17.505774
self similarity of reference texture is 77.197525
similarity of original image with new texture is 120.752266
filtered image:
minimum:         158.16 
maximum:         194.06 
mean:            182.34 
standard dev.:     3.62 

output image-1 tex88crop.pgm successfully written

output image-2 tex88croprotate.pgm successfully written

method noise tex88crop_method_noise.pgm successfully written

NL-MEANS AND GAUSSIAN CONVOLUTION

**************************************************

    Copyright 2014 by Joachim Weickert,           
    Sven Grewenig and Pascal Peter                
    Dept. of Mathematics and Computer Science     
    Saarland University, Saarbruecken, Germany    

    All rights reserved. Unauthorized usage,      
    copying, hiring, and selling prohibited.      

    Send bug reports to                           
    weickert@mia.uni-saarland.de                  

**************************************************

first input image (pgm):                      texture10crop.pgm
second input image to compare (pgm):                      texture10crop1.pgm

available algorithms:                 
  (0) denoising with NL-means         
  (1) denoising with Gauss-convolution
your choice:                            0

patch size m (integer):                 4
search window size n (integer):         10
std. dev. sigma (float):                130
output image1 (pgm):                     tex1010crop.pgm

output image2 (pgm):                     tex1010translate.pgm

Applying NL-means filter with patch size 4, 
window size 10 and std. dev. 130.0000

error value is 179.875458
self similarity of reference texture is 177.726486
similarity of original image with new texture is 440.501495
filtered image:
minimum:          20.73 
maximum:         245.54 
mean:            186.65 
standard dev.:    26.42 

output image-1 tex1010crop.pgm successfully written

output image-2 tex1010translate.pgm successfully written

method noise tex1010crop_method_noise.pgm successfully written

NL-MEANS AND GAUSSIAN CONVOLUTION

**************************************************

    Copyright 2014 by Joachim Weickert,           
    Sven Grewenig and Pascal Peter                
    Dept. of Mathematics and Computer Science     
    Saarland University, Saarbruecken, Germany    

    All rights reserved. Unauthorized usage,      
    copying, hiring, and selling prohibited.      

    Send bug reports to                           
    weickert@mia.uni-saarland.de                  

**************************************************

first input image (pgm):                      texture10crop.pgm
second input image to compare (pgm):                      texture10croprotate.pgm

available algorithms:                 
  (0) denoising with NL-means         
  (1) denoising with Gauss-convolution
your choice:                            0

patch size m (integer):                 4
search window size n (integer):         10
std. dev. sigma (float):                130
output image1 (pgm):                     tex1010crop.pgm

output image2 (pgm):                     tex1010croprotate.pgm

Applying NL-means filter with patch size 4, 
window size 10 and std. dev. 130.0000

error value is 227.671997
self similarity of reference texture is 177.726486
similarity of original image with new texture is 497.551056
filtered image:
minimum:          20.73 
maximum:         245.54 
mean:            186.65 
standard dev.:    26.42 

output image-1 tex1010crop.pgm successfully written

output image-2 tex1010croprotate.pgm successfully written

method noise tex1010crop_method_noise.pgm successfully written


NL-MEANS AND GAUSSIAN CONVOLUTION

**************************************************

    Copyright 2014 by Joachim Weickert,           
    Sven Grewenig and Pascal Peter                
    Dept. of Mathematics and Computer Science     
    Saarland University, Saarbruecken, Germany    

    All rights reserved. Unauthorized usage,      
    copying, hiring, and selling prohibited.      

    Send bug reports to                           
    weickert@mia.uni-saarland.de                  

**************************************************

first input image (pgm):                      texture11crop.pgm
second input image to compare (pgm):                      texture11crop1.pgm

available algorithms:                 
  (0) denoising with NL-means         
  (1) denoising with Gauss-convolution
your choice:                            0

patch size m (integer):                 4
search window size n (integer):         10
std. dev. sigma (float):                130
output image1 (pgm):                     tex1111crop.pgm

output image2 (pgm):                     tex1111translate.pgm

Applying NL-means filter with patch size 4, 
window size 10 and std. dev. 130.0000

error value is 342.156982
self similarity of reference texture is 89.468536
similarity of original image with new texture is 506.126770
filtered image:
minimum:          17.02 
maximum:         247.10 
mean:            200.32 
standard dev.:    32.86 

output image-1 tex1111crop.pgm successfully written

output image-2 tex1111translate.pgm successfully written

method noise tex1111crop_method_noise.pgm successfully written


NL-MEANS AND GAUSSIAN CONVOLUTION

**************************************************

    Copyright 2014 by Joachim Weickert,           
    Sven Grewenig and Pascal Peter                
    Dept. of Mathematics and Computer Science     
    Saarland University, Saarbruecken, Germany    

    All rights reserved. Unauthorized usage,      
    copying, hiring, and selling prohibited.      

    Send bug reports to                           
    weickert@mia.uni-saarland.de                  

**************************************************

first input image (pgm):                      texture11crop.pgm
second input image to compare (pgm):                      texture11croprotate.pgm

available algorithms:                 
  (0) denoising with NL-means         
  (1) denoising with Gauss-convolution
your choice:                            0

patch size m (integer):                 4
search window size n (integer):         10 
std. dev. sigma (float):                130
output image1 (pgm):                     tex1111crop.pgm

output image2 (pgm):                     tex1111croprotate.pgm

Applying NL-means filter with patch size 4, 
window size 10 and std. dev. 130.0000

error value is 411.747498
self similarity of reference texture is 89.468536
similarity of original image with new texture is 580.174744
filtered image:
minimum:          17.02 
maximum:         247.10 
mean:            200.32 
standard dev.:    32.86 

output image-1 tex1111crop.pgm successfully written

output image-2 tex1111croprotate.pgm successfully written

method noise tex1111crop_method_noise.pgm successfully written


NL-MEANS AND GAUSSIAN CONVOLUTION

**************************************************

    Copyright 2014 by Joachim Weickert,           
    Sven Grewenig and Pascal Peter                
    Dept. of Mathematics and Computer Science     
    Saarland University, Saarbruecken, Germany    

    All rights reserved. Unauthorized usage,      
    copying, hiring, and selling prohibited.      

    Send bug reports to                           
    weickert@mia.uni-saarland.de                  

**************************************************

first input image (pgm):                      texture11crop.pgm
second input image to compare (pgm):                      texture10crop1.pgm

available algorithms:                 
  (0) denoising with NL-means         
  (1) denoising with Gauss-convolution
your choice:                            0

patch size m (integer):                 4
search window size n (integer):         10
std. dev. sigma (float):                130
output image1 (pgm):                     tex1111crop.pgm

output image2 (pgm):                     tex1110crop1.pgm

Applying NL-means filter with patch size 4, 
window size 10 and std. dev. 130.0000

error value is 412.330414
self similarity of reference texture is 89.468536
similarity of original image with new texture is 554.516479
filtered image:
minimum:          17.02 
maximum:         247.10 
mean:            200.32 
standard dev.:    32.86 

output image-1 tex1111crop.pgm successfully written

output image-2 tex1110crop1.pgm successfully written

method noise tex1111crop_method_noise.pgm successfully written


NL-MEANS AND GAUSSIAN CONVOLUTION

**************************************************

    Copyright 2014 by Joachim Weickert,           
    Sven Grewenig and Pascal Peter                
    Dept. of Mathematics and Computer Science     
    Saarland University, Saarbruecken, Germany    

    All rights reserved. Unauthorized usage,      
    copying, hiring, and selling prohibited.      

    Send bug reports to                           
    weickert@mia.uni-saarland.de                  

**************************************************

first input image (pgm):                      texture11crop.pgm
second input image to compare (pgm):                      texture10crop1.pgm

available algorithms:                 
  (0) denoising with NL-means         
  (1) denoising with Gauss-convolution
your choice:                            0

patch size m (integer):                 4
search window size n (integer):         10
std. dev. sigma (float):                80
output image1 (pgm):                     tex1111cropless.pgm

output image2 (pgm):                     tex1110crop1less.pgm

Applying NL-means filter with patch size 4, 
window size 10 and std. dev.  80.0000

error value is 363.257690
self similarity of reference texture is 36.461243
similarity of original image with new texture is 423.904572
filtered image:
minimum:          12.01 
maximum:         251.48 
mean:            199.60 
standard dev.:    35.06 

output image-1 tex1111cropless.pgm successfully written

output image-2 tex1110crop1less.pgm successfully written

method noise tex1111cropless_method_noise.pgm successfully written


NL-MEANS AND GAUSSIAN CONVOLUTION

**************************************************

    Copyright 2014 by Joachim Weickert,           
    Sven Grewenig and Pascal Peter                
    Dept. of Mathematics and Computer Science     
    Saarland University, Saarbruecken, Germany    

    All rights reserved. Unauthorized usage,      
    copying, hiring, and selling prohibited.      

    Send bug reports to                           
    weickert@mia.uni-saarland.de                  

**************************************************

first input image (pgm):                      texture11crop.pgm
second input image to compare (pgm):                      texture11croprotate.pgm

available algorithms:                 
  (0) denoising with NL-means         
  (1) denoising with Gauss-convolution
your choice:                            0

patch size m (integer):                 4
search window size n (integer):         10
std. dev. sigma (float):                130
output image1 (pgm):                     tex1111cropless.pgm

output image2 (pgm):                     tex1111croprotateless.pgm

Applying NL-means filter with patch size 4, 
window size 10 and std. dev. 130.0000

error value is 411.747498
self similarity of reference texture is 89.468536
similarity of original image with new texture is 580.174744
filtered image:
minimum:          17.02 
maximum:         247.10 
mean:            200.32 
standard dev.:    32.86 

output image-1 tex1111cropless.pgm successfully written

output image-2 tex1111croprotateless.pgm successfully written

method noise tex1111cropless_method_noise.pgm successfully written

NL-MEANS AND GAUSSIAN CONVOLUTION

**************************************************

    Copyright 2014 by Joachim Weickert,           
    Sven Grewenig and Pascal Peter                
    Dept. of Mathematics and Computer Science     
    Saarland University, Saarbruecken, Germany    

    All rights reserved. Unauthorized usage,      
    copying, hiring, and selling prohibited.      

    Send bug reports to                           
    weickert@mia.uni-saarland.de                  

**************************************************

first input image (pgm):                      texture11crop.pgm
second input image to compare (pgm):                      texture11crop1.pgm

available algorithms:                 
  (0) denoising with NL-means         
  (1) denoising with Gauss-convolution
your choice:                            0  

patch size m (integer):                 4
search window size n (integer):         10
std. dev. sigma (float):                80 
output image1 (pgm):                     tex1111cropless.pgm

output image2 (pgm):                     tex1111translateless.pgm

Applying NL-means filter with patch size 4, 
window size 10 and std. dev.  80.0000

error value is 357.770660
self similarity of reference texture is 36.461243
similarity of original image with new texture is 430.400665
filtered image:
minimum:          12.01 
maximum:         251.48 
mean:            199.60 
standard dev.:    35.06 

output image-1 tex1111cropless.pgm successfully written

output image-2 tex1111translateless.pgm successfully written

method noise tex1111cropless_method_noise.pgm successfully written

sigma has to be predefined for patch and window size....

